EESchema Schematic File Version 2
LIBS:Raspberry_Shield-rescue
LIBS:PCF8575
LIBS:Atmega8
LIBS:74lvc1g32
LIBS:Raspberry_Shield-cache
EELAYER 26 0
EELAYER END
$Descr A4 11693 8268
encoding utf-8
Sheet 3 8
Title "Laser4DIY Raspberry Pi Shield"
Date "2017-12-22"
Rev "01"
Comp ""
Comment1 ""
Comment2 ""
Comment3 ""
Comment4 ""
$EndDescr
$Comp
L GND-RESCUE-Raspberry_Shield-RESCUE-Raspberry_Shield #PWR012
U 1 1 55E8AA8C
P 5525 5375
F 0 "#PWR012" H 5525 5375 30  0001 C CNN
F 1 "GND" H 5525 5305 30  0001 C CNN
F 2 "~" H 5525 5375 60  0000 C CNN
F 3 "~" H 5525 5375 60  0000 C CNN
F 4 "ANY" H 5525 5375 60  0001 C CNN "Source"
F 5 "N" H 5525 5375 60  0001 C CNN "Critical"
F 6 "~" H 5525 5375 60  0001 C CNN "Notes"
	1    5525 5375
	1    0    0    -1  
$EndComp
Wire Wire Line
	5525 2650 5525 3500
Wire Wire Line
	4900 2900 5775 2900
Wire Wire Line
	5525 3200 5775 3200
Connection ~ 5525 2900
Wire Wire Line
	5525 5000 5525 5375
Wire Wire Line
	5775 5200 5525 5200
Connection ~ 5525 5200
Wire Wire Line
	7675 4500 9340 4500
Wire Wire Line
	7675 4600 9340 4600
Text HLabel 7800 4250 2    40   Input ~ 0
ARD_AN5/SCL
Text HLabel 7800 4150 2    40   Input ~ 0
ARD_AN4/SDA
Text HLabel 7800 4050 2    40   Input ~ 0
ARD_AN3
Text HLabel 7800 3950 2    40   Input ~ 0
ARD_AN2
Text HLabel 7800 3850 2    40   Input ~ 0
ARD_AN1
Text HLabel 7800 3750 2    40   Input ~ 0
ARD_AN0
Wire Wire Line
	7800 4250 7675 4250
Wire Wire Line
	7675 4150 7800 4150
Wire Wire Line
	7800 4050 7675 4050
Wire Wire Line
	7675 3950 7800 3950
Wire Wire Line
	7800 3850 7675 3850
Wire Wire Line
	7675 3750 7800 3750
Text HLabel 7800 5200 2    40   Input ~ 0
ARD_DIG7
Text HLabel 7800 5100 2    40   Input ~ 0
ARD_DIG6
Text HLabel 7800 5000 2    40   Input ~ 0
ARD_DIG5
Text HLabel 7800 4900 2    40   Input ~ 0
ARD_DIG4
Text HLabel 7800 4800 2    40   Input ~ 0
ARD_DIG3
Text HLabel 7800 4700 2    40   Input ~ 0
ARD_DIG2
Text HLabel 9340 4600 2    40   Input ~ 0
ARD_DIG1
Text HLabel 9340 4500 2    40   Input ~ 0
ARD_DIG0
Wire Wire Line
	7675 4700 7800 4700
Wire Wire Line
	7800 4800 7675 4800
Wire Wire Line
	7675 4900 7800 4900
Wire Wire Line
	7800 5000 7675 5000
Wire Wire Line
	7675 5100 7800 5100
Wire Wire Line
	7800 5200 7675 5200
Text HLabel 7800 2900 2    40   Input ~ 0
ARD_DIG8
Text HLabel 7800 3000 2    40   Input ~ 0
ARD_DIG9
Text HLabel 7800 3100 2    40   Input ~ 0
ARD_DIG10/SPI_SS
Text HLabel 8525 3200 2    40   Input ~ 0
ARD_DIG11/SPI_MOSI
Text HLabel 9325 3300 2    40   Input ~ 0
ARD_DIG12/SPI_MISO
Text HLabel 9325 3400 2    40   Input ~ 0
ARD_DIG13/SPI_SCK
Wire Wire Line
	7800 2900 7675 2900
Wire Wire Line
	7675 3000 7800 3000
Wire Wire Line
	7800 3100 7675 3100
Wire Wire Line
	7675 3200 8525 3200
Wire Wire Line
	7675 3300 9325 3300
Wire Wire Line
	7675 3400 9325 3400
Text HLabel 6105 2025 2    40   Input ~ 0
328P_RESET
$Comp
L CONN_02X03 Prog1
U 1 1 55E8CAAE
P 3825 1375
F 0 "Prog1" H 3825 1625 50  0000 C CNN
F 1 "M20-9980346" H 3825 1175 40  0000 C CNN
F 2 "w_pin_strip:pin_socket_3x2" H 3825 1375 60  0001 C CNN
F 3 "http://cdn.harwin.com/pdfs/M20-998.pdf" H 3825 1375 60  0001 C CNN
F 4 "M20-9980346" H 3825 1375 60  0001 C CNN "manf#"
F 5 "6 CONTACT(S), MALE, STRAIGHT TWO PART BOARD CONNECTOR" H 3825 1375 60  0001 C CNN "Characteristics"
F 6 "ATMEGA328P ICSP Header" H 3825 1375 60  0001 C CNN "Description"
F 7 "Harwin" H 3825 1375 60  0001 C CNN "MFN"
F 8 "M20-9980346" H 3825 1375 60  0001 C CNN "MFP"
F 9 "PTH" H 3825 1375 60  0001 C CNN "Package ID"
F 10 "ANY" H 3825 1375 60  0001 C CNN "Source"
F 11 "N" H 3825 1375 60  0001 C CNN "Critical"
F 12 "328P_Sub" H 3825 1375 60  0001 C CNN "Subsystem"
F 13 "~" H 3825 1375 60  0001 C CNN "Notes"
	1    3825 1375
	1    0    0    -1  
$EndComp
$Comp
L D D7
U 1 1 55E8CABC
P 5325 1725
F 0 "D7" H 5325 1825 40  0000 C CNN
F 1 "1N4148W-7-F" H 5325 1625 40  0000 C CNN
F 2 "w_smd_diode:sod123" H 5325 1725 60  0001 C CNN
F 3 "http://www.diodes.com/_files/datasheets/ds30086.pdf" H 5325 1725 60  0001 C CNN
F 4 "1N4148W-7-F" H 5325 1725 60  0001 C CNN "manf#"
F 5 "DIODE GEN PURP 100V 300MA SOD123" H 5325 1725 60  0001 C CNN "Characteristics"
F 6 "ATMEGA328P ICSP Reset Voltage Spike Protection" H 5325 1725 60  0001 C CNN "Description"
F 7 "Diodes Inc" H 5325 1725 60  0001 C CNN "MFN"
F 8 "1N4148W-7-F" H 5325 1725 60  0001 C CNN "MFP"
F 9 "SOD123" H 5325 1725 60  0001 C CNN "Package ID"
F 10 "ANY" H 5325 1725 60  0001 C CNN "Source"
F 11 "N" H 5325 1725 60  0001 C CNN "Critical"
F 12 "328P_Sub" H 5325 1725 60  0001 C CNN "Subsystem"
F 13 "~" H 5325 1725 60  0001 C CNN "Notes"
	1    5325 1725
	0    1    1    0   
$EndComp
Wire Wire Line
	4925 1000 4925 1625
Wire Wire Line
	5325 2025 5325 1875
Wire Wire Line
	4925 2025 4925 1825
Connection ~ 5325 2025
Connection ~ 4925 1275
Wire Wire Line
	4075 1275 5325 1275
Wire Wire Line
	4150 1475 4150 1800
Wire Wire Line
	4075 1475 4150 1475
Wire Wire Line
	3500 1475 3575 1475
Connection ~ 4925 2025
Wire Wire Line
	3225 1375 3575 1375
Wire Wire Line
	3225 1275 3575 1275
Wire Wire Line
	5325 1275 5325 1575
Text GLabel 9325 3525 2    40   Input ~ 0
328P_ICSP_SCK
Text GLabel 9325 3200 2    40   Input ~ 0
328P_ICSP_MISO
Text GLabel 8550 3100 2    40   Input ~ 0
328P_ICSP_MOSI
Wire Wire Line
	9325 3525 9225 3525
Wire Wire Line
	9225 3525 9225 3400
Connection ~ 9225 3400
Wire Wire Line
	9325 3200 9225 3200
Wire Wire Line
	9225 3200 9225 3300
Connection ~ 9225 3300
Wire Wire Line
	8550 3100 8450 3100
Wire Wire Line
	8450 3100 8450 3200
Connection ~ 8450 3200
Text GLabel 3225 1375 0    40   Input ~ 0
328P_ICSP_SCK
Text GLabel 3225 1275 0    40   Input ~ 0
328P_ICSP_MISO
Text GLabel 4325 1375 2    40   Input ~ 0
328P_ICSP_MOSI
Wire Wire Line
	4075 1375 4325 1375
Connection ~ 3500 2025
Wire Wire Line
	1875 2025 6105 2025
Wire Wire Line
	1525 2875 1525 2950
Wire Wire Line
	3500 1475 3500 2025
$Comp
L R_Small R16
U 1 1 56159EEE
P 4925 1725
F 0 "R16" V 5005 1725 40  0000 C CNN
F 1 "10K" V 4850 1725 40  0000 C CNN
F 2 "IPC7351-Nominal:RESC1005X40" V 4855 1725 30  0001 C CNN
F 3 "http://images.ihscontent.net/vipimages/VipMasterIC/IC/VISH/VISHS75859/VISHS75859-1.pdf" H 4925 1725 30  0001 C CNN
F 4 "RC1005F103CS" H 4925 1725 60  0001 C CNN "manf#"
	1    4925 1725
	-1   0    0    1   
$EndComp
$Comp
L GND-RESCUE-Raspberry_Shield-RESCUE-Raspberry_Shield #PWR013
U 1 1 56207AE4
P 1525 2950
F 0 "#PWR013" H 1525 2950 30  0001 C CNN
F 1 "GND" H 1525 2880 30  0001 C CNN
F 2 "~" H 1525 2950 60  0000 C CNN
F 3 "~" H 1525 2950 60  0000 C CNN
F 4 "ANY" H 1525 2950 60  0001 C CNN "Source"
F 5 "N" H 1525 2950 60  0001 C CNN "Critical"
F 6 "~" H 1525 2950 60  0001 C CNN "Notes"
	1    1525 2950
	1    0    0    -1  
$EndComp
$Comp
L GND-RESCUE-Raspberry_Shield-RESCUE-Raspberry_Shield #PWR014
U 1 1 56208C49
P 4150 1800
F 0 "#PWR014" H 4150 1800 30  0001 C CNN
F 1 "GND" H 4150 1730 30  0001 C CNN
F 2 "~" H 4150 1800 60  0000 C CNN
F 3 "~" H 4150 1800 60  0000 C CNN
F 4 "ANY" H 4150 1800 60  0001 C CNN "Source"
F 5 "N" H 4150 1800 60  0001 C CNN "Critical"
F 6 "~" H 4150 1800 60  0001 C CNN "Notes"
	1    4150 1800
	1    0    0    -1  
$EndComp
$Comp
L BSS138-RESCUE-Raspberry_Shield Q3
U 1 1 57A5055A
P 1775 2350
AR Path="/57A5055A" Ref="Q3"  Part="1" 
AR Path="/55E89CE4/57A5055A" Ref="Q3"  Part="1" 
F 0 "Q3" H 1966 2396 50  0000 L CNN
F 1 "BSS138" H 1966 2305 50  0000 L CNN
F 2 "TO_SOT_Packages_SMD:SOT-23" H 1975 2275 50  0001 L CIN
F 3 "" H 1775 2350 50  0000 L CNN
F 4 "BSS138CT-ND" H 1775 2350 60  0001 C CNN "manf#"
	1    1775 2350
	1    0    0    -1  
$EndComp
$Comp
L R_Small R12
U 1 1 57A50DE7
P 1525 2775
F 0 "R12" H 1584 2821 50  0000 L CNN
F 1 "5k" H 1584 2730 50  0000 L CNN
F 2 "IPC7351-Nominal:RESC1005X40" H 1525 2775 50  0001 C CNN
F 3 "" H 1525 2775 50  0000 C CNN
F 4 "RC1005F4991CS" H 1525 2775 60  0001 C CNN "manf#"
	1    1525 2775
	1    0    0    -1  
$EndComp
Wire Wire Line
	1875 2150 1875 2025
Wire Wire Line
	1525 2225 1525 2675
$Comp
L GND-RESCUE-Raspberry_Shield-RESCUE-Raspberry_Shield #PWR015
U 1 1 57A512B7
P 1875 2950
F 0 "#PWR015" H 1875 2950 30  0001 C CNN
F 1 "GND" H 1875 2880 30  0001 C CNN
F 2 "~" H 1875 2950 60  0000 C CNN
F 3 "~" H 1875 2950 60  0000 C CNN
F 4 "ANY" H 1875 2950 60  0001 C CNN "Source"
F 5 "N" H 1875 2950 60  0001 C CNN "Critical"
F 6 "~" H 1875 2950 60  0001 C CNN "Notes"
	1    1875 2950
	1    0    0    -1  
$EndComp
Wire Wire Line
	1875 2950 1875 2550
Wire Wire Line
	1425 2400 1575 2400
Connection ~ 1525 2400
Text GLabel 1425 2400 0    60   Input ~ 0
Prog_RESET_Ardu
$Comp
L C_Small C15
U 1 1 57AD4DF6
P 5250 3075
F 0 "C15" H 5342 3121 50  0000 L CNN
F 1 "0.1µF 50V" H 5342 3030 50  0000 L CNN
F 2 "IPC7351-Nominal:CAPC1005X60" H 5250 3075 50  0001 C CNN
F 3 "" H 5250 3075 50  0000 C CNN
F 4 "GRM155R61H104ME14D" H 5250 3075 60  0001 C CNN "manf#"
	1    5250 3075
	-1   0    0    1   
$EndComp
Wire Wire Line
	5250 2900 5250 2975
$Comp
L GND-RESCUE-Raspberry_Shield-RESCUE-Raspberry_Shield #PWR016
U 1 1 57C63C40
P 5250 3250
F 0 "#PWR016" H 5250 3250 30  0001 C CNN
F 1 "GND" H 5250 3180 30  0001 C CNN
F 2 "~" H 5250 3250 60  0000 C CNN
F 3 "~" H 5250 3250 60  0000 C CNN
F 4 "ANY" H 5250 3250 60  0001 C CNN "Source"
F 5 "N" H 5250 3250 60  0001 C CNN "Critical"
F 6 "~" H 5250 3250 60  0001 C CNN "Notes"
	1    5250 3250
	1    0    0    -1  
$EndComp
Wire Wire Line
	5250 3175 5250 3250
$Comp
L CERAMIC_RESONATOR X1
U 1 1 57C65CD6
P 8650 3975
F 0 "X1" H 8575 3850 50  0000 R CNN
F 1 "CSTCE16MOV53-R0" H 9300 3850 40  0000 R CNN
F 2 "crystals-[JS]:CSTCE_V13C" H 8650 3975 60  0001 C CNN
F 3 "http://www.murata.com/~/media/webrenewal/support/library/catalog/products/timingdevice/ceralock/p16e.ashx" H 8650 3975 60  0001 C CNN
F 4 "CSTCE16M0V53-R0" H 8650 3975 60  0001 C CNN "manf#"
F 5 "CER RESONATOR 16.0MHZ SMD" H 8650 3975 60  0001 C CNN "Characteristics"
F 6 "ATMEGA328P Oscillator" H 8650 3975 60  0001 C CNN "Description"
F 7 "Murata" H 8650 3975 60  0001 C CNN "MFN"
F 8 "CSTCE16M0V53-R0" H 8650 3975 60  0001 C CNN "MFP"
F 9 "SMD" H 8650 3975 60  0001 C CNN "Package ID"
F 10 "ANY" H 8650 3975 60  0001 C CNN "Source"
F 11 "Y" H 8650 3975 60  0001 C CNN "Critical"
F 12 "328P_Sub" H 8650 3975 60  0001 C CNN "Subsystem"
F 13 "~" H 8650 3975 60  0001 C CNN "Notes"
	1    8650 3975
	1    0    0    -1  
$EndComp
$Comp
L R_Small R17
U 1 1 57C65CE6
P 8650 3675
F 0 "R17" V 8725 3625 40  0000 L CNN
F 1 "1M" V 8575 3675 40  0000 C CNN
F 2 "IPC7351-Nominal:RESC1005X40" V 8580 3675 30  0001 C CNN
F 3 "http://www.vishay.com/docs/20035/dcrcwe3.pdf" H 8650 3675 30  0001 C CNN
F 4 "RC1005F105CS" H 8650 3675 60  0001 C CNN "manf#"
F 5 "1276-3433-1-ND" V 8650 3675 60  0001 C CNN "digikey#"
	1    8650 3675
	0    1    1    0   
$EndComp
Wire Wire Line
	7675 3500 9100 3500
Wire Wire Line
	9100 3500 9100 3925
Wire Wire Line
	9100 3925 9050 3925
Wire Wire Line
	8750 3675 9100 3675
Connection ~ 9100 3675
Wire Wire Line
	8200 3925 8250 3925
Wire Wire Line
	8200 3600 8200 3925
Wire Wire Line
	8200 3600 7675 3600
Wire Wire Line
	8550 3675 8200 3675
Connection ~ 8200 3675
Text Label 5400 2025 0    60   ~ 0
~RESET
Text HLabel 8125 4350 2    40   Input ~ 0
328P_RESET
Wire Wire Line
	8125 4350 7675 4350
Wire Wire Line
	8200 4600 8200 5650
$Comp
L GND-RESCUE-Raspberry_Shield-RESCUE-Raspberry_Shield #PWR017
U 1 1 580970C1
P 7500 6125
F 0 "#PWR017" H 7500 5875 50  0001 C CNN
F 1 "GND" H 7500 5975 50  0000 C CNN
F 2 "" H 7500 6125 50  0000 C CNN
F 3 "" H 7500 6125 50  0000 C CNN
	1    7500 6125
	1    0    0    -1  
$EndComp
$Comp
L R_Small R14
U 1 1 58098D00
P 7500 5900
F 0 "R14" V 7580 5900 50  0000 C CNN
F 1 "10k" V 7400 5900 50  0000 C CNN
F 2 "IPC7351-Nominal:RESC1005X40" V 7430 5900 50  0001 C CNN
F 3 "" H 7500 5900 50  0000 C CNN
F 4 "RC1005F103CS" H 7500 5900 60  0001 C CNN "manf#"
	1    7500 5900
	1    0    0    -1  
$EndComp
Wire Wire Line
	7500 6000 7500 6125
$Comp
L R_Small R15
U 1 1 58098DBE
P 7900 5650
F 0 "R15" V 8000 5650 50  0000 C CNN
F 1 "5k" V 7800 5650 50  0000 C CNN
F 2 "IPC7351-Nominal:RESC1005X40" V 7830 5650 50  0001 C CNN
F 3 "" H 7900 5650 50  0000 C CNN
F 4 "RC1005F4991CS" H 7900 5650 60  0001 C CNN "manf#"
	1    7900 5650
	0    1    1    0   
$EndComp
Wire Wire Line
	8200 5650 8000 5650
Wire Wire Line
	6750 5650 7800 5650
Wire Wire Line
	7500 5650 7500 5800
Text GLabel 6750 5650 0    60   Input ~ 0
RX_Rasp
Connection ~ 7500 5650
Text GLabel 8725 5650 0    60   Input ~ 0
TX_Rasp
Wire Wire Line
	8725 5650 9175 5650
Wire Wire Line
	9575 5650 9875 5650
Wire Wire Line
	9875 5650 9875 4800
Wire Wire Line
	8945 4800 10035 4800
Wire Wire Line
	8945 4800 8945 4500
Connection ~ 8945 4500
Connection ~ 8200 4600
$Comp
L 3V3_Raspberry #PWR018
U 1 1 5809E3C7
P 9325 5100
F 0 "#PWR018" H 9325 5060 30  0001 C CNN
F 1 "3V3_Raspberry" H 9325 5220 30  0000 C CNN
F 2 "" H 9325 5100 60  0000 C CNN
F 3 "" H 9325 5100 60  0000 C CNN
	1    9325 5100
	1    0    0    -1  
$EndComp
Wire Wire Line
	9325 5100 9325 5350
$Comp
L R_Small R34
U 1 1 5809E482
P 9050 5350
F 0 "R34" V 9130 5350 50  0000 C CNN
F 1 "10k" V 8975 5350 50  0000 C CNN
F 2 "IPC7351-Nominal:RESC1005X40" V 8980 5350 50  0001 C CNN
F 3 "" H 9050 5350 50  0000 C CNN
F 4 "RC1005F103CS" H 9050 5350 60  0001 C CNN "manf#"
	1    9050 5350
	1    0    0    -1  
$EndComp
Wire Wire Line
	9050 5450 9050 5650
Connection ~ 9050 5650
Wire Wire Line
	8980 5200 9325 5200
Connection ~ 9325 5200
$Comp
L R_Small R68
U 1 1 5809E5E5
P 9700 5350
F 0 "R68" V 9780 5350 50  0000 C CNN
F 1 "10k" V 9600 5350 50  0000 C CNN
F 2 "IPC7351-Nominal:RESC1005X40" V 9630 5350 50  0001 C CNN
F 3 "" H 9700 5350 50  0000 C CNN
F 4 "RC1005F103CS" H 9700 5350 60  0001 C CNN "manf#"
	1    9700 5350
	1    0    0    -1  
$EndComp
Wire Wire Line
	9700 5450 9700 5650
Connection ~ 9700 5650
Wire Wire Line
	9700 5100 9700 5250
$Comp
L ATMEGA328P-A-RESCUE-Raspberry_Shield IC1
U 1 1 580A02E0
P 6675 4000
AR Path="/580A02E0" Ref="IC1"  Part="1" 
AR Path="/55E89CE4/580A02E0" Ref="IC1"  Part="1" 
F 0 "IC1" H 5925 5250 50  0000 L BNN
F 1 "ATMEGA328P-A" H 7075 2600 50  0000 L BNN
F 2 "atmel_tqfp32:TQFP32_08" H 6675 4000 50  0001 C CIN
F 3 "" H 6675 4000 50  0000 C CNN
F 4 "ATMEGA328P-AU" H 6675 4000 60  0001 C CNN "manf#"
	1    6675 4000
	1    0    0    -1  
$EndComp
Wire Wire Line
	5775 3000 5525 3000
Connection ~ 5525 3000
Wire Wire Line
	5775 5000 5525 5000
NoConn ~ 5775 4250
NoConn ~ 5775 4350
$Comp
L BSS138-RESCUE-Raspberry_Shield Q15
U 1 1 5809DC1D
P 9375 5550
AR Path="/5809DC1D" Ref="Q15"  Part="1" 
AR Path="/55E89CE4/5809DC1D" Ref="Q15"  Part="1" 
F 0 "Q15" H 9575 5625 50  0000 L CNN
F 1 "BSS138" H 9575 5550 50  0000 L CNN
F 2 "TO_SOT_Packages_SMD:SOT-23" H 9575 5475 50  0001 L CIN
F 3 "" H 9375 5550 50  0000 L CNN
F 4 "BSS138CT-ND" H 9375 5550 60  0001 C CNN "manf#"
	1    9375 5550
	0    1    1    0   
$EndComp
Wire Wire Line
	9050 5200 9050 5250
$Comp
L CONN_01X01 P20
U 1 1 583686CF
P 4475 1575
F 0 "P20" H 4575 1575 50  0000 L CNN
F 1 "Testpad" H 4425 1450 50  0000 L CNN
F 2 "w_details:testpoint_2mm" H 4475 1575 50  0001 C CNN
F 3 "" H 4475 1575 50  0000 C CNN
	1    4475 1575
	1    0    0    -1  
$EndComp
$Comp
L CONN_01X01 P18
U 1 1 583686F8
P 3175 1750
F 0 "P18" H 3250 1750 50  0000 L CNN
F 1 "Testpad" H 3400 1750 50  0000 L CNN
F 2 "w_details:testpoint_2mm" H 3175 1750 50  0001 C CNN
F 3 "" H 3175 1750 50  0000 C CNN
	1    3175 1750
	-1   0    0    -1  
$EndComp
$Comp
L CONN_01X01 P16
U 1 1 58368AB0
P 3175 1100
F 0 "P16" H 3250 1100 50  0000 L CNN
F 1 "Testpad" H 3400 1100 50  0000 L CNN
F 2 "w_details:testpoint_2mm" H 3175 1100 50  0001 C CNN
F 3 "" H 3175 1100 50  0000 C CNN
	1    3175 1100
	-1   0    0    -1  
$EndComp
$Comp
L CONN_01X01 P17
U 1 1 58368B2E
P 3175 1550
F 0 "P17" H 3250 1550 50  0000 L CNN
F 1 "Testpad" H 3400 1550 50  0000 L CNN
F 2 "w_details:testpoint_2mm" H 3175 1550 50  0001 C CNN
F 3 "" H 3175 1550 50  0000 C CNN
	1    3175 1550
	-1   0    0    -1  
$EndComp
Wire Wire Line
	3375 1550 3425 1550
Wire Wire Line
	3425 1550 3425 1375
Connection ~ 3425 1375
Wire Wire Line
	3375 1100 3425 1100
Wire Wire Line
	3425 1100 3425 1275
Connection ~ 3425 1275
Wire Wire Line
	3375 1750 3500 1750
Connection ~ 3500 1750
Wire Wire Line
	4275 1575 4200 1575
Wire Wire Line
	4200 1575 4200 1375
Connection ~ 4200 1375
$Comp
L CONN_01X01 P22
U 1 1 58369E6E
P 8650 5950
F 0 "P22" H 8725 5950 50  0000 L CNN
F 1 "Testpad" H 8725 6050 50  0000 L CNN
F 2 "w_details:testpoint_2mm" H 8650 5950 50  0001 C CNN
F 3 "" H 8650 5950 50  0000 C CNN
	1    8650 5950
	-1   0    0    -1  
$EndComp
$Comp
L CONN_01X01 P21
U 1 1 5836A125
P 6600 5950
F 0 "P21" H 6675 5950 50  0000 L CNN
F 1 "Testpad" H 6675 6050 50  0000 L CNN
F 2 "w_details:testpoint_2mm" H 6600 5950 50  0001 C CNN
F 3 "" H 6600 5950 50  0000 C CNN
	1    6600 5950
	-1   0    0    -1  
$EndComp
Wire Wire Line
	6800 5950 6935 5950
Wire Wire Line
	6935 5950 6935 5650
Connection ~ 6935 5650
Wire Wire Line
	8850 5950 8900 5950
Wire Wire Line
	8900 5950 8900 5650
Connection ~ 8900 5650
$Comp
L +5V #PWR019
U 1 1 5873D09D
P 4925 1000
F 0 "#PWR019" H 4925 850 50  0001 C CNN
F 1 "+5V" H 4940 1173 50  0000 C CNN
F 2 "" H 4925 1000 50  0000 C CNN
F 3 "" H 4925 1000 50  0000 C CNN
	1    4925 1000
	1    0    0    -1  
$EndComp
$Comp
L +5V #PWR020
U 1 1 5873D10A
P 5525 2650
F 0 "#PWR020" H 5525 2500 50  0001 C CNN
F 1 "+5V" H 5540 2823 50  0000 C CNN
F 2 "" H 5525 2650 50  0000 C CNN
F 3 "" H 5525 2650 50  0000 C CNN
	1    5525 2650
	1    0    0    -1  
$EndComp
$Comp
L +5V #PWR021
U 1 1 5873D177
P 9700 5100
F 0 "#PWR021" H 9700 4950 50  0001 C CNN
F 1 "+5V" H 9715 5273 50  0000 C CNN
F 2 "" H 9700 5100 50  0000 C CNN
F 3 "" H 9700 5100 50  0000 C CNN
	1    9700 5100
	1    0    0    -1  
$EndComp
$Comp
L C_Small C47
U 1 1 58DA09F1
P 4900 3100
F 0 "C47" H 4992 3146 50  0000 L CNN
F 1 "0.1µF 50V" H 4992 3055 50  0000 L CNN
F 2 "IPC7351-Nominal:CAPC1005X60" H 4900 3100 50  0001 C CNN
F 3 "" H 4900 3100 50  0000 C CNN
F 4 "GRM155R61H104ME14D" H 4900 3100 60  0001 C CNN "manf#"
	1    4900 3100
	-1   0    0    1   
$EndComp
Wire Wire Line
	5250 3225 4900 3225
Wire Wire Line
	4900 3225 4900 3200
Connection ~ 5250 3225
Wire Wire Line
	4900 2900 4900 3000
Connection ~ 5250 2900
$Comp
L CONN_01X01 P8
U 1 1 58D95FEC
P 8780 5200
F 0 "P8" H 8880 5200 50  0000 L CNN
F 1 "Testpad" H 8705 5075 50  0000 L CNN
F 2 "w_details:testpoint_2mm" H 8780 5200 50  0001 C CNN
F 3 "" H 8780 5200 50  0000 C CNN
	1    8780 5200
	-1   0    0    1   
$EndComp
Connection ~ 9050 5200
$Comp
L C-RESCUE-Raspberry_Shield C76
U 1 1 59089B03
P 5885 1780
F 0 "C76" H 6000 1826 50  0000 L CNN
F 1 "0,1uF 25V" H 6000 1735 50  0000 L CNN
F 2 "Capacitors_SMD:C_0603" H 5923 1630 50  0001 C CNN
F 3 "" H 5885 1780 50  0001 C CNN
F 4 "1276-1006-1-ND" H 5885 1780 60  0001 C CNN "digikey#"
F 5 "CL10B104KA8NNNC" H 5885 1780 60  0001 C CNN "manf#"
	1    5885 1780
	1    0    0    -1  
$EndComp
$Comp
L GND-RESCUE-Raspberry_Shield-RESCUE-Raspberry_Shield #PWR022
U 1 1 5908A103
P 5885 1555
F 0 "#PWR022" H 5885 1305 50  0001 C CNN
F 1 "GND" H 5890 1382 50  0000 C CNN
F 2 "" H 5885 1555 50  0001 C CNN
F 3 "" H 5885 1555 50  0001 C CNN
	1    5885 1555
	-1   0    0    1   
$EndComp
Wire Wire Line
	5885 1630 5885 1555
Wire Wire Line
	5885 1930 5885 2025
Connection ~ 5885 2025
$Comp
L C-RESCUE-Raspberry_Shield C89
U 1 1 590CBA6F
P 7080 5885
F 0 "C89" H 7195 5931 50  0000 L CNN
F 1 "75pF 50V" H 7195 5840 50  0000 L CNN
F 2 "Capacitors_SMD:C_0402" H 7118 5735 50  0001 C CNN
F 3 "" H 7080 5885 50  0001 C CNN
F 4 "GRM1555C1H750JA01D" H 7080 5885 60  0001 C CNN "manf#"
	1    7080 5885
	1    0    0    -1  
$EndComp
$Comp
L GND-RESCUE-Raspberry_Shield-RESCUE-Raspberry_Shield #PWR023
U 1 1 590CC7F2
P 7080 6090
F 0 "#PWR023" H 7080 5840 50  0001 C CNN
F 1 "GND" H 7080 5940 50  0000 C CNN
F 2 "" H 7080 6090 50  0000 C CNN
F 3 "" H 7080 6090 50  0000 C CNN
	1    7080 6090
	1    0    0    -1  
$EndComp
Wire Wire Line
	7080 5735 7080 5650
Connection ~ 7080 5650
Wire Wire Line
	7080 6035 7080 6090
$Comp
L C-RESCUE-Raspberry_Shield C20
U 1 1 590E9A02
P 10035 4950
F 0 "C20" H 10150 4996 50  0000 L CNN
F 1 "75pF 50V" H 10150 4905 50  0000 L CNN
F 2 "Capacitors_SMD:C_0402" H 10073 4800 50  0001 C CNN
F 3 "" H 10035 4950 50  0001 C CNN
F 4 "GRM1555C1H750JA01D" H 10035 4950 60  0001 C CNN "manf#"
	1    10035 4950
	1    0    0    -1  
$EndComp
Connection ~ 9875 4800
$Comp
L GND-RESCUE-Raspberry_Shield-RESCUE-Raspberry_Shield #PWR024
U 1 1 590EA069
P 10035 5140
F 0 "#PWR024" H 10035 4890 50  0001 C CNN
F 1 "GND" H 10035 4990 50  0000 C CNN
F 2 "" H 10035 5140 50  0000 C CNN
F 3 "" H 10035 5140 50  0000 C CNN
	1    10035 5140
	1    0    0    -1  
$EndComp
Wire Wire Line
	10035 5140 10035 5100
$Comp
L C-RESCUE-Raspberry_Shield C14
U 1 1 590ECC5B
P 1525 2075
F 0 "C14" H 1640 2121 50  0000 L CNN
F 1 "75pF 50V" H 1640 2030 50  0000 L CNN
F 2 "Capacitors_SMD:C_0402" H 1563 1925 50  0001 C CNN
F 3 "" H 1525 2075 50  0001 C CNN
F 4 "GRM1555C1H750JA01D" H 1525 2075 60  0001 C CNN "manf#"
	1    1525 2075
	1    0    0    -1  
$EndComp
$Comp
L GND-RESCUE-Raspberry_Shield-RESCUE-Raspberry_Shield #PWR025
U 1 1 590ED281
P 1525 1855
F 0 "#PWR025" H 1525 1605 50  0001 C CNN
F 1 "GND" H 1525 1705 50  0000 C CNN
F 2 "" H 1525 1855 50  0000 C CNN
F 3 "" H 1525 1855 50  0000 C CNN
	1    1525 1855
	-1   0    0    1   
$EndComp
Wire Wire Line
	1525 1925 1525 1855
Wire Wire Line
	5525 3500 5775 3500
Connection ~ 5525 3200
$Comp
L GND-RESCUE-Raspberry_Shield #PWR025
U 1 1 592D596E
P 8650 4225
AR Path="/592D596E" Ref="#PWR025"  Part="1" 
AR Path="/55E89CE4/592D596E" Ref="#PWR026"  Part="1" 
F 0 "#PWR026" H 8650 4225 30  0001 C CNN
F 1 "GND" H 8650 4155 30  0001 C CNN
F 2 "" H 8650 4225 60  0001 C CNN
F 3 "" H 8650 4225 60  0001 C CNN
	1    8650 4225
	1    0    0    -1  
$EndComp
Wire Wire Line
	8650 4225 8650 4175
Wire Wire Line
	5775 5100 5525 5100
Connection ~ 5525 5100
$EndSCHEMATC
