EESchema Schematic File Version 2
LIBS:Raspberry_Shield-rescue
LIBS:PCF8575
LIBS:Atmega8
LIBS:74lvc1g32
LIBS:Raspberry_Shield-cache
EELAYER 26 0
EELAYER END
$Descr A4 11693 8268
encoding utf-8
Sheet 8 8
Title "Laser4DIY Raspberry Pi Shield"
Date "2017-12-22"
Rev "01"
Comp ""
Comment1 ""
Comment2 ""
Comment3 ""
Comment4 ""
$EndDescr
$Comp
L Q_PMOS_GSD Q2
U 1 1 57A424F4
P 8700 2775
F 0 "Q2" H 8891 2821 50  0000 L CNN
F 1 "PMV250EPEAR" H 8891 2730 50  0000 L CNN
F 2 "TO_SOT_Packages_SMD:SOT-23" H 8900 2875 50  0001 C CNN
F 3 "" H 8700 2775 50  0000 C CNN
F 4 "PMV250EPEAR" H 8700 2775 60  0001 C CNN "manf#"
	1    8700 2775
	1    0    0    1   
$EndComp
$Comp
L +12V #PWR0143
U 1 1 57A425C6
P 8800 2200
F 0 "#PWR0143" H 8800 2050 50  0001 C CNN
F 1 "+12V" H 8815 2373 50  0000 C CNN
F 2 "" H 8800 2200 50  0000 C CNN
F 3 "" H 8800 2200 50  0000 C CNN
	1    8800 2200
	1    0    0    -1  
$EndComp
Text Label 8800 3100 0    60   ~ 0
12V_luefter
$Comp
L R_Small R39
U 1 1 57A42688
P 8350 2525
F 0 "R39" H 8409 2571 50  0000 L CNN
F 1 "10k" H 8409 2480 50  0000 L CNN
F 2 "IPC7351-Nominal:RESC1005X40" H 8350 2525 50  0001 C CNN
F 3 "" H 8350 2525 50  0000 C CNN
F 4 "RC1005F103CS" H 8350 2525 60  0001 C CNN "manf#"
	1    8350 2525
	1    0    0    -1  
$EndComp
Text Label 8350 2775 2    60   ~ 0
Luefter_Gate
$Comp
L CONN_01X03 P2
U 1 1 57A49E3E
P 4025 3125
F 0 "P2" H 4150 2975 50  0000 C CNN
F 1 "LED Strips" H 4300 3075 50  0000 C CNN
F 2 "LHE-PH-NAB_[JS]:PH-3AB" H 4025 3125 50  0001 C CNN
F 3 "" H 4025 3125 50  0000 C CNN
F 4 "961103-5604-AR" H 4025 3125 60  0001 C CNN "manf#"
	1    4025 3125
	1    0    0    -1  
$EndComp
$Comp
L GND-RESCUE-Raspberry_Shield-RESCUE-Raspberry_Shield #PWR0144
U 1 1 57A4CB50
P 8350 3475
F 0 "#PWR0144" H 8350 3225 50  0001 C CNN
F 1 "GND" H 8355 3302 50  0000 C CNN
F 2 "" H 8350 3475 50  0000 C CNN
F 3 "" H 8350 3475 50  0000 C CNN
	1    8350 3475
	1    0    0    -1  
$EndComp
$Comp
L GND-RESCUE-Raspberry_Shield-RESCUE-Raspberry_Shield #PWR0145
U 1 1 57A4CC9E
P 3725 3750
F 0 "#PWR0145" H 3725 3500 50  0001 C CNN
F 1 "GND" H 3730 3577 50  0000 C CNN
F 2 "" H 3725 3750 50  0000 C CNN
F 3 "" H 3725 3750 50  0000 C CNN
	1    3725 3750
	1    0    0    -1  
$EndComp
Text GLabel 1475 3125 0    60   Input ~ 0
LED_SPI_Rasp
Text GLabel 9000 3250 2    60   Input ~ 0
Luefter
$Comp
L R_Small R69
U 1 1 580BDC45
P 2325 3175
F 0 "R69" V 2405 3175 50  0000 C CNN
F 1 "1.5k" V 2250 3175 50  0000 C CNN
F 2 "IPC7351-Nominal:RESC1005X40" V 2255 3175 50  0001 C CNN
F 3 "" H 2325 3175 50  0000 C CNN
	1    2325 3175
	0    1    1    0   
$EndComp
$Comp
L BSS138-RESCUE-Raspberry_Shield Q1
U 1 1 58356DA1
P 8250 3200
AR Path="/58356DA1" Ref="Q1"  Part="1" 
AR Path="/57A1CC57/58356DA1" Ref="Q1"  Part="1" 
F 0 "Q1" H 8450 3275 50  0000 L CNN
F 1 "BSS138" H 8450 3200 50  0000 L CNN
F 2 "TO_SOT_Packages_SMD:SOT-23" H 8450 3125 50  0001 L CIN
F 3 "" H 8250 3200 50  0000 L CNN
F 4 "BSS138CT-ND" H 8250 3200 60  0001 C CNN "manf#"
	1    8250 3200
	1    0    0    -1  
$EndComp
$Comp
L CONN_01X01 P42
U 1 1 58366F66
P 3175 2850
F 0 "P42" H 3253 2891 50  0000 L CNN
F 1 "Testpad" H 3253 2800 50  0000 L CNN
F 2 "w_details:testpoint_2mm" H 3175 2850 50  0001 C CNN
F 3 "" H 3175 2850 50  0000 C CNN
	1    3175 2850
	-1   0    0    -1  
$EndComp
$Comp
L CONN_01X01 P43
U 1 1 58367673
P 7750 3025
F 0 "P43" H 7828 3066 50  0000 L CNN
F 1 "Testpad" H 7828 2975 50  0000 L CNN
F 2 "w_details:testpoint_2mm" H 7750 3025 50  0001 C CNN
F 3 "" H 7750 3025 50  0000 C CNN
	1    7750 3025
	-1   0    0    -1  
$EndComp
$Comp
L CONN_01X01 P44
U 1 1 58367834
P 9050 3475
F 0 "P44" H 9127 3516 50  0000 L CNN
F 1 "Testpad" H 9127 3425 50  0000 L CNN
F 2 "w_details:testpoint_2mm" H 9050 3475 50  0001 C CNN
F 3 "" H 9050 3475 50  0000 C CNN
	1    9050 3475
	1    0    0    -1  
$EndComp
Text GLabel 5525 3250 0    60   Input ~ 0
Laser_PWM
$Comp
L 74LVC1G123 U11
U 1 1 586B568D
P 6675 3300
F 0 "U11" H 6650 3025 50  0000 C CNN
F 1 "74LVC1G123" H 6600 2950 50  0000 C CNN
F 2 "Housings_SSOP:TSSOP-8_3x3mm_Pitch0.65mm" H 6675 3300 50  0001 C CNN
F 3 "" H 6675 3300 50  0000 C CNN
F 4 "74lvc1g123DP" H 6675 3300 60  0001 C CNN "manf#"
	1    6675 3300
	1    0    0    -1  
$EndComp
$Comp
L GND-RESCUE-Raspberry_Shield-RESCUE-Raspberry_Shield #PWR0146
U 1 1 586B56A3
P 6875 3750
F 0 "#PWR0146" H 6875 3500 50  0001 C CNN
F 1 "GND" H 6880 3577 50  0000 C CNN
F 2 "" H 6875 3750 50  0000 C CNN
F 3 "" H 6875 3750 50  0000 C CNN
	1    6875 3750
	1    0    0    -1  
$EndComp
$Comp
L R_Small R5
U 1 1 586B56AE
P 6475 2600
F 0 "R5" H 6534 2646 50  0000 L CNN
F 1 "1M" H 6534 2555 50  0000 L CNN
F 2 "IPC7351-Nominal:RESC1005X40" H 6475 2600 50  0001 C CNN
F 3 "" H 6475 2600 50  0000 C CNN
F 4 "1276-3433-1-ND" H 6475 2600 60  0001 C CNN "digikey#"
F 5 "RC1005F105CS" H 6475 2600 60  0001 C CNN "manf#"
	1    6475 2600
	-1   0    0    -1  
$EndComp
$Comp
L +5V #PWR0147
U 1 1 5873F6EB
P 3725 2900
F 0 "#PWR0147" H 3725 2750 50  0001 C CNN
F 1 "+5V" H 3740 3073 50  0000 C CNN
F 2 "" H 3725 2900 50  0000 C CNN
F 3 "" H 3725 2900 50  0000 C CNN
	1    3725 2900
	1    0    0    -1  
$EndComp
$Comp
L 3V3_Raspberry #PWR0148
U 1 1 58748C1B
P 6700 2150
F 0 "#PWR0148" H 6700 2110 30  0001 C CNN
F 1 "3V3_Raspberry" H 6700 2270 30  0000 C CNN
F 2 "" H 6700 2150 60  0000 C CNN
F 3 "" H 6700 2150 60  0000 C CNN
	1    6700 2150
	1    0    0    -1  
$EndComp
$Comp
L 3V3_Raspberry #PWR0149
U 1 1 58748C56
P 6000 3550
F 0 "#PWR0149" H 6000 3510 30  0001 C CNN
F 1 "3V3_Raspberry" H 6000 3670 30  0000 C CNN
F 2 "" H 6000 3550 60  0000 C CNN
F 3 "" H 6000 3550 60  0000 C CNN
	1    6000 3550
	1    0    0    -1  
$EndComp
$Comp
L GND-RESCUE-Raspberry_Shield-RESCUE-Raspberry_Shield #PWR0150
U 1 1 58B09498
P 6000 2975
F 0 "#PWR0150" H 6000 2725 50  0001 C CNN
F 1 "GND" H 6005 2802 50  0000 C CNN
F 2 "" H 6000 2975 50  0000 C CNN
F 3 "" H 6000 2975 50  0000 C CNN
	1    6000 2975
	1    0    0    -1  
$EndComp
$Comp
L C_Small C74
U 1 1 58D90459
P 3525 3525
F 0 "C74" H 3617 3571 50  0000 L CNN
F 1 "75pF" H 3617 3480 50  0000 L CNN
F 2 "Capacitors_SMD:C_0402" H 3525 3525 50  0001 C CNN
F 3 "" H 3525 3525 50  0000 C CNN
F 4 "GRM1555C1H750JA01D" H 3525 3525 60  0001 C CNN "manf#"
	1    3525 3525
	-1   0    0    1   
$EndComp
Text GLabel 1475 3225 0    60   Input ~ 0
LED_PWM_Rasp
Wire Wire Line
	8800 2200 8800 2575
Wire Wire Line
	8800 2975 8800 3475
Wire Wire Line
	8800 3250 9000 3250
Wire Wire Line
	8350 2625 8350 3000
Wire Wire Line
	8350 2425 8350 2300
Wire Wire Line
	8350 2300 8800 2300
Connection ~ 8800 2300
Connection ~ 8350 2775
Wire Wire Line
	8350 2775 8500 2775
Wire Wire Line
	7250 3250 8050 3250
Wire Wire Line
	8350 3400 8350 3475
Wire Wire Line
	3825 3225 3725 3225
Wire Wire Line
	3725 3225 3725 3750
Wire Wire Line
	3375 2850 3525 2850
Wire Wire Line
	3525 2850 3525 3425
Connection ~ 3525 3125
Wire Wire Line
	8000 3250 8000 3025
Wire Wire Line
	8000 3025 7950 3025
Connection ~ 8000 3250
Wire Wire Line
	8800 3475 8850 3475
Connection ~ 8800 3250
Wire Wire Line
	5525 3250 6000 3250
Wire Wire Line
	6175 3200 6375 3200
Wire Wire Line
	6950 3100 6875 3100
Wire Wire Line
	6950 2200 6950 3100
Wire Wire Line
	6375 3450 6175 3450
Wire Wire Line
	6875 3500 6875 3750
Wire Wire Line
	6175 3450 6175 3650
Wire Wire Line
	6175 3650 6000 3650
Wire Wire Line
	6000 3650 6000 3550
Wire Wire Line
	6975 3200 7250 3200
Wire Wire Line
	7250 3200 7250 3250
Wire Wire Line
	6375 3300 6000 3300
Wire Wire Line
	6000 3300 6000 3250
Wire Wire Line
	6000 2975 6000 2900
Wire Wire Line
	6000 2900 6175 2900
Wire Wire Line
	6175 2900 6175 3200
Wire Wire Line
	6725 3000 6725 2950
Wire Wire Line
	6725 2950 6875 2950
Wire Wire Line
	6875 2950 6875 2400
Wire Wire Line
	6875 2400 6800 2400
Wire Wire Line
	6600 2400 6550 2400
Wire Wire Line
	6550 2400 6550 2975
Wire Wire Line
	6475 2975 6625 2975
Wire Wire Line
	6625 2975 6625 3000
Wire Wire Line
	6475 2700 6475 2975
Connection ~ 6550 2975
Wire Wire Line
	6475 2200 6475 2500
Wire Wire Line
	6475 2200 6950 2200
Connection ~ 6700 2200
Wire Wire Line
	6700 2200 6700 2150
Wire Wire Line
	3725 2900 3725 3025
Wire Wire Line
	3625 3025 3825 3025
Wire Wire Line
	1925 3700 3725 3700
Wire Wire Line
	3525 3700 3525 3625
Connection ~ 3725 3700
Wire Wire Line
	1475 3125 1625 3125
Wire Wire Line
	1475 3225 1625 3225
Wire Wire Line
	1925 2700 1925 3075
Wire Wire Line
	1925 3275 1925 3700
Connection ~ 3525 3700
Wire Wire Line
	2175 3175 2225 3175
Wire Wire Line
	2425 3175 3000 3175
Wire Wire Line
	3000 3175 3000 3125
Wire Wire Line
	3000 3125 3825 3125
Wire Wire Line
	1925 2700 3625 2700
Wire Wire Line
	3625 2700 3625 3025
Connection ~ 3725 3025
$Comp
L 74AHCT1G32-RESCUE-Raspberry_Shield U12
U 1 1 593AC5B1
P 1925 3175
AR Path="/593AC5B1" Ref="U12"  Part="1" 
AR Path="/57A1CC57/593AC5B1" Ref="U12"  Part="1" 
F 0 "U12" H 1900 3419 40  0000 C CNN
F 1 "74AHCT1G32" H 1900 3343 40  0000 C CNN
F 2 "TO_SOT_Packages_SMD:SOT-353" H 1925 3175 60  0001 C CNN
F 3 "" H 1925 3175 60  0000 C CNN
	1    1925 3175
	1    0    0    -1  
$EndComp
$Comp
L CP1_Small C25
U 1 1 595D2C97
P 6700 2400
F 0 "C25" V 6800 2400 50  0000 C CNN
F 1 "100 uF" V 6570 2400 50  0000 C CNN
F 2 "Capacitors_SMD:c_elec_6.3x7.7" H 6700 2400 50  0001 C CNN
F 3 "" H 6700 2400 50  0001 C CNN
F 4 "1189-2119-1-ND" H 6700 2400 60  0001 C CNN "digikey#"
F 5 "35TZV100M6.3X8" H 6700 2400 60  0001 C CNN "manf#"
	1    6700 2400
	0    -1   -1   0   
$EndComp
$EndSCHEMATC
