EESchema Schematic File Version 2
LIBS:Raspberry_Shield-rescue
LIBS:PCF8575
LIBS:Atmega8
LIBS:74lvc1g32
LIBS:Raspberry_Shield-cache
EELAYER 26 0
EELAYER END
$Descr A4 11693 8268
encoding utf-8
Sheet 2 8
Title "Laser4DIY Raspberry Pi Shield"
Date "2017-12-22"
Rev "01"
Comp ""
Comment1 ""
Comment2 ""
Comment3 ""
Comment4 ""
$EndDescr
$Comp
L Vin #PWR01
U 1 1 55E95DA2
P 5100 1875
F 0 "#PWR01" H 5100 1965 20  0001 C CNN
F 1 "VIN" H 5100 1995 30  0000 C CNN
F 2 "~" H 5100 1875 60  0000 C CNN
F 3 "~" H 5100 1875 60  0000 C CNN
	1    5100 1875
	1    0    0    -1  
$EndComp
Text HLabel 4700 2225 0    40   Input ~ 0
328P_RESET
Wire Wire Line
	6050 2225 4700 2225
$Comp
L GND-RESCUE-Raspberry_Shield-RESCUE-Raspberry_Shield #PWR02
U 1 1 55E9684A
P 5700 2875
F 0 "#PWR02" H 5700 2875 30  0001 C CNN
F 1 "GND" H 5700 2805 30  0001 C CNN
F 2 "~" H 5700 2875 60  0000 C CNN
F 3 "~" H 5700 2875 60  0000 C CNN
F 4 "ANY" H 5700 2875 60  0001 C CNN "Source"
F 5 "N" H 5700 2875 60  0001 C CNN "Critical"
F 6 "~" H 5700 2875 60  0001 C CNN "Notes"
	1    5700 2875
	1    0    0    -1  
$EndComp
Wire Wire Line
	6050 2625 5700 2625
Wire Wire Line
	5700 2525 5700 2875
Wire Wire Line
	6050 2525 5700 2525
Connection ~ 5700 2625
Wire Wire Line
	6050 2125 5700 2125
Wire Wire Line
	5700 1875 5700 2425
Wire Wire Line
	5700 2425 6050 2425
Connection ~ 5700 2125
Wire Wire Line
	6050 2325 5400 2325
Wire Wire Line
	5400 2325 5400 1875
Wire Wire Line
	5100 2725 6050 2725
Wire Wire Line
	5100 2725 5100 1875
Text HLabel 4775 3925 0    40   Input ~ 0
ARD_AN5/SCL
Text HLabel 4775 4025 0    40   Input ~ 0
ARD_AN4/SDA
Wire Wire Line
	4775 4025 5950 4025
Text HLabel 4775 4125 0    40   Input ~ 0
AREF
Wire Wire Line
	4775 4125 5950 4125
Text HLabel 4775 4325 0    40   Input ~ 0
ARD_DIG13/SPI_SCK
Text HLabel 4775 4425 0    40   Input ~ 0
ARD_DIG12/SPI_MISO
Text HLabel 4775 4525 0    40   Input ~ 0
ARD_DIG11/SPI_MOSI
Text HLabel 4775 4625 0    40   Input ~ 0
ARD_DIG10/SPI_SS
Text HLabel 4775 4725 0    40   Input ~ 0
ARD_DIG9
Text HLabel 4775 4825 0    40   Input ~ 0
ARD_DIG8
Wire Wire Line
	5950 4325 4775 4325
Wire Wire Line
	4775 4425 6050 4425
Wire Wire Line
	4775 4525 6600 4525
Wire Wire Line
	4775 4825 6050 4825
Wire Wire Line
	5700 4975 5700 4225
Wire Wire Line
	5700 4225 5950 4225
Wire Wire Line
	6050 3075 5425 3075
Connection ~ 5425 3925
Wire Wire Line
	6050 3175 5325 3175
Connection ~ 5325 4025
Text HLabel 4775 3275 0    40   Input ~ 0
ARD_AN3
Text HLabel 4775 3375 0    40   Input ~ 0
ARD_AN2
Text HLabel 4775 3475 0    40   Input ~ 0
ARD_AN1
Text HLabel 4775 3575 0    40   Input ~ 0
ARD_AN0
Wire Wire Line
	4775 3575 6050 3575
Wire Wire Line
	7395 3475 4775 3475
Wire Wire Line
	4775 3375 7150 3375
Wire Wire Line
	6050 3275 4775 3275
Wire Wire Line
	5325 3175 5325 4025
Wire Wire Line
	5425 3075 5425 3925
Text HLabel 4775 5175 0    40   Input ~ 0
ARD_DIG7
Text HLabel 4775 5275 0    40   Input ~ 0
ARD_DIG6
Text HLabel 4775 5375 0    40   Input ~ 0
ARD_DIG5
Text HLabel 4775 5475 0    40   Input ~ 0
ARD_DIG4
Text HLabel 4775 5575 0    40   Input ~ 0
ARD_DIG3
Text HLabel 4775 5675 0    40   Input ~ 0
ARD_DIG2
Text HLabel 4775 5775 0    40   Input ~ 0
ARD_DIG1
Text HLabel 4775 5875 0    40   Input ~ 0
ARD_DIG0
Wire Wire Line
	6050 5175 4775 5175
Wire Wire Line
	4775 5275 6050 5275
Wire Wire Line
	6050 5375 4775 5375
Wire Wire Line
	4775 5475 6050 5475
Wire Wire Line
	6050 5575 4775 5575
Wire Wire Line
	4775 5675 6050 5675
Wire Wire Line
	6050 5775 4775 5775
Wire Wire Line
	4775 5875 6050 5875
$Comp
L GND-RESCUE-Raspberry_Shield-RESCUE-Raspberry_Shield #PWR03
U 1 1 56206FF2
P 5700 4975
F 0 "#PWR03" H 5700 4975 30  0001 C CNN
F 1 "GND" H 5700 4905 30  0001 C CNN
F 2 "~" H 5700 4975 60  0000 C CNN
F 3 "~" H 5700 4975 60  0000 C CNN
F 4 "ANY" H 5700 4975 60  0001 C CNN "Source"
F 5 "N" H 5700 4975 60  0001 C CNN "Critical"
F 6 "~" H 5700 4975 60  0001 C CNN "Notes"
	1    5700 4975
	1    0    0    -1  
$EndComp
Text Notes 3100 2350 0    60   ~ 0
Power Header
Text Notes 3100 3450 0    60   ~ 0
Analog Header
Text Notes 3100 4450 0    60   ~ 0
Digital Header 02
Text Notes 3100 5525 0    60   ~ 0
Digital Header 01
NoConn ~ 6050 5775
NoConn ~ 6050 5875
NoConn ~ 5950 4325
NoConn ~ 5950 4225
NoConn ~ 5950 4125
NoConn ~ 5950 4025
NoConn ~ 6050 2125
NoConn ~ 6050 2325
NoConn ~ 6050 2425
NoConn ~ 6050 2525
NoConn ~ 6050 2625
NoConn ~ 6050 2725
NoConn ~ 6050 3175
NoConn ~ 6050 3075
NoConn ~ 6050 3275
$Comp
L 3V3_Raspberry #PWR04
U 1 1 57A41631
P 5400 1875
F 0 "#PWR04" H 5400 1835 30  0001 C CNN
F 1 "3V3_Raspberry" H 5409 2013 30  0000 C CNN
F 2 "" H 5400 1875 60  0000 C CNN
F 3 "" H 5400 1875 60  0000 C CNN
	1    5400 1875
	1    0    0    -1  
$EndComp
Text GLabel 7400 3325 2    60   Input ~ 0
RESUME
Text GLabel 7395 3475 2    60   Input ~ 0
HOLD
Text GLabel 6050 4425 2    60   Input ~ 0
Z-Limit
Text GLabel 6600 4525 2    60   Input ~ 0
Laser_PWM
Text GLabel 8425 4550 2    60   Input ~ 0
Y-Limit
Text GLabel 8425 5350 2    60   Input ~ 0
X-Limit
Text GLabel 6050 4825 2    60   Input ~ 0
STEP_EN
Text GLabel 6050 5175 2    60   Input ~ 0
Z-DIR
Text GLabel 6050 5275 2    60   Input ~ 0
Y-DIR
Text GLabel 6050 5375 2    60   Input ~ 0
X-DIR
Text GLabel 6050 5475 2    60   Input ~ 0
Z-STEP
Text GLabel 6050 5575 2    60   Input ~ 0
Y-STEP
Text GLabel 6050 5675 2    60   Input ~ 0
X-STEP
NoConn ~ 6050 2225
Text GLabel 6050 3575 2    60   Input ~ 0
Reset-Abort_Ardu
$Comp
L R_Small R58
U 1 1 58084C2A
P 8200 4550
F 0 "R58" V 8280 4550 50  0000 C CNN
F 1 "2k" V 8125 4550 50  0000 C CNN
F 2 "IPC7351-Nominal:RESC1005X40" V 8130 4550 50  0001 C CNN
F 3 "" H 8200 4550 50  0000 C CNN
F 4 "RC1005F202CS" H 8200 4550 60  0001 C CNN "manf#"
	1    8200 4550
	0    1    1    0   
$EndComp
$Comp
L R_Small R59
U 1 1 58084CB1
P 8200 5350
F 0 "R59" V 8280 5350 50  0000 C CNN
F 1 "2k" V 8125 5350 50  0000 C CNN
F 2 "IPC7351-Nominal:RESC1005X40" V 8130 5350 50  0001 C CNN
F 3 "" H 8200 5350 50  0000 C CNN
F 4 "RC1005F202CS" H 8200 5350 60  0001 C CNN "manf#"
	1    8200 5350
	0    1    1    0   
$EndComp
Wire Wire Line
	8300 4550 8425 4550
Wire Wire Line
	8300 5350 8425 5350
Wire Wire Line
	7875 4625 7875 4550
Wire Wire Line
	4775 4625 7875 4625
Wire Wire Line
	7875 4550 8100 4550
$Comp
L C-RESCUE-Raspberry_Shield C31
U 1 1 58084EA4
P 7950 5525
F 0 "C31" H 8000 5325 50  0000 L CNN
F 1 "0uF47 10V" H 7975 5425 50  0000 L CNN
F 2 "IPC7351-Nominal:CAPC1005X60" H 7988 5375 50  0001 C CNN
F 3 "" H 7950 5525 50  0000 C CNN
F 4 "CL05A474KP5NNNC" H 7950 5525 60  0001 C CNN "manf#"
	1    7950 5525
	1    0    0    -1  
$EndComp
$Comp
L C-RESCUE-Raspberry_Shield C30
U 1 1 58084EFB
P 7975 4350
F 0 "C30" H 8000 4450 50  0000 L CNN
F 1 "0uF47 10V" H 8000 4550 50  0000 L CNN
F 2 "IPC7351-Nominal:CAPC1005X60" H 8013 4200 50  0001 C CNN
F 3 "" H 7975 4350 50  0000 C CNN
F 4 "CL05A474KP5NNNC" H 7975 4350 60  0001 C CNN "manf#"
	1    7975 4350
	-1   0    0    -1  
$EndComp
Wire Wire Line
	7950 5375 7950 5350
Connection ~ 7950 5350
Wire Wire Line
	7975 4500 7975 4550
Connection ~ 7975 4550
$Comp
L GND-RESCUE-Raspberry_Shield-RESCUE-Raspberry_Shield #PWR05
U 1 1 58084FFE
P 7950 5775
F 0 "#PWR05" H 7950 5525 50  0001 C CNN
F 1 "GND" H 7950 5625 50  0000 C CNN
F 2 "" H 7950 5775 50  0000 C CNN
F 3 "" H 7950 5775 50  0000 C CNN
	1    7950 5775
	1    0    0    -1  
$EndComp
$Comp
L GND-RESCUE-Raspberry_Shield-RESCUE-Raspberry_Shield #PWR06
U 1 1 5808501A
P 8200 4200
F 0 "#PWR06" H 8200 3950 50  0001 C CNN
F 1 "GND" H 8200 4050 50  0000 C CNN
F 2 "" H 8200 4200 50  0000 C CNN
F 3 "" H 8200 4200 50  0000 C CNN
	1    8200 4200
	1    0    0    -1  
$EndComp
Wire Wire Line
	7950 5775 7950 5675
Wire Wire Line
	7975 4200 7975 4100
Wire Wire Line
	7975 4100 8200 4100
Wire Wire Line
	8200 4100 8200 4200
$Comp
L CONN_01X01 P14
U 1 1 5836A9FB
P 7400 4500
F 0 "P14" H 7477 4541 50  0000 L CNN
F 1 "Testpad" H 7477 4450 50  0000 L CNN
F 2 "w_details:testpoint_2mm" H 7400 4500 50  0001 C CNN
F 3 "" H 7400 4500 50  0000 C CNN
	1    7400 4500
	1    0    0    -1  
$EndComp
$Comp
L CONN_01X01 P15
U 1 1 5836AA10
P 6850 4875
F 0 "P15" H 6927 4916 50  0000 L CNN
F 1 "Testpad" H 6927 4825 50  0000 L CNN
F 2 "w_details:testpoint_2mm" H 6850 4875 50  0001 C CNN
F 3 "" H 6850 4875 50  0000 C CNN
	1    6850 4875
	1    0    0    -1  
$EndComp
Wire Wire Line
	6650 4875 6600 4875
Wire Wire Line
	6600 4875 6600 4725
Connection ~ 6600 4725
Wire Wire Line
	7200 4500 7175 4500
Wire Wire Line
	7175 4500 7175 4625
Connection ~ 7175 4625
Wire Wire Line
	7400 5350 8100 5350
Wire Wire Line
	7400 4725 7400 5450
Wire Wire Line
	4775 4725 7400 4725
$Comp
L R_Small R86
U 1 1 5838822E
P 7800 4800
F 0 "R86" V 7880 4800 50  0000 C CNN
F 1 "5k" V 7725 4800 50  0000 C CNN
F 2 "IPC7351-Nominal:RESC1005X40" V 7730 4800 50  0001 C CNN
F 3 "" H 7800 4800 50  0000 C CNN
F 4 "RC1005F4991CS" H 7800 4800 60  0001 C CNN "manf#"
	1    7800 4800
	-1   0    0    1   
$EndComp
$Comp
L R_Small R85
U 1 1 583882B0
P 7400 5550
F 0 "R85" V 7480 5550 50  0000 C CNN
F 1 "5k" V 7325 5550 50  0000 C CNN
F 2 "IPC7351-Nominal:RESC1005X40" V 7330 5550 50  0001 C CNN
F 3 "" H 7400 5550 50  0000 C CNN
F 4 "RC1005F4991CS" H 7400 5550 60  0001 C CNN "manf#"
	1    7400 5550
	-1   0    0    1   
$EndComp
Connection ~ 7400 5350
Wire Wire Line
	7800 4700 7800 4625
Connection ~ 7800 4625
Wire Wire Line
	7800 4900 7800 5050
Wire Wire Line
	7400 5650 7400 5775
$Comp
L GND-RESCUE-Raspberry_Shield-RESCUE-Raspberry_Shield #PWR07
U 1 1 5838849F
P 7400 5775
F 0 "#PWR07" H 7400 5525 50  0001 C CNN
F 1 "GND" H 7400 5625 50  0000 C CNN
F 2 "" H 7400 5775 50  0000 C CNN
F 3 "" H 7400 5775 50  0000 C CNN
	1    7400 5775
	1    0    0    -1  
$EndComp
$Comp
L GND-RESCUE-Raspberry_Shield-RESCUE-Raspberry_Shield #PWR08
U 1 1 583884CB
P 7800 5050
F 0 "#PWR08" H 7800 4800 50  0001 C CNN
F 1 "GND" H 7800 4900 50  0000 C CNN
F 2 "" H 7800 5050 50  0000 C CNN
F 3 "" H 7800 5050 50  0000 C CNN
	1    7800 5050
	1    0    0    -1  
$EndComp
$Comp
L +5V #PWR09
U 1 1 5873D051
P 5700 1875
F 0 "#PWR09" H 5700 1725 50  0001 C CNN
F 1 "+5V" H 5715 2048 50  0000 C CNN
F 2 "" H 5700 1875 50  0000 C CNN
F 3 "" H 5700 1875 50  0000 C CNN
	1    5700 1875
	1    0    0    -1  
$EndComp
Wire Wire Line
	4775 3925 5950 3925
NoConn ~ 5950 3925
$Comp
L C_Small C102
U 1 1 5911FDC9
P 7145 3615
F 0 "C102" H 7170 3715 50  0000 L CNN
F 1 "22nF" H 7170 3515 50  0000 L CNN
F 2 "Capacitors_SMD:C_0402" H 7183 3465 50  0001 C CNN
F 3 "" H 7145 3615 50  0000 C CNN
F 4 "GRM155R71H223KA12J" H 7145 3615 60  0001 C CNN "manf#"
F 5 "490-6360-1-ND" H 7145 3615 60  0001 C CNN "digikey#"
	1    7145 3615
	1    0    0    1   
$EndComp
Wire Wire Line
	7145 3515 7145 3475
Connection ~ 7145 3475
$Comp
L GND-RESCUE-Raspberry_Shield-RESCUE-Raspberry_Shield #PWR010
U 1 1 591200BB
P 7145 3785
F 0 "#PWR010" H 7145 3535 50  0001 C CNN
F 1 "GND" H 7150 3612 50  0000 C CNN
F 2 "" H 7145 3785 50  0001 C CNN
F 3 "" H 7145 3785 50  0001 C CNN
	1    7145 3785
	1    0    0    -1  
$EndComp
Wire Wire Line
	7145 3785 7145 3715
$Comp
L C_Small C104
U 1 1 595B0FEB
P 7150 3225
F 0 "C104" H 7175 3325 50  0000 L CNN
F 1 "22nF" H 7175 3125 50  0000 L CNN
F 2 "Capacitors_SMD:C_0402" H 7188 3075 50  0001 C CNN
F 3 "" H 7150 3225 50  0000 C CNN
F 4 "GRM155R71H223KA12J" H 7150 3225 60  0001 C CNN "manf#"
F 5 "490-6360-1-ND" H 7150 3225 60  0001 C CNN "digikey#"
	1    7150 3225
	1    0    0    1   
$EndComp
Wire Wire Line
	7150 3375 7150 3325
Wire Wire Line
	7150 3325 7400 3325
$Comp
L GND-RESCUE-Raspberry_Shield-RESCUE-Raspberry_Shield #PWR011
U 1 1 595B190E
P 7150 3000
F 0 "#PWR011" H 7150 2750 50  0001 C CNN
F 1 "GND" H 7155 2827 50  0000 C CNN
F 2 "" H 7150 3000 50  0001 C CNN
F 3 "" H 7150 3000 50  0001 C CNN
	1    7150 3000
	-1   0    0    1   
$EndComp
Wire Wire Line
	7150 3125 7150 3000
$EndSCHEMATC
