EESchema Schematic File Version 4
LIBS:Raspberry_Shield-cache
EELAYER 26 0
EELAYER END
$Descr A4 11693 8268
encoding utf-8
Sheet 5 5
Title "Laser4DIY Raspberry Pi Shield"
Date "2017-12-22"
Rev "01"
Comp ""
Comment1 ""
Comment2 ""
Comment3 ""
Comment4 ""
$EndDescr
$Comp
L PCF8575:PCF8575 U5
U 1 1 58062E94
P 3575 3050
F 0 "U5" H 3575 2000 60  0000 C CNN
F 1 "PCF8575" H 3575 3750 60  0000 C CNN
F 2 "Housings_SSOP:SSOP-24_5.3x8.2mm_Pitch0.65mm" H 3575 3050 60  0001 C CNN
F 3 "" H 3575 3050 60  0000 C CNN
F 4 "PCF8575TS/1,112" H 3575 3050 60  0001 C CNN "manf#"
	1    3575 3050
	1    0    0    -1  
$EndComp
$Comp
L Raspberry_Shield-rescue:GND-RESCUE-Raspberry_Shield-RESCUE-Raspberry_Shield #PWR0151
U 1 1 58063558
P 2100 4125
F 0 "#PWR0151" H 2100 3875 50  0001 C CNN
F 1 "GND" H 2100 3975 50  0000 C CNN
F 2 "" H 2100 4125 50  0000 C CNN
F 3 "" H 2100 4125 50  0000 C CNN
	1    2100 4125
	1    0    0    -1  
$EndComp
$Comp
L Raspberry_Shield-rescue:GND-RESCUE-Raspberry_Shield-RESCUE-Raspberry_Shield #PWR0152
U 1 1 580635E1
P 2100 3100
F 0 "#PWR0152" H 2100 2850 50  0001 C CNN
F 1 "GND" H 2100 2950 50  0000 C CNN
F 2 "" H 2100 3100 50  0000 C CNN
F 3 "" H 2100 3100 50  0000 C CNN
	1    2100 3100
	1    0    0    -1  
$EndComp
$Comp
L Raspberry_Shield-rescue:3V3_Raspberry-RESCUE-Raspberry_Shield #PWR0153
U 1 1 5806F719
P 2100 3675
AR Path="/5806F719" Ref="#PWR0153"  Part="1" 
AR Path="/5806772C/5806F719" Ref="#PWR0153"  Part="1" 
F 0 "#PWR0153" H 2100 3635 30  0001 C CNN
F 1 "3V3_Raspberry" H 2100 3795 30  0000 C CNN
F 2 "" H 2100 3675 60  0000 C CNN
F 3 "" H 2100 3675 60  0000 C CNN
	1    2100 3675
	1    0    0    -1  
$EndComp
Text GLabel 2675 3550 0    60   Input ~ 0
SDA
Wire Wire Line
	2675 3850 2100 3850
Wire Wire Line
	2675 3950 2100 3950
Wire Wire Line
	2675 2850 2100 2850
Wire Wire Line
	2100 2850 2100 2950
Wire Wire Line
	2675 2950 2100 2950
Connection ~ 2100 2950
Wire Wire Line
	2675 3050 2100 3050
Connection ~ 2100 3050
Text GLabel 4300 2075 1    60   Input ~ 0
INTERLOCK1
Text GLabel 4450 2075 1    60   Input ~ 0
INTERLOCK2
Text GLabel 4600 2075 1    60   Input ~ 0
INTERLOCK3
Text GLabel 4750 2075 1    60   Input ~ 0
INTERLOCK4
Wire Wire Line
	4525 2450 4525 2275
Wire Wire Line
	4525 2275 4300 2275
Wire Wire Line
	4300 2275 4300 2075
Wire Wire Line
	4525 2550 4600 2550
Wire Wire Line
	4600 2550 4600 2225
Wire Wire Line
	4600 2225 4450 2225
Wire Wire Line
	4450 2225 4450 2075
Wire Wire Line
	4525 2650 4675 2650
Wire Wire Line
	4675 2650 4675 2175
Wire Wire Line
	4675 2175 4600 2175
Wire Wire Line
	4600 2175 4600 2075
Wire Wire Line
	4525 2750 4750 2750
Wire Wire Line
	4750 2750 4750 2075
Text GLabel 2525 2500 0    60   Input ~ 0
PCF_INT
Wire Wire Line
	2525 2500 2600 2500
$Comp
L device:R_Small R18
U 1 1 58474368
P 2600 2075
F 0 "R18" V 2680 2075 50  0000 C CNN
F 1 "2k" V 2525 2075 50  0000 C CNN
F 2 "IPC7351-Nominal:RESC1005X40" V 2530 2075 50  0001 C CNN
F 3 "" H 2600 2075 50  0000 C CNN
F 4 "RC1005F202CS" H 2600 2075 60  0001 C CNN "manf#"
	1    2600 2075
	1    0    0    -1  
$EndComp
$Comp
L Raspberry_Shield-rescue:3V3_Raspberry-RESCUE-Raspberry_Shield #PWR0166
U 1 1 584754E7
P 2600 1750
AR Path="/584754E7" Ref="#PWR0166"  Part="1" 
AR Path="/5806772C/584754E7" Ref="#PWR0166"  Part="1" 
F 0 "#PWR0166" H 2600 1710 30  0001 C CNN
F 1 "3V3_Raspberry" H 2609 1888 30  0000 C CNN
F 2 "" H 2600 1750 60  0000 C CNN
F 3 "" H 2600 1750 60  0000 C CNN
	1    2600 1750
	1    0    0    -1  
$EndComp
Wire Wire Line
	2600 1750 2600 1975
Wire Wire Line
	2600 2175 2600 2500
Connection ~ 2600 2500
Wire Wire Line
	2100 3950 2100 4075
Wire Wire Line
	2100 3850 2100 3725
Text GLabel 2675 3450 0    60   Input ~ 0
SCL
$Comp
L device:C_Small C75
U 1 1 58DA1191
P 1925 3900
F 0 "C75" H 1950 4000 50  0000 L CNN
F 1 "0uF47" H 1950 3800 50  0000 L CNN
F 2 "IPC7351-Nominal:CAPC1005X60" H 1963 3750 50  0001 C CNN
F 3 "" H 1925 3900 50  0000 C CNN
F 4 "CL05A474KP5NNNC" H 1925 3900 60  0001 C CNN "manf#"
	1    1925 3900
	-1   0    0    1   
$EndComp
Wire Wire Line
	1925 3800 1925 3725
Wire Wire Line
	1600 3725 1925 3725
Connection ~ 2100 3725
Wire Wire Line
	1925 4000 1925 4075
Wire Wire Line
	1925 4075 2100 4075
Connection ~ 2100 4075
$Comp
L Raspberry_Shield-rescue:CONN_01X01-RESCUE-Raspberry_Shield P9
U 1 1 58D95941
P 1400 3725
F 0 "P9" H 1500 3725 50  0000 L CNN
F 1 "Testpad" H 1325 3600 50  0000 L CNN
F 2 "w_details:testpoint_2mm" H 1400 3725 50  0001 C CNN
F 3 "" H 1400 3725 50  0000 C CNN
	1    1400 3725
	-1   0    0    1   
$EndComp
Connection ~ 1925 3725
NoConn ~ 4550 2950
NoConn ~ 4550 3050
Wire Wire Line
	4550 2950 4525 2950
Wire Wire Line
	4550 3050 4525 3050
Wire Wire Line
	2100 2950 2100 3050
Wire Wire Line
	2100 3050 2100 3100
Wire Wire Line
	2600 2500 2675 2500
Wire Wire Line
	2100 3725 2100 3675
Wire Wire Line
	2100 4075 2100 4125
Wire Wire Line
	1925 3725 2100 3725
NoConn ~ 4525 2850
NoConn ~ 4525 3150
NoConn ~ 4525 3300
NoConn ~ 4525 3400
NoConn ~ 4525 3500
NoConn ~ 4525 3600
NoConn ~ 4525 3700
NoConn ~ 4525 3800
NoConn ~ 4525 3900
NoConn ~ 4525 4000
$EndSCHEMATC
