EESchema Schematic File Version 4
LIBS:Raspberry_Shield-cache
EELAYER 26 0
EELAYER END
$Descr A4 11693 8268
encoding utf-8
Sheet 3 5
Title "Laser4DIY Raspberry Pi Shield"
Date "2017-12-22"
Rev "01"
Comp ""
Comment1 ""
Comment2 ""
Comment3 ""
Comment4 ""
$EndDescr
Text GLabel 8300 4425 1    60   Input ~ 0
Laser_PWM
$Comp
L Logic_74xgxx:74LVC2G08 U10
U 1 1 57A8B49F
P 9150 5175
F 0 "U10" H 9250 5450 50  0000 C CNN
F 1 "74LVC2G08DP" H 9425 5350 50  0000 C CNN
F 2 "Housings_SSOP:TSSOP-8_3x3mm_Pitch0.65mm" H 9150 5175 50  0001 C CNN
F 3 "" H 9150 5175 50  0000 C CNN
F 4 "74LVC2G08DP" H 9150 5175 60  0001 C CNN "manf#"
	1    9150 5175
	1    0    0    -1  
$EndComp
$Comp
L Logic_74xgxx:74LVC2G08 U10
U 2 1 57A8B52D
P 9975 5225
F 0 "U10" H 9900 5500 50  0000 C CNN
F 1 "74LVC2G08DP" H 10075 5400 50  0000 C CNN
F 2 "Housings_SSOP:TSSOP-8_3x3mm_Pitch0.65mm" H 9975 5225 50  0001 C CNN
F 3 "" H 9975 5225 50  0000 C CNN
F 4 "74LVC2G08DP" H 9975 5225 60  0001 C CNN "manf#"
	2    9975 5225
	1    0    0    -1  
$EndComp
$Comp
L device:R_Small R49
U 1 1 57A8C2CB
P 8675 5675
F 0 "R49" H 8734 5721 50  0000 L CNN
F 1 "5k" H 8734 5630 50  0000 L CNN
F 2 "IPC7351-Nominal:RESC1005X40" H 8675 5675 50  0001 C CNN
F 3 "" H 8675 5675 50  0000 C CNN
	1    8675 5675
	1    0    0    -1  
$EndComp
$Comp
L Raspberry_Shield-rescue:GND-RESCUE-Raspberry_Shield-RESCUE-Raspberry_Shield #PWR083
U 1 1 57A8C38F
P 8675 6225
F 0 "#PWR083" H 8675 5975 50  0001 C CNN
F 1 "GND" H 8680 6052 50  0000 C CNN
F 2 "" H 8675 6225 50  0000 C CNN
F 3 "" H 8675 6225 50  0000 C CNN
	1    8675 6225
	1    0    0    -1  
$EndComp
$Comp
L device:R_Small R48
U 1 1 57A8C71F
P 8450 4850
F 0 "R48" H 8509 4896 50  0000 L CNN
F 1 "10k" H 8509 4805 50  0000 L CNN
F 2 "IPC7351-Nominal:RESC1005X40" H 8450 4850 50  0001 C CNN
F 3 "" H 8450 4850 50  0000 C CNN
F 4 "1276-3431-1-ND" H 8450 4850 60  0001 C CNN "digikey#"
F 5 "RC1005F103CS" H 8450 4850 60  0001 C CNN "manf#"
	1    8450 4850
	1    0    0    -1  
$EndComp
$Comp
L device:C_Small C11
U 1 1 57A8C85B
P 8800 4575
F 0 "C11" H 8892 4621 50  0000 L CNN
F 1 "0.1µF 50V" H 8892 4530 50  0000 L CNN
F 2 "IPC7351-Nominal:CAPC1005X60" H 8800 4575 50  0001 C CNN
F 3 "" H 8800 4575 50  0000 C CNN
F 4 "GRM155R61H104ME14D" H 8800 4575 60  0001 C CNN "manf#"
	1    8800 4575
	1    0    0    -1  
$EndComp
$Comp
L Raspberry_Shield-rescue:GND-RESCUE-Raspberry_Shield-RESCUE-Raspberry_Shield #PWR084
U 1 1 57A8C8AD
P 8800 4850
F 0 "#PWR084" H 8800 4600 50  0001 C CNN
F 1 "GND" H 8805 4677 50  0000 C CNN
F 2 "" H 8800 4850 50  0000 C CNN
F 3 "" H 8800 4850 50  0000 C CNN
	1    8800 4850
	1    0    0    -1  
$EndComp
$Comp
L device:R_Small R50
U 1 1 57A8D61B
P 9350 5675
F 0 "R50" H 9409 5721 50  0000 L CNN
F 1 "100k" H 9409 5630 50  0000 L CNN
F 2 "IPC7351-Nominal:RESC1005X40" H 9350 5675 50  0001 C CNN
F 3 "" H 9350 5675 50  0000 C CNN
F 4 "RC1005F104CS" H 9350 5675 60  0001 C CNN "manf#"
	1    9350 5675
	1    0    0    -1  
$EndComp
$Comp
L device:C_Small C21
U 1 1 57A8D7FF
P 9625 6025
F 0 "C21" H 9717 6071 50  0000 L CNN
F 1 "4.7µF 50V" H 9717 5980 50  0000 L CNN
F 2 "IPC7351-Nominal:RESC2012X60" H 9625 6025 50  0001 C CNN
F 3 "" H 9625 6025 50  0000 C CNN
F 4 "GRM21BR61H475KE51L" H 9625 6025 60  0001 C CNN "manf#"
	1    9625 6025
	1    0    0    -1  
$EndComp
$Comp
L Raspberry_Shield-rescue:GND-RESCUE-Raspberry_Shield-RESCUE-Raspberry_Shield #PWR085
U 1 1 57A8D8F6
P 9625 6225
F 0 "#PWR085" H 9625 5975 50  0001 C CNN
F 1 "GND" H 9630 6052 50  0000 C CNN
F 2 "" H 9625 6225 50  0000 C CNN
F 3 "" H 9625 6225 50  0000 C CNN
	1    9625 6225
	1    0    0    -1  
$EndComp
$Comp
L device:R_Small R51
U 1 1 57A8DA81
P 10570 4205
F 0 "R51" V 10670 4205 50  0000 C CNN
F 1 "51" V 10465 4205 50  0000 C CNN
F 2 "IPC7351-Nominal:RESC1005X40" H 10570 4205 50  0001 C CNN
F 3 "" H 10570 4205 50  0000 C CNN
F 4 "311-51JRCT-ND" H 10570 4205 60  0001 C CNN "digikey#"
F 5 "RC0402JR-0751RL" H 10570 4205 60  0001 C CNN "manf#"
	1    10570 4205
	0    1    1    0   
$EndComp
Text Label 10845 4205 0    60   ~ 0
driver_EN
$Comp
L Raspberry_Shield-rescue:SW_PUSH_SMALL_H-RESCUE-Raspberry_Shield SW1
U 1 1 58075561
P 1525 3725
F 0 "SW1" H 1525 3850 50  0000 C CNN
F 1 "Interlock" H 1525 3650 50  0000 C CNN
F 2 "LHE-PH-NAB_[JS]:PH-2AB" H 1525 3925 50  0001 C CNN
F 3 "" H 1525 3925 50  0000 C CNN
F 4 "68001-402HLF" H 1525 3725 60  0001 C CNN "manf#"
	1    1525 3725
	0    -1   1    0   
$EndComp
$Comp
L Raspberry_Shield-rescue:GND-RESCUE-Raspberry_Shield-RESCUE-Raspberry_Shield #PWR086
U 1 1 580760FE
P 1225 4950
F 0 "#PWR086" H 1225 4700 50  0001 C CNN
F 1 "GND" H 1225 4800 50  0000 C CNN
F 2 "" H 1225 4950 50  0000 C CNN
F 3 "" H 1225 4950 50  0000 C CNN
	1    1225 4950
	-1   0    0    -1  
$EndComp
$Comp
L device:C_Small C4
U 1 1 5807622E
P 700 4175
F 0 "C4" H 725 4275 50  0000 L CNN
F 1 "0uF47" H 725 4075 50  0000 L CNN
F 2 "IPC7351-Nominal:CAPC1005X60" H 738 4025 50  0001 C CNN
F 3 "" H 700 4175 50  0000 C CNN
F 4 "CL05A474KP5NNNC" H 700 4175 60  0001 C CNN "manf#"
	1    700  4175
	1    0    0    1   
$EndComp
$Comp
L Raspberry_Shield-rescue:GND-RESCUE-Raspberry_Shield-RESCUE-Raspberry_Shield #PWR087
U 1 1 58076324
P 700 4950
F 0 "#PWR087" H 700 4700 50  0001 C CNN
F 1 "GND" H 700 4800 50  0000 C CNN
F 2 "" H 700 4950 50  0000 C CNN
F 3 "" H 700 4950 50  0000 C CNN
	1    700  4950
	-1   0    0    -1  
$EndComp
Text GLabel 1225 3825 1    60   Input ~ 0
INTERLOCK1
$Comp
L Raspberry_Shield-rescue:SW_PUSH_SMALL_H-RESCUE-Raspberry_Shield SW2
U 1 1 58076CF0
P 2975 3725
F 0 "SW2" H 2975 3850 50  0000 C CNN
F 1 "Interlock" H 2975 3650 50  0000 C CNN
F 2 "LHE-PH-NAB_[JS]:PH-2AB" H 2975 3925 50  0001 C CNN
F 3 "" H 2975 3925 50  0000 C CNN
F 4 "68001-402HLF" H 2975 3725 60  0001 C CNN "manf#"
	1    2975 3725
	0    -1   1    0   
$EndComp
$Comp
L Raspberry_Shield-rescue:GND-RESCUE-Raspberry_Shield-RESCUE-Raspberry_Shield #PWR088
U 1 1 58076D0C
P 2675 4950
F 0 "#PWR088" H 2675 4700 50  0001 C CNN
F 1 "GND" H 2675 4800 50  0000 C CNN
F 2 "" H 2675 4950 50  0000 C CNN
F 3 "" H 2675 4950 50  0000 C CNN
	1    2675 4950
	-1   0    0    -1  
$EndComp
$Comp
L device:C_Small C26
U 1 1 58076D19
P 2150 4175
F 0 "C26" H 2175 4275 50  0000 L CNN
F 1 "0uF47" H 2175 4075 50  0000 L CNN
F 2 "IPC7351-Nominal:CAPC1005X60" H 2188 4025 50  0001 C CNN
F 3 "" H 2150 4175 50  0000 C CNN
F 4 "CL05A474KP5NNNC" H 2150 4175 60  0001 C CNN "manf#"
	1    2150 4175
	1    0    0    1   
$EndComp
$Comp
L Raspberry_Shield-rescue:GND-RESCUE-Raspberry_Shield-RESCUE-Raspberry_Shield #PWR089
U 1 1 58076D20
P 2150 4950
F 0 "#PWR089" H 2150 4700 50  0001 C CNN
F 1 "GND" H 2150 4800 50  0000 C CNN
F 2 "" H 2150 4950 50  0000 C CNN
F 3 "" H 2150 4950 50  0000 C CNN
	1    2150 4950
	-1   0    0    -1  
$EndComp
Text GLabel 2675 3825 1    60   Input ~ 0
INTERLOCK2
$Comp
L Raspberry_Shield-rescue:SW_PUSH_SMALL_H-RESCUE-Raspberry_Shield SW3
U 1 1 58077B6B
P 4400 3725
F 0 "SW3" H 4400 3850 50  0000 C CNN
F 1 "Interlock" H 4400 3625 50  0000 C CNN
F 2 "LHE-PH-NAB_[JS]:PH-2AB" H 4400 3925 50  0001 C CNN
F 3 "" H 4400 3925 50  0000 C CNN
F 4 "68001-402HLF" H 4400 3725 60  0001 C CNN "manf#"
	1    4400 3725
	0    -1   1    0   
$EndComp
$Comp
L Raspberry_Shield-rescue:GND-RESCUE-Raspberry_Shield-RESCUE-Raspberry_Shield #PWR090
U 1 1 58077B80
P 4125 4950
F 0 "#PWR090" H 4125 4700 50  0001 C CNN
F 1 "GND" H 4125 4800 50  0000 C CNN
F 2 "" H 4125 4950 50  0000 C CNN
F 3 "" H 4125 4950 50  0000 C CNN
	1    4125 4950
	-1   0    0    -1  
$EndComp
$Comp
L device:C_Small C27
U 1 1 58077B8D
P 3600 4175
F 0 "C27" H 3625 4275 50  0000 L CNN
F 1 "0uF47" H 3625 4075 50  0000 L CNN
F 2 "IPC7351-Nominal:CAPC1005X60" H 3638 4025 50  0001 C CNN
F 3 "" H 3600 4175 50  0000 C CNN
F 4 "CL05A474KP5NNNC" H 3600 4175 60  0001 C CNN "manf#"
	1    3600 4175
	1    0    0    1   
$EndComp
$Comp
L Raspberry_Shield-rescue:GND-RESCUE-Raspberry_Shield-RESCUE-Raspberry_Shield #PWR091
U 1 1 58077B94
P 3600 4950
F 0 "#PWR091" H 3600 4700 50  0001 C CNN
F 1 "GND" H 3600 4800 50  0000 C CNN
F 2 "" H 3600 4950 50  0000 C CNN
F 3 "" H 3600 4950 50  0000 C CNN
	1    3600 4950
	-1   0    0    -1  
$EndComp
Text GLabel 4125 3825 1    60   Input ~ 0
INTERLOCK3
$Comp
L Raspberry_Shield-rescue:SW_PUSH_SMALL_H-RESCUE-Raspberry_Shield SW4
U 1 1 58078FC1
P 5775 3725
F 0 "SW4" H 5775 3850 50  0000 C CNN
F 1 "Interlock" H 5775 3625 50  0000 C CNN
F 2 "LHE-PH-NAB_[JS]:PH-2AB" H 5775 3925 50  0001 C CNN
F 3 "" H 5775 3925 50  0000 C CNN
F 4 "nicht_bestueckt" H 5775 3725 60  0001 C CNN "manf#"
	1    5775 3725
	0    -1   1    0   
$EndComp
$Comp
L Raspberry_Shield-rescue:GND-RESCUE-Raspberry_Shield-RESCUE-Raspberry_Shield #PWR092
U 1 1 58078FD6
P 5500 4950
F 0 "#PWR092" H 5500 4700 50  0001 C CNN
F 1 "GND" H 5500 4800 50  0000 C CNN
F 2 "" H 5500 4950 50  0000 C CNN
F 3 "" H 5500 4950 50  0000 C CNN
	1    5500 4950
	-1   0    0    -1  
$EndComp
$Comp
L device:C_Small C28
U 1 1 58078FE3
P 5000 4175
F 0 "C28" H 5025 4275 50  0000 L CNN
F 1 "0uF47" H 5025 4075 50  0000 L CNN
F 2 "IPC7351-Nominal:CAPC1005X60" H 5038 4025 50  0001 C CNN
F 3 "" H 5000 4175 50  0000 C CNN
F 4 "CL05A474KP5NNNC" H 5000 4175 60  0001 C CNN "manf#"
	1    5000 4175
	1    0    0    1   
$EndComp
$Comp
L Raspberry_Shield-rescue:GND-RESCUE-Raspberry_Shield-RESCUE-Raspberry_Shield #PWR093
U 1 1 58078FEA
P 5000 4950
F 0 "#PWR093" H 5000 4700 50  0001 C CNN
F 1 "GND" H 5000 4800 50  0000 C CNN
F 2 "" H 5000 4950 50  0000 C CNN
F 3 "" H 5000 4950 50  0000 C CNN
	1    5000 4950
	-1   0    0    -1  
$EndComp
Text GLabel 5500 3825 1    60   Input ~ 0
INTERLOCK4
Text GLabel 7000 6025 3    60   Input ~ 0
HOLD
$Comp
L Raspberry_Shield-rescue:LED-RESCUE-Raspberry_Shield D2
U 1 1 580AF22A
P 1225 4650
AR Path="/580AF22A" Ref="D2"  Part="1" 
AR Path="/57A1419D/580AF22A" Ref="D2"  Part="1" 
F 0 "D2" H 1225 4750 50  0000 C CNN
F 1 "LED" H 1225 4550 50  0000 C CNN
F 2 "LEDs:LED_0805" H 1225 4475 60  0001 C CNN
F 3 "http://www.osram-os.com/Graphics/XPic9/00078860_0.pdf" H 1225 4650 60  0001 C CNN
F 4 "LG R971-KN-1" H 1225 4650 60  0001 C CNN "manf#"
F 5 "LED CHIPLED 570NM GREEN" H 1225 4650 60  0001 C CNN "Characteristics"
F 6 "Power On Green LED" H 1225 4650 60  0001 C CNN "Description"
F 7 "OSRAM Opto" H 1225 4650 60  0001 C CNN "MFN"
F 8 "LG R971-KN-1" H 1225 4650 60  0001 C CNN "MFP"
F 9 "SMD_0805" H 1225 4650 60  0001 C CNN "Package ID"
F 10 "ANY" H 1225 4650 60  0001 C CNN "Source"
F 11 "N" H 1225 4650 60  0001 C CNN "Critical"
F 12 "Voltage_Reg" H 1225 4650 60  0001 C CNN "Subsystem"
F 13 "~" H 1225 4650 60  0001 C CNN "Notes"
	1    1225 4650
	0    -1   -1   0   
$EndComp
$Comp
L Raspberry_Shield-rescue:LED-RESCUE-Raspberry_Shield D3
U 1 1 580AFCFC
P 2675 4650
AR Path="/580AFCFC" Ref="D3"  Part="1" 
AR Path="/57A1419D/580AFCFC" Ref="D3"  Part="1" 
F 0 "D3" H 2675 4750 50  0000 C CNN
F 1 "LED" H 2675 4550 50  0000 C CNN
F 2 "LEDs:LED_0805" H 2675 4475 60  0001 C CNN
F 3 "http://www.osram-os.com/Graphics/XPic9/00078860_0.pdf" H 2675 4650 60  0001 C CNN
F 4 "LG R971-KN-1" H 2675 4650 60  0001 C CNN "manf#"
F 5 "LED CHIPLED 570NM GREEN" H 2675 4650 60  0001 C CNN "Characteristics"
F 6 "Power On Green LED" H 2675 4650 60  0001 C CNN "Description"
F 7 "OSRAM Opto" H 2675 4650 60  0001 C CNN "MFN"
F 8 "LG R971-KN-1" H 2675 4650 60  0001 C CNN "MFP"
F 9 "SMD_0805" H 2675 4650 60  0001 C CNN "Package ID"
F 10 "ANY" H 2675 4650 60  0001 C CNN "Source"
F 11 "N" H 2675 4650 60  0001 C CNN "Critical"
F 12 "Voltage_Reg" H 2675 4650 60  0001 C CNN "Subsystem"
F 13 "~" H 2675 4650 60  0001 C CNN "Notes"
	1    2675 4650
	0    1    -1   0   
$EndComp
$Comp
L Raspberry_Shield-rescue:LED-RESCUE-Raspberry_Shield D5
U 1 1 580AFDD9
P 4125 4650
AR Path="/580AFDD9" Ref="D5"  Part="1" 
AR Path="/57A1419D/580AFDD9" Ref="D5"  Part="1" 
F 0 "D5" H 4125 4750 50  0000 C CNN
F 1 "LED" H 4125 4550 50  0000 C CNN
F 2 "LEDs:LED_0805" H 4125 4475 60  0001 C CNN
F 3 "http://www.osram-os.com/Graphics/XPic9/00078860_0.pdf" H 4125 4650 60  0001 C CNN
F 4 "LG R971-KN-1" H 4125 4650 60  0001 C CNN "manf#"
F 5 "LED CHIPLED 570NM GREEN" H 4125 4650 60  0001 C CNN "Characteristics"
F 6 "Power On Green LED" H 4125 4650 60  0001 C CNN "Description"
F 7 "OSRAM Opto" H 4125 4650 60  0001 C CNN "MFN"
F 8 "LG R971-KN-1" H 4125 4650 60  0001 C CNN "MFP"
F 9 "SMD_0805" H 4125 4650 60  0001 C CNN "Package ID"
F 10 "ANY" H 4125 4650 60  0001 C CNN "Source"
F 11 "N" H 4125 4650 60  0001 C CNN "Critical"
F 12 "Voltage_Reg" H 4125 4650 60  0001 C CNN "Subsystem"
F 13 "~" H 4125 4650 60  0001 C CNN "Notes"
	1    4125 4650
	0    1    -1   0   
$EndComp
$Comp
L Raspberry_Shield-rescue:LED-RESCUE-Raspberry_Shield D6
U 1 1 580AFEAB
P 5500 4650
AR Path="/580AFEAB" Ref="D6"  Part="1" 
AR Path="/57A1419D/580AFEAB" Ref="D6"  Part="1" 
F 0 "D6" H 5500 4750 50  0000 C CNN
F 1 "LED" H 5500 4550 50  0000 C CNN
F 2 "LEDs:LED_0805" H 5500 4475 60  0001 C CNN
F 3 "http://www.osram-os.com/Graphics/XPic9/00078860_0.pdf" H 5500 4650 60  0001 C CNN
F 4 "LG R971-KN-1" H 5500 4650 60  0001 C CNN "manf#"
F 5 "LED CHIPLED 570NM GREEN" H 5500 4650 60  0001 C CNN "Characteristics"
F 6 "Power On Green LED" H 5500 4650 60  0001 C CNN "Description"
F 7 "OSRAM Opto" H 5500 4650 60  0001 C CNN "MFN"
F 8 "LG R971-KN-1" H 5500 4650 60  0001 C CNN "MFP"
F 9 "SMD_0805" H 5500 4650 60  0001 C CNN "Package ID"
F 10 "ANY" H 5500 4650 60  0001 C CNN "Source"
F 11 "N" H 5500 4650 60  0001 C CNN "Critical"
F 12 "Voltage_Reg" H 5500 4650 60  0001 C CNN "Subsystem"
F 13 "~" H 5500 4650 60  0001 C CNN "Notes"
	1    5500 4650
	0    1    -1   0   
$EndComp
$Comp
L device:R_Small R74
U 1 1 581441CA
P 6850 5550
F 0 "R74" H 6909 5596 50  0000 L CNN
F 1 "165" H 6909 5505 50  0000 L CNN
F 2 "IPC7351-Nominal:RESC1005X40" H 6850 5550 50  0001 C CNN
F 3 "" H 6850 5550 50  0000 C CNN
F 4 "ERJ-2RKF1650X" H 6850 5550 60  0001 C CNN "manf#"
	1    6850 5550
	-1   0    0    -1  
$EndComp
$Comp
L Raspberry_Shield-rescue:LED-RESCUE-Raspberry_Shield D8
U 1 1 581441DB
P 6550 5300
AR Path="/581441DB" Ref="D8"  Part="1" 
AR Path="/57A1419D/581441DB" Ref="D8"  Part="1" 
F 0 "D8" H 6550 5400 50  0000 C CNN
F 1 "LED" H 6550 5200 50  0000 C CNN
F 2 "LEDs:LED_0805" H 6550 5125 60  0001 C CNN
F 3 "http://www.osram-os.com/Graphics/XPic9/00078860_0.pdf" H 6550 5300 60  0001 C CNN
F 4 "LG R971-KN-1" H 6550 5300 60  0001 C CNN "manf#"
F 5 "LED CHIPLED 570NM GREEN" H 6550 5300 60  0001 C CNN "Characteristics"
F 6 "Power On Green LED" H 6550 5300 60  0001 C CNN "Description"
F 7 "OSRAM Opto" H 6550 5300 60  0001 C CNN "MFN"
F 8 "LG R971-KN-1" H 6550 5300 60  0001 C CNN "MFP"
F 9 "SMD_0805" H 6550 5300 60  0001 C CNN "Package ID"
F 10 "ANY" H 6550 5300 60  0001 C CNN "Source"
F 11 "N" H 6550 5300 60  0001 C CNN "Critical"
F 12 "Voltage_Reg" H 6550 5300 60  0001 C CNN "Subsystem"
F 13 "~" H 6550 5300 60  0001 C CNN "Notes"
	1    6550 5300
	0    -1   -1   0   
$EndComp
Text GLabel 7300 4950 2    60   Input ~ 0
STEPPERRUN
$Comp
L device:D D9
U 1 1 58155C47
P 6725 3075
F 0 "D9" H 6725 3175 40  0000 C CNN
F 1 "1N4148W-7-F" H 6725 2975 40  0000 C CNN
F 2 "w_smd_diode:sod123" H 6725 3075 60  0001 C CNN
F 3 "http://www.diodes.com/_files/datasheets/ds30086.pdf" H 6725 3075 60  0001 C CNN
F 4 "1N4148W-7-F" H 6725 3075 60  0001 C CNN "manf#"
F 5 "DIODE GEN PURP 100V 300MA SOD123" H 6725 3075 60  0001 C CNN "Characteristics"
F 6 "ATMEGA328P ICSP Reset Voltage Spike Protection" H 6725 3075 60  0001 C CNN "Description"
F 7 "Diodes Inc" H 6725 3075 60  0001 C CNN "MFN"
F 8 "1N4148W-7-F" H 6725 3075 60  0001 C CNN "MFP"
F 9 "SOD123" H 6725 3075 60  0001 C CNN "Package ID"
F 10 "ANY" H 6725 3075 60  0001 C CNN "Source"
F 11 "N" H 6725 3075 60  0001 C CNN "Critical"
F 12 "328P_Sub" H 6725 3075 60  0001 C CNN "Subsystem"
F 13 "~" H 6725 3075 60  0001 C CNN "Notes"
	1    6725 3075
	0    -1   -1   0   
$EndComp
$Comp
L device:D D10
U 1 1 58155D8A
P 7100 3075
F 0 "D10" H 7100 3175 40  0000 C CNN
F 1 "1N4148W-7-F" H 7100 2975 40  0000 C CNN
F 2 "w_smd_diode:sod123" H 7100 3075 60  0001 C CNN
F 3 "http://www.diodes.com/_files/datasheets/ds30086.pdf" H 7100 3075 60  0001 C CNN
F 4 "1N4148W-7-F" H 7100 3075 60  0001 C CNN "manf#"
F 5 "DIODE GEN PURP 100V 300MA SOD123" H 7100 3075 60  0001 C CNN "Characteristics"
F 6 "ATMEGA328P ICSP Reset Voltage Spike Protection" H 7100 3075 60  0001 C CNN "Description"
F 7 "Diodes Inc" H 7100 3075 60  0001 C CNN "MFN"
F 8 "1N4148W-7-F" H 7100 3075 60  0001 C CNN "MFP"
F 9 "SOD123" H 7100 3075 60  0001 C CNN "Package ID"
F 10 "ANY" H 7100 3075 60  0001 C CNN "Source"
F 11 "N" H 7100 3075 60  0001 C CNN "Critical"
F 12 "328P_Sub" H 7100 3075 60  0001 C CNN "Subsystem"
F 13 "~" H 7100 3075 60  0001 C CNN "Notes"
	1    7100 3075
	0    -1   -1   0   
$EndComp
$Comp
L device:D D11
U 1 1 58155F95
P 7475 3075
F 0 "D11" H 7475 3175 40  0000 C CNN
F 1 "1N4148W-7-F" H 7475 2975 40  0000 C CNN
F 2 "w_smd_diode:sod123" H 7475 3075 60  0001 C CNN
F 3 "http://www.diodes.com/_files/datasheets/ds30086.pdf" H 7475 3075 60  0001 C CNN
F 4 "1N4148W-7-F" H 7475 3075 60  0001 C CNN "manf#"
F 5 "DIODE GEN PURP 100V 300MA SOD123" H 7475 3075 60  0001 C CNN "Characteristics"
F 6 "ATMEGA328P ICSP Reset Voltage Spike Protection" H 7475 3075 60  0001 C CNN "Description"
F 7 "Diodes Inc" H 7475 3075 60  0001 C CNN "MFN"
F 8 "1N4148W-7-F" H 7475 3075 60  0001 C CNN "MFP"
F 9 "SOD123" H 7475 3075 60  0001 C CNN "Package ID"
F 10 "ANY" H 7475 3075 60  0001 C CNN "Source"
F 11 "N" H 7475 3075 60  0001 C CNN "Critical"
F 12 "328P_Sub" H 7475 3075 60  0001 C CNN "Subsystem"
F 13 "~" H 7475 3075 60  0001 C CNN "Notes"
	1    7475 3075
	0    -1   -1   0   
$EndComp
Text GLabel 6725 2800 1    60   Input ~ 0
X-STEP
Text GLabel 7100 2800 1    60   Input ~ 0
Y-STEP
Text GLabel 7475 2800 1    60   Input ~ 0
Z-STEP
$Comp
L device:R_Small R55
U 1 1 5831A502
P 4125 4325
F 0 "R55" H 4184 4371 50  0000 L CNN
F 1 "499" H 4184 4280 50  0000 L CNN
F 2 "IPC7351-Nominal:RESC1005X40" H 4125 4325 50  0001 C CNN
F 3 "" H 4125 4325 50  0000 C CNN
F 4 "RC1005F4990CS" H 4125 4325 60  0001 C CNN "manf#"
	1    4125 4325
	-1   0    0    -1  
$EndComp
$Comp
L device:R_Small R52
U 1 1 5831A5D4
P 2675 4325
F 0 "R52" H 2734 4371 50  0000 L CNN
F 1 "499" H 2734 4280 50  0000 L CNN
F 2 "IPC7351-Nominal:RESC1005X40" H 2675 4325 50  0001 C CNN
F 3 "" H 2675 4325 50  0000 C CNN
F 4 "RC1005F4990CS" H 2675 4325 60  0001 C CNN "manf#"
	1    2675 4325
	-1   0    0    -1  
$EndComp
$Comp
L device:R_Small R28
U 1 1 5831A6B5
P 1225 4325
F 0 "R28" H 1284 4371 50  0000 L CNN
F 1 "499" H 1284 4280 50  0000 L CNN
F 2 "IPC7351-Nominal:RESC1005X40" H 1225 4325 50  0001 C CNN
F 3 "" H 1225 4325 50  0000 C CNN
F 4 "RC1005F4990CS" H 1225 4325 60  0001 C CNN "manf#"
	1    1225 4325
	-1   0    0    -1  
$EndComp
$Comp
L device:R_Small R83
U 1 1 5831A411
P 5500 4325
F 0 "R83" H 5559 4371 50  0000 L CNN
F 1 "499" H 5559 4280 50  0000 L CNN
F 2 "IPC7351-Nominal:RESC1005X40" H 5500 4325 50  0001 C CNN
F 3 "" H 5500 4325 50  0000 C CNN
F 4 "RC1005F4990CS" H 5500 4325 60  0001 C CNN "manf#"
	1    5500 4325
	-1   0    0    -1  
$EndComp
$Comp
L device:R_Small R82
U 1 1 5831B062
P 5500 4050
F 0 "R82" H 5559 4096 50  0000 L CNN
F 1 "2k" H 5559 4005 50  0000 L CNN
F 2 "IPC7351-Nominal:RESC1005X40" H 5500 4050 50  0001 C CNN
F 3 "" H 5500 4050 50  0000 C CNN
F 4 "RC1005F202CS" H 5500 4050 60  0001 C CNN "manf#"
	1    5500 4050
	-1   0    0    -1  
$EndComp
$Comp
L device:R_Small R54
U 1 1 5831B139
P 4125 4025
F 0 "R54" H 4184 4071 50  0000 L CNN
F 1 "2k" H 4184 3980 50  0000 L CNN
F 2 "IPC7351-Nominal:RESC1005X40" H 4125 4025 50  0001 C CNN
F 3 "" H 4125 4025 50  0000 C CNN
F 4 "RC1005F202CS" H 4125 4025 60  0001 C CNN "manf#"
	1    4125 4025
	-1   0    0    -1  
$EndComp
$Comp
L device:R_Small R36
U 1 1 5831B269
P 2675 4025
F 0 "R36" H 2734 4071 50  0000 L CNN
F 1 "2k" H 2734 3980 50  0000 L CNN
F 2 "IPC7351-Nominal:RESC1005X40" H 2675 4025 50  0001 C CNN
F 3 "" H 2675 4025 50  0000 C CNN
F 4 "RC1005F202CS" H 2675 4025 60  0001 C CNN "manf#"
	1    2675 4025
	-1   0    0    -1  
$EndComp
$Comp
L device:R_Small R2
U 1 1 5831B507
P 1225 4025
F 0 "R2" H 1284 4071 50  0000 L CNN
F 1 "2k" H 1284 3980 50  0000 L CNN
F 2 "IPC7351-Nominal:RESC1005X40" H 1225 4025 50  0001 C CNN
F 3 "" H 1225 4025 50  0000 C CNN
F 4 "RC1005F202CS" H 1225 4025 60  0001 C CNN "manf#"
	1    1225 4025
	-1   0    0    -1  
$EndComp
$Comp
L device:R_Small R84
U 1 1 5831C734
P 5250 4750
F 0 "R84" H 5309 4796 50  0000 L CNN
F 1 "2k" H 5309 4705 50  0000 L CNN
F 2 "IPC7351-Nominal:RESC1005X40" H 5250 4750 50  0001 C CNN
F 3 "" H 5250 4750 50  0000 C CNN
F 4 "RC1005F202CS" H 5250 4750 60  0001 C CNN "manf#"
	1    5250 4750
	-1   0    0    -1  
$EndComp
$Comp
L device:R_Small R81
U 1 1 5831C815
P 3850 4750
F 0 "R81" H 3909 4796 50  0000 L CNN
F 1 "2k" H 3909 4705 50  0000 L CNN
F 2 "IPC7351-Nominal:RESC1005X40" H 3850 4750 50  0001 C CNN
F 3 "" H 3850 4750 50  0000 C CNN
F 4 "RC1005F202CS" H 3850 4750 60  0001 C CNN "manf#"
	1    3850 4750
	-1   0    0    -1  
$EndComp
$Comp
L device:R_Small R53
U 1 1 5831C8ED
P 2400 4750
F 0 "R53" H 2459 4796 50  0000 L CNN
F 1 "2k" H 2459 4705 50  0000 L CNN
F 2 "IPC7351-Nominal:RESC1005X40" H 2400 4750 50  0001 C CNN
F 3 "" H 2400 4750 50  0000 C CNN
F 4 "RC1005F202CS" H 2400 4750 60  0001 C CNN "manf#"
	1    2400 4750
	-1   0    0    -1  
$EndComp
$Comp
L device:R_Small R35
U 1 1 5831C9C2
P 950 4750
F 0 "R35" H 1009 4796 50  0000 L CNN
F 1 "2k" H 1009 4705 50  0000 L CNN
F 2 "IPC7351-Nominal:RESC1005X40" H 950 4750 50  0001 C CNN
F 3 "" H 950 4750 50  0000 C CNN
F 4 "RC1005F202CS" H 950 4750 60  0001 C CNN "manf#"
	1    950  4750
	-1   0    0    -1  
$EndComp
$Comp
L Raspberry_Shield-rescue:CONN_01X01-RESCUE-Raspberry_Shield P34
U 1 1 5835F7D1
P 1800 4175
F 0 "P34" H 1775 4275 50  0000 L CNN
F 1 "Testpad" H 1600 4075 50  0000 L CNN
F 2 "w_details:testpoint_2mm" H 1800 4175 50  0001 C CNN
F 3 "" H 1800 4175 50  0000 C CNN
	1    1800 4175
	1    0    0    1   
$EndComp
$Comp
L Raspberry_Shield-rescue:CONN_01X01-RESCUE-Raspberry_Shield P35
U 1 1 58360A03
P 3250 4175
F 0 "P35" H 3225 4275 50  0000 L CNN
F 1 "Testpad" H 3050 4075 50  0000 L CNN
F 2 "w_details:testpoint_2mm" H 3250 4175 50  0001 C CNN
F 3 "" H 3250 4175 50  0000 C CNN
	1    3250 4175
	1    0    0    1   
$EndComp
$Comp
L Raspberry_Shield-rescue:CONN_01X01-RESCUE-Raspberry_Shield P36
U 1 1 58360B01
P 4675 4175
F 0 "P36" H 4650 4275 50  0000 L CNN
F 1 "Testpad" H 4475 4075 50  0000 L CNN
F 2 "w_details:testpoint_2mm" H 4675 4175 50  0001 C CNN
F 3 "" H 4675 4175 50  0000 C CNN
	1    4675 4175
	1    0    0    1   
$EndComp
$Comp
L Raspberry_Shield-rescue:CONN_01X01-RESCUE-Raspberry_Shield P37
U 1 1 58360C14
P 6075 4175
F 0 "P37" H 6050 4275 50  0000 L CNN
F 1 "Testpad" H 5875 4075 50  0000 L CNN
F 2 "w_details:testpoint_2mm" H 6075 4175 50  0001 C CNN
F 3 "" H 6075 4175 50  0000 C CNN
	1    6075 4175
	1    0    0    1   
$EndComp
$Comp
L Raspberry_Shield-rescue:CONN_01X01-RESCUE-Raspberry_Shield P38
U 1 1 58361ED2
P 7650 3625
F 0 "P38" H 7625 3725 50  0000 L CNN
F 1 "Testpad" H 7450 3525 50  0000 L CNN
F 2 "w_details:testpoint_2mm" H 7650 3625 50  0001 C CNN
F 3 "" H 7650 3625 50  0000 C CNN
	1    7650 3625
	1    0    0    -1  
$EndComp
$Comp
L Raspberry_Shield-rescue:CONN_01X01-RESCUE-Raspberry_Shield P39
U 1 1 58362FCA
P 10755 3865
F 0 "P39" H 10730 3965 50  0000 L CNN
F 1 "Testpad" H 10555 3765 50  0000 L CNN
F 2 "w_details:testpoint_2mm" H 10755 3865 50  0001 C CNN
F 3 "" H 10755 3865 50  0000 C CNN
	1    10755 3865
	0    -1   -1   0   
$EndComp
$Comp
L Logic_74xgxx:74LVC2G08 U8
U 1 1 5848695A
P 6320 5900
F 0 "U8" H 6220 6050 50  0000 C CNN
F 1 "74LVC2G08DP" H 6305 5755 50  0000 C CNN
F 2 "Housings_SSOP:TSSOP-8_3x3mm_Pitch0.65mm" H 6320 5900 50  0001 C CNN
F 3 "" H 6320 5900 50  0000 C CNN
F 4 "74LVC2G08DP" H 6320 5900 60  0001 C CNN "manf#"
	1    6320 5900
	1    0    0    -1  
$EndComp
$Comp
L Logic_74xgxx:74LVC2G08 U2
U 1 1 584894CF
P 3595 6000
F 0 "U2" H 3770 6100 50  0000 C CNN
F 1 "74LVC2G08DP" H 3970 5925 50  0000 C CNN
F 2 "Housings_SSOP:TSSOP-8_3x3mm_Pitch0.65mm" H 3595 6000 50  0001 C CNN
F 3 "" H 3595 6000 50  0000 C CNN
F 4 "74LVC2G08DP" H 3595 6000 60  0001 C CNN "manf#"
	1    3595 6000
	1    0    0    -1  
$EndComp
$Comp
L Raspberry_Shield-rescue:3V3_Raspberry-RESCUE-Raspberry_Shield #PWR095
U 1 1 584A1F22
P 1525 3400
AR Path="/584A1F22" Ref="#PWR095"  Part="1" 
AR Path="/57A1419D/584A1F22" Ref="#PWR095"  Part="1" 
F 0 "#PWR095" H 1525 3360 30  0001 C CNN
F 1 "3V3_Raspberry" H 1534 3538 30  0000 C CNN
F 2 "" H 1525 3400 60  0000 C CNN
F 3 "" H 1525 3400 60  0000 C CNN
	1    1525 3400
	1    0    0    -1  
$EndComp
$Comp
L Raspberry_Shield-rescue:3V3_Raspberry-RESCUE-Raspberry_Shield #PWR096
U 1 1 584A205B
P 2975 3400
AR Path="/584A205B" Ref="#PWR096"  Part="1" 
AR Path="/57A1419D/584A205B" Ref="#PWR096"  Part="1" 
F 0 "#PWR096" H 2975 3360 30  0001 C CNN
F 1 "3V3_Raspberry" H 2984 3538 30  0000 C CNN
F 2 "" H 2975 3400 60  0000 C CNN
F 3 "" H 2975 3400 60  0000 C CNN
	1    2975 3400
	1    0    0    -1  
$EndComp
$Comp
L Raspberry_Shield-rescue:3V3_Raspberry-RESCUE-Raspberry_Shield #PWR097
U 1 1 58481C20
P 4400 3400
AR Path="/58481C20" Ref="#PWR097"  Part="1" 
AR Path="/57A1419D/58481C20" Ref="#PWR097"  Part="1" 
F 0 "#PWR097" H 4400 3360 30  0001 C CNN
F 1 "3V3_Raspberry" H 4409 3538 30  0000 C CNN
F 2 "" H 4400 3400 60  0000 C CNN
F 3 "" H 4400 3400 60  0000 C CNN
	1    4400 3400
	1    0    0    -1  
$EndComp
$Comp
L Raspberry_Shield-rescue:3V3_Raspberry-RESCUE-Raspberry_Shield #PWR098
U 1 1 58485D41
P 5775 3400
AR Path="/58485D41" Ref="#PWR098"  Part="1" 
AR Path="/57A1419D/58485D41" Ref="#PWR098"  Part="1" 
F 0 "#PWR098" H 5775 3360 30  0001 C CNN
F 1 "3V3_Raspberry" H 5784 3538 30  0000 C CNN
F 2 "" H 5775 3400 60  0000 C CNN
F 3 "" H 5775 3400 60  0000 C CNN
	1    5775 3400
	1    0    0    -1  
$EndComp
$Comp
L Raspberry_Shield-rescue:GND-RESCUE-Raspberry_Shield-RESCUE-Raspberry_Shield #PWR099
U 1 1 58498C8A
P 3590 6205
F 0 "#PWR099" H 3590 5955 50  0001 C CNN
F 1 "GND" H 3590 6055 50  0000 C CNN
F 2 "" H 3590 6205 50  0000 C CNN
F 3 "" H 3590 6205 50  0000 C CNN
	1    3590 6205
	-1   0    0    -1  
$EndComp
$Comp
L Raspberry_Shield-rescue:GND-RESCUE-Raspberry_Shield-RESCUE-Raspberry_Shield #PWR0100
U 1 1 58498E6D
P 4970 6180
F 0 "#PWR0100" H 4970 5930 50  0001 C CNN
F 1 "GND" H 4970 6030 50  0000 C CNN
F 2 "" H 4970 6180 50  0000 C CNN
F 3 "" H 4970 6180 50  0000 C CNN
	1    4970 6180
	-1   0    0    -1  
$EndComp
$Comp
L Raspberry_Shield-rescue:GND-RESCUE-Raspberry_Shield-RESCUE-Raspberry_Shield #PWR0101
U 1 1 58499912
P 6320 6165
F 0 "#PWR0101" H 6320 5915 50  0001 C CNN
F 1 "GND" H 6320 6015 50  0000 C CNN
F 2 "" H 6320 6165 50  0000 C CNN
F 3 "" H 6320 6165 50  0000 C CNN
	1    6320 6165
	-1   0    0    -1  
$EndComp
$Comp
L Raspberry_Shield-rescue:GND-RESCUE-Raspberry_Shield-RESCUE-Raspberry_Shield #PWR0102
U 1 1 58499DB9
P 7600 6200
F 0 "#PWR0102" H 7600 5950 50  0001 C CNN
F 1 "GND" H 7600 6050 50  0000 C CNN
F 2 "" H 7600 6200 50  0000 C CNN
F 3 "" H 7600 6200 50  0000 C CNN
	1    7600 6200
	-1   0    0    -1  
$EndComp
$Comp
L Raspberry_Shield-rescue:3V3_Raspberry-RESCUE-Raspberry_Shield #PWR0103
U 1 1 5849BD14
P 3595 5780
AR Path="/5849BD14" Ref="#PWR0103"  Part="1" 
AR Path="/57A1419D/5849BD14" Ref="#PWR0103"  Part="1" 
F 0 "#PWR0103" H 3595 5740 30  0001 C CNN
F 1 "3V3_Raspberry" H 3604 5918 30  0000 C CNN
F 2 "" H 3595 5780 60  0000 C CNN
F 3 "" H 3595 5780 60  0000 C CNN
	1    3595 5780
	1    0    0    -1  
$EndComp
$Comp
L Raspberry_Shield-rescue:3V3_Raspberry-RESCUE-Raspberry_Shield #PWR0104
U 1 1 5849D650
P 4965 5740
AR Path="/5849D650" Ref="#PWR0104"  Part="1" 
AR Path="/57A1419D/5849D650" Ref="#PWR0104"  Part="1" 
F 0 "#PWR0104" H 4965 5700 30  0001 C CNN
F 1 "3V3_Raspberry" H 4974 5878 30  0000 C CNN
F 2 "" H 4965 5740 60  0000 C CNN
F 3 "" H 4965 5740 60  0000 C CNN
	1    4965 5740
	1    0    0    -1  
$EndComp
$Comp
L Raspberry_Shield-rescue:3V3_Raspberry-RESCUE-Raspberry_Shield #PWR0105
U 1 1 5849D70C
P 6320 5655
AR Path="/5849D70C" Ref="#PWR0105"  Part="1" 
AR Path="/57A1419D/5849D70C" Ref="#PWR0105"  Part="1" 
F 0 "#PWR0105" H 6320 5615 30  0001 C CNN
F 1 "3V3_Raspberry" H 6329 5793 30  0000 C CNN
F 2 "" H 6320 5655 60  0000 C CNN
F 3 "" H 6320 5655 60  0000 C CNN
	1    6320 5655
	1    0    0    -1  
$EndComp
$Comp
L Raspberry_Shield-rescue:3V3_Raspberry-RESCUE-Raspberry_Shield #PWR0106
U 1 1 5849D7C8
P 7600 5650
AR Path="/5849D7C8" Ref="#PWR0106"  Part="1" 
AR Path="/57A1419D/5849D7C8" Ref="#PWR0106"  Part="1" 
F 0 "#PWR0106" H 7600 5610 30  0001 C CNN
F 1 "3V3_Raspberry" H 7609 5788 30  0000 C CNN
F 2 "" H 7600 5650 60  0000 C CNN
F 3 "" H 7600 5650 60  0000 C CNN
	1    7600 5650
	1    0    0    -1  
$EndComp
$Comp
L Logic_74xgxx:74LVC2G08 U8
U 2 1 584A016F
P 7600 5850
F 0 "U8" H 7775 5950 50  0000 C CNN
F 1 "74LVC2G08DP" H 7975 5775 50  0000 C CNN
F 2 "Housings_SSOP:TSSOP-8_3x3mm_Pitch0.65mm" H 7600 5850 50  0001 C CNN
F 3 "" H 7600 5850 50  0000 C CNN
F 4 "74LVC2G08DP" H 7600 5850 60  0001 C CNN "manf#"
	2    7600 5850
	1    0    0    -1  
$EndComp
$Comp
L Logic_74xgxx:74LVC2G08 U2
U 2 1 584A0B00
P 4965 5950
F 0 "U2" H 5140 6050 50  0000 C CNN
F 1 "74LVC2G08DP" H 5340 5875 50  0000 C CNN
F 2 "Housings_SSOP:TSSOP-8_3x3mm_Pitch0.65mm" H 4965 5950 50  0001 C CNN
F 3 "" H 4965 5950 50  0000 C CNN
F 4 "74LVC2G08DP" H 4965 5950 60  0001 C CNN "manf#"
	2    4965 5950
	1    0    0    -1  
$EndComp
$Comp
L Raspberry_Shield-rescue:3V3_Raspberry-RESCUE-Raspberry_Shield #PWR0107
U 1 1 584B14F7
P 8975 4300
AR Path="/584B14F7" Ref="#PWR0107"  Part="1" 
AR Path="/57A1419D/584B14F7" Ref="#PWR0107"  Part="1" 
F 0 "#PWR0107" H 8975 4260 30  0001 C CNN
F 1 "3V3_Raspberry" H 8984 4438 30  0000 C CNN
F 2 "" H 8975 4300 60  0000 C CNN
F 3 "" H 8975 4300 60  0000 C CNN
	1    8975 4300
	1    0    0    -1  
$EndComp
$Comp
L Raspberry_Shield-rescue:3V3_Raspberry-RESCUE-Raspberry_Shield #PWR0108
U 1 1 584B15C2
P 7700 3950
AR Path="/584B15C2" Ref="#PWR0108"  Part="1" 
AR Path="/57A1419D/584B15C2" Ref="#PWR0108"  Part="1" 
F 0 "#PWR0108" H 7700 3910 30  0001 C CNN
F 1 "3V3_Raspberry" H 7709 4088 30  0000 C CNN
F 2 "" H 7700 3950 60  0000 C CNN
F 3 "" H 7700 3950 60  0000 C CNN
	1    7700 3950
	1    0    0    -1  
$EndComp
$Comp
L Raspberry_Shield-rescue:3V3_Raspberry-RESCUE-Raspberry_Shield #PWR0109
U 1 1 584B238A
P 7575 4700
AR Path="/584B238A" Ref="#PWR0109"  Part="1" 
AR Path="/57A1419D/584B238A" Ref="#PWR0109"  Part="1" 
F 0 "#PWR0109" H 7575 4660 30  0001 C CNN
F 1 "3V3_Raspberry" H 7584 4838 30  0000 C CNN
F 2 "" H 7575 4700 60  0000 C CNN
F 3 "" H 7575 4700 60  0000 C CNN
	1    7575 4700
	1    0    0    -1  
$EndComp
$Comp
L Raspberry_Shield-rescue:3V3_Raspberry-RESCUE-Raspberry_Shield #PWR0110
U 1 1 584B56A2
P 9350 5475
AR Path="/584B56A2" Ref="#PWR0110"  Part="1" 
AR Path="/57A1419D/584B56A2" Ref="#PWR0110"  Part="1" 
F 0 "#PWR0110" H 9350 5435 30  0001 C CNN
F 1 "3V3_Raspberry" H 9359 5613 30  0000 C CNN
F 2 "" H 9350 5475 60  0000 C CNN
F 3 "" H 9350 5475 60  0000 C CNN
	1    9350 5475
	1    0    0    -1  
$EndComp
$Comp
L Raspberry_Shield-rescue:GND-RESCUE-Raspberry_Shield-RESCUE-Raspberry_Shield #PWR0111
U 1 1 584BB40A
P 6550 5625
F 0 "#PWR0111" H 6550 5375 50  0001 C CNN
F 1 "GND" H 6550 5475 50  0000 C CNN
F 2 "" H 6550 5625 50  0000 C CNN
F 3 "" H 6550 5625 50  0000 C CNN
	1    6550 5625
	-1   0    0    -1  
$EndComp
$Comp
L device:R_Small R71
U 1 1 5848BC68
P 6725 5900
F 0 "R71" V 6625 5850 50  0000 L CNN
F 1 "2k" V 6800 5850 50  0000 L CNN
F 2 "IPC7351-Nominal:RESC1005X40" H 6725 5900 50  0001 C CNN
F 3 "" H 6725 5900 50  0000 C CNN
F 4 "RC1005F202CS" H 6725 5900 60  0001 C CNN "manf#"
	1    6725 5900
	0    1    -1   0   
$EndComp
$Comp
L Logic_74xgxx:74LVC1G123 U9
U 1 1 586A9D16
P 7100 4425
F 0 "U9" V 7050 4075 50  0000 C CNN
F 1 "74LVC1G123" V 6950 3975 50  0000 C CNN
F 2 "Housings_SSOP:TSSOP-8_3x3mm_Pitch0.65mm" H 7100 4425 50  0001 C CNN
F 3 "" H 7100 4425 50  0000 C CNN
F 4 "74lvc1g123DP" H 7100 4425 60  0001 C CNN "manf#"
	1    7100 4425
	0    1    1    0   
$EndComp
$Comp
L Raspberry_Shield-rescue:3V3_Raspberry-RESCUE-Raspberry_Shield #PWR0112
U 1 1 586AEA2E
P 6800 3950
AR Path="/586AEA2E" Ref="#PWR0112"  Part="1" 
AR Path="/57A1419D/586AEA2E" Ref="#PWR0112"  Part="1" 
F 0 "#PWR0112" H 6800 3910 30  0001 C CNN
F 1 "3V3_Raspberry" H 6809 4088 30  0000 C CNN
F 2 "" H 6800 3950 60  0000 C CNN
F 3 "" H 6800 3950 60  0000 C CNN
	1    6800 3950
	1    0    0    -1  
$EndComp
$Comp
L Raspberry_Shield-rescue:GND-RESCUE-Raspberry_Shield-RESCUE-Raspberry_Shield #PWR0113
U 1 1 586AEE6D
P 6800 4700
F 0 "#PWR0113" H 6800 4450 50  0001 C CNN
F 1 "GND" H 6805 4527 50  0000 C CNN
F 2 "" H 6800 4700 50  0000 C CNN
F 3 "" H 6800 4700 50  0000 C CNN
	1    6800 4700
	1    0    0    -1  
$EndComp
$Comp
L device:R_Small R1
U 1 1 586B1367
P 7700 4100
F 0 "R1" H 7759 4146 50  0000 L CNN
F 1 "100k" H 7759 4055 50  0000 L CNN
F 2 "IPC7351-Nominal:RESC1005X40" H 7700 4100 50  0001 C CNN
F 3 "" H 7700 4100 50  0000 C CNN
F 4 "RC1005F104CS" H 7700 4100 60  0001 C CNN "manf#"
	1    7700 4100
	1    0    0    -1  
$EndComp
$Comp
L device:C_Small C24
U 1 1 586B1915
P 7700 4375
F 0 "C24" H 7792 4421 50  0000 L CNN
F 1 "4.7µF 50V" H 7792 4330 50  0000 L CNN
F 2 "IPC7351-Nominal:RESC2012X60" H 7700 4375 50  0001 C CNN
F 3 "" H 7700 4375 50  0000 C CNN
F 4 "GRM21BR61H475KE51L" H 7700 4375 60  0001 C CNN "manf#"
	1    7700 4375
	1    0    0    -1  
$EndComp
$Comp
L Raspberry_Shield-rescue:GND-RESCUE-Raspberry_Shield-RESCUE-Raspberry_Shield #PWR0116
U 1 1 58B084C5
P 7450 3975
F 0 "#PWR0116" H 7450 3725 50  0001 C CNN
F 1 "GND" H 7455 3802 50  0000 C CNN
F 2 "" H 7450 3975 50  0000 C CNN
F 3 "" H 7450 3975 50  0000 C CNN
	1    7450 3975
	1    0    0    -1  
$EndComp
$Comp
L device:R_Small R19
U 1 1 58B1B954
P 9350 6025
F 0 "R19" H 9409 6071 50  0000 L CNN
F 1 "1M" H 9409 5980 50  0000 L CNN
F 2 "IPC7351-Nominal:RESC1005X40" H 9350 6025 50  0001 C CNN
F 3 "" H 9350 6025 50  0000 C CNN
F 4 "RC1005F105CS" H 9350 6025 60  0001 C CNN "manf#"
	1    9350 6025
	-1   0    0    -1  
$EndComp
$Comp
L device:R_Small R41
U 1 1 58D5AA8C
P 6475 3800
F 0 "R41" H 6534 3846 50  0000 L CNN
F 1 "10k" H 6534 3755 50  0000 L CNN
F 2 "IPC7351-Nominal:RESC1005X40" H 6475 3800 50  0001 C CNN
F 3 "" H 6475 3800 50  0000 C CNN
F 4 "RC1005F103CS" H 6475 3800 60  0001 C CNN "manf#"
	1    6475 3800
	-1   0    0    -1  
$EndComp
$Comp
L Raspberry_Shield-rescue:GND-RESCUE-Raspberry_Shield-RESCUE-Raspberry_Shield #PWR0117
U 1 1 58D5B303
P 6475 3975
F 0 "#PWR0117" H 6475 3725 50  0001 C CNN
F 1 "GND" H 6480 3802 50  0000 C CNN
F 2 "" H 6475 3975 50  0000 C CNN
F 3 "" H 6475 3975 50  0000 C CNN
	1    6475 3975
	1    0    0    -1  
$EndComp
$Comp
L device:C_Small C73
U 1 1 58D8FCDD
P 8050 5275
F 0 "C73" H 8142 5321 50  0000 L CNN
F 1 "75pF 50V" H 8142 5230 50  0000 L CNN
F 2 "IPC7351-Nominal:CAPC1005X60" H 8050 5275 50  0001 C CNN
F 3 "" H 8050 5275 50  0000 C CNN
F 4 "GRM1555C1H750JA01D" H 8050 5275 60  0001 C CNN "manf#"
	1    8050 5275
	-1   0    0    1   
$EndComp
$Comp
L Raspberry_Shield-rescue:GND-RESCUE-Raspberry_Shield-RESCUE-Raspberry_Shield #PWR0118
U 1 1 58D8FE42
P 8050 5500
F 0 "#PWR0118" H 8050 5250 50  0001 C CNN
F 1 "GND" H 8055 5327 50  0000 C CNN
F 2 "" H 8050 5500 50  0000 C CNN
F 3 "" H 8050 5500 50  0000 C CNN
	1    8050 5500
	1    0    0    -1  
$EndComp
Text Label 5550 4175 0    60   ~ 0
IL4
$Comp
L device:C_Small C77
U 1 1 5908DBF4
P 3100 6225
F 0 "C77" H 3125 6325 50  0000 L CNN
F 1 "22nF 50V" H 3125 6125 50  0000 L CNN
F 2 "Capacitors_SMD:C_0402" H 3138 6075 50  0001 C CNN
F 3 "" H 3100 6225 50  0000 C CNN
F 4 "490-6360-1-ND" H 3100 6225 60  0001 C CNN "digikey#"
F 5 "GRM155R71H223KA12J" H 3100 6225 60  0001 C CNN "manf#"
	1    3100 6225
	1    0    0    1   
$EndComp
$Comp
L Raspberry_Shield-rescue:GND-RESCUE-Raspberry_Shield-RESCUE-Raspberry_Shield #PWR0120
U 1 1 5909803E
P 3100 6355
F 0 "#PWR0120" H 3100 6105 50  0001 C CNN
F 1 "GND" H 3100 6205 50  0000 C CNN
F 2 "" H 3100 6355 50  0000 C CNN
F 3 "" H 3100 6355 50  0000 C CNN
	1    3100 6355
	-1   0    0    -1  
$EndComp
$Comp
L Raspberry_Shield-rescue:GND-RESCUE-Raspberry_Shield-RESCUE-Raspberry_Shield #PWR0121
U 1 1 59098D2D
P 3105 5650
F 0 "#PWR0121" H 3105 5400 50  0001 C CNN
F 1 "GND" H 3105 5500 50  0000 C CNN
F 2 "" H 3105 5650 50  0000 C CNN
F 3 "" H 3105 5650 50  0000 C CNN
	1    3105 5650
	1    0    0    1   
$EndComp
$Comp
L Raspberry_Shield-rescue:GND-RESCUE-Raspberry_Shield-RESCUE-Raspberry_Shield #PWR0122
U 1 1 59099956
P 4555 5595
F 0 "#PWR0122" H 4555 5345 50  0001 C CNN
F 1 "GND" H 4555 5445 50  0000 C CNN
F 2 "" H 4555 5595 50  0000 C CNN
F 3 "" H 4555 5595 50  0000 C CNN
	1    4555 5595
	1    0    0    1   
$EndComp
$Comp
L Raspberry_Shield-rescue:GND-RESCUE-Raspberry_Shield-RESCUE-Raspberry_Shield #PWR0123
U 1 1 5909A057
P 5925 5555
F 0 "#PWR0123" H 5925 5305 50  0001 C CNN
F 1 "GND" H 5925 5405 50  0000 C CNN
F 2 "" H 5925 5555 50  0000 C CNN
F 3 "" H 5925 5555 50  0000 C CNN
	1    5925 5555
	1    0    0    1   
$EndComp
$Comp
L device:C_Small C78
U 1 1 5909DD88
P 3105 5770
F 0 "C78" H 3130 5870 50  0000 L CNN
F 1 "22nF 50V" H 3130 5670 50  0000 L CNN
F 2 "Capacitors_SMD:C_0402" H 3143 5620 50  0001 C CNN
F 3 "" H 3105 5770 50  0000 C CNN
F 4 "490-6360-1-ND" H 3105 5770 60  0001 C CNN "digikey#"
F 5 "GRM155R71H223KA12J" H 3105 5770 60  0001 C CNN "manf#"
	1    3105 5770
	1    0    0    1   
$EndComp
$Comp
L device:C_Small C79
U 1 1 5909E03C
P 4555 5715
F 0 "C79" H 4580 5815 50  0000 L CNN
F 1 "22nF 50V" H 4580 5615 50  0000 L CNN
F 2 "Capacitors_SMD:C_0402" H 4593 5565 50  0001 C CNN
F 3 "" H 4555 5715 50  0000 C CNN
F 4 "490-6360-1-ND" H 4555 5715 60  0001 C CNN "digikey#"
F 5 "GRM155R71H223KA12J" H 4555 5715 60  0001 C CNN "manf#"
	1    4555 5715
	1    0    0    1   
$EndComp
$Comp
L device:C_Small C80
U 1 1 5909E8E7
P 5925 5680
F 0 "C80" H 5950 5780 50  0000 L CNN
F 1 "22nF 50V" H 5950 5580 50  0000 L CNN
F 2 "Capacitors_SMD:C_0402" H 5963 5530 50  0001 C CNN
F 3 "" H 5925 5680 50  0000 C CNN
F 4 "490-6360-1-ND" H 5925 5680 60  0001 C CNN "digikey#"
F 5 "GRM155R71H223KA12J" H 5925 5680 60  0001 C CNN "manf#"
	1    5925 5680
	1    0    0    1   
$EndComp
$Comp
L device:C_Small C81
U 1 1 590A4CB3
P 5825 6245
F 0 "C81" H 5850 6345 50  0000 L CNN
F 1 "22nF 50V" H 5850 6145 50  0000 L CNN
F 2 "Capacitors_SMD:C_0402" H 5863 6095 50  0001 C CNN
F 3 "" H 5825 6245 50  0000 C CNN
F 4 "490-6360-1-ND" H 5825 6245 60  0001 C CNN "digikey#"
F 5 "GRM155R71H223KA12J" H 5825 6245 60  0001 C CNN "manf#"
	1    5825 6245
	1    0    0    1   
$EndComp
$Comp
L Raspberry_Shield-rescue:GND-RESCUE-Raspberry_Shield-RESCUE-Raspberry_Shield #PWR0124
U 1 1 590A5C44
P 5825 6375
F 0 "#PWR0124" H 5825 6125 50  0001 C CNN
F 1 "GND" H 5825 6225 50  0000 C CNN
F 2 "" H 5825 6375 50  0000 C CNN
F 3 "" H 5825 6375 50  0000 C CNN
	1    5825 6375
	-1   0    0    -1  
$EndComp
$Comp
L device:C_Small C82
U 1 1 590A94C5
P 7220 6065
F 0 "C82" H 7245 6165 50  0000 L CNN
F 1 "75pF" H 7245 5965 50  0000 L CNN
F 2 "Capacitors_SMD:C_0402" H 7258 5915 50  0001 C CNN
F 3 "" H 7220 6065 50  0000 C CNN
F 4 "GRM1555C1H750JA01D" H 7220 6065 60  0001 C CNN "manf#"
	1    7220 6065
	1    0    0    1   
$EndComp
$Comp
L Raspberry_Shield-rescue:GND-RESCUE-Raspberry_Shield-RESCUE-Raspberry_Shield #PWR0125
U 1 1 590A99CE
P 7220 6200
F 0 "#PWR0125" H 7220 5950 50  0001 C CNN
F 1 "GND" H 7220 6050 50  0000 C CNN
F 2 "" H 7220 6200 50  0000 C CNN
F 3 "" H 7220 6200 50  0000 C CNN
	1    7220 6200
	-1   0    0    -1  
$EndComp
$Comp
L device:C_Small C83
U 1 1 590AC269
P 7225 5630
F 0 "C83" H 7250 5730 50  0000 L CNN
F 1 "22nF 50V" H 7250 5530 50  0000 L CNN
F 2 "Capacitors_SMD:C_0402" H 7263 5480 50  0001 C CNN
F 3 "" H 7225 5630 50  0000 C CNN
F 4 "490-6360-1-ND" H 7225 5630 60  0001 C CNN "digikey#"
F 5 "GRM155R71H223KA12J" H 7225 5630 60  0001 C CNN "manf#"
	1    7225 5630
	1    0    0    1   
$EndComp
$Comp
L Raspberry_Shield-rescue:GND-RESCUE-Raspberry_Shield-RESCUE-Raspberry_Shield #PWR0126
U 1 1 590AC357
P 7225 5460
F 0 "#PWR0126" H 7225 5210 50  0001 C CNN
F 1 "GND" H 7225 5310 50  0000 C CNN
F 2 "" H 7225 5460 50  0000 C CNN
F 3 "" H 7225 5460 50  0000 C CNN
	1    7225 5460
	1    0    0    1   
$EndComp
Wire Wire Line
	8300 5125 8450 5125
Wire Wire Line
	8300 5225 8435 5225
Wire Wire Line
	8675 5775 8675 5850
Wire Wire Line
	8450 5125 8450 4950
Connection ~ 8450 5125
Wire Wire Line
	8800 4675 8800 4700
Wire Wire Line
	8450 4750 8450 4700
Wire Wire Line
	8450 4700 8800 4700
Connection ~ 8800 4700
Wire Wire Line
	9150 4425 9150 5075
Wire Wire Line
	8800 4425 8975 4425
Wire Wire Line
	8800 4425 8800 4475
Wire Wire Line
	8975 4425 8975 4300
Connection ~ 8975 4425
Wire Wire Line
	9150 5275 9150 5850
Wire Wire Line
	9150 5850 8675 5850
Connection ~ 8675 5850
Wire Wire Line
	9400 5175 9675 5175
Wire Wire Line
	9350 5575 9350 5475
Wire Wire Line
	9675 5275 9625 5275
Wire Wire Line
	9625 5275 9625 5850
Wire Wire Line
	9625 5850 9350 5850
Wire Wire Line
	9350 5775 9350 5850
Connection ~ 9625 5850
Wire Wire Line
	9625 6125 9625 6175
Wire Wire Line
	10225 5225 10445 5225
Wire Wire Line
	1525 3875 1525 4175
Connection ~ 1225 4175
Wire Wire Line
	700  3875 1225 3875
Wire Wire Line
	950  4175 1225 4175
Connection ~ 2975 4175
Connection ~ 2675 4175
Wire Wire Line
	2150 3875 2675 3875
Wire Wire Line
	2400 4175 2675 4175
Wire Wire Line
	4400 3875 4400 4175
Connection ~ 4400 4175
Connection ~ 4125 4175
Wire Wire Line
	3600 3875 4125 3875
Wire Wire Line
	3850 4175 4125 4175
Wire Wire Line
	5775 3875 5775 4175
Connection ~ 5775 4175
Connection ~ 5500 4175
Wire Wire Line
	5000 3875 5500 3875
Wire Wire Line
	5250 4175 5500 4175
Wire Wire Line
	7000 6025 7000 5900
Connection ~ 7000 5900
Wire Wire Line
	4125 4125 4125 4175
Wire Wire Line
	5500 4150 5500 4175
Wire Wire Line
	2675 4125 2675 4175
Wire Wire Line
	2675 4450 2675 4425
Wire Wire Line
	5500 4450 5500 4425
Wire Wire Line
	4125 4450 4125 4425
Wire Wire Line
	6725 3225 6725 3450
Wire Wire Line
	6725 3450 7100 3450
Wire Wire Line
	7475 3450 7475 3225
Wire Wire Line
	7100 3225 7100 3450
Connection ~ 7100 3450
Wire Wire Line
	6725 2925 6725 2800
Wire Wire Line
	7100 2925 7100 2800
Wire Wire Line
	7475 2925 7475 2800
Wire Wire Line
	8300 4700 8300 5100
Wire Wire Line
	950  4175 950  4650
Wire Wire Line
	2400 4175 2400 4650
Wire Wire Line
	1225 4125 1225 4175
Wire Wire Line
	1225 4425 1225 4450
Wire Wire Line
	3850 4175 3850 4650
Wire Wire Line
	5250 4175 5250 4650
Wire Wire Line
	5500 4850 5500 4900
Wire Wire Line
	4125 4850 4125 4900
Wire Wire Line
	2675 4850 2675 4900
Wire Wire Line
	1225 4850 1225 4900
Wire Wire Line
	950  4900 1225 4900
Wire Wire Line
	950  4850 950  4900
Connection ~ 1225 4900
Wire Wire Line
	2400 4900 2675 4900
Wire Wire Line
	2400 4850 2400 4900
Connection ~ 2675 4900
Wire Wire Line
	3850 4900 4125 4900
Wire Wire Line
	3850 4850 3850 4900
Connection ~ 4125 4900
Wire Wire Line
	5250 4900 5500 4900
Wire Wire Line
	5250 4850 5250 4900
Connection ~ 5500 4900
Wire Wire Line
	1525 3400 1525 3575
Wire Wire Line
	2975 3400 2975 3575
Wire Wire Line
	4400 3575 4400 3400
Wire Wire Line
	5500 3825 5500 3875
Wire Wire Line
	4125 3825 4125 3875
Wire Wire Line
	2675 3825 2675 3875
Wire Wire Line
	1225 3825 1225 3875
Connection ~ 1225 3875
Wire Wire Line
	700  4275 700  4950
Wire Wire Line
	700  3875 700  4075
Connection ~ 1525 4175
Wire Wire Line
	2975 3875 2975 4175
Connection ~ 2675 3875
Wire Wire Line
	2150 4950 2150 4275
Wire Wire Line
	2150 4075 2150 3875
Connection ~ 4125 3875
Wire Wire Line
	3600 3875 3600 4075
Wire Wire Line
	3600 4275 3600 4950
Wire Wire Line
	5000 3875 5000 4075
Wire Wire Line
	5000 4275 5000 4950
Connection ~ 5500 3875
Wire Wire Line
	5775 3575 5775 3400
Wire Wire Line
	1525 6050 3100 6050
Wire Wire Line
	2975 5950 3105 5950
Wire Wire Line
	4400 5900 4555 5900
Wire Wire Line
	4665 6000 3845 6000
Wire Wire Line
	5775 5850 5925 5850
Wire Wire Line
	5215 5950 5825 5950
Wire Wire Line
	3590 6205 3595 6100
Wire Wire Line
	4965 6050 4970 6180
Wire Wire Line
	6320 6000 6320 6165
Wire Wire Line
	7600 5950 7600 6200
Wire Wire Line
	3595 5780 3595 5900
Wire Wire Line
	4965 5740 4965 5850
Wire Wire Line
	6320 5655 6320 5800
Wire Wire Line
	7600 5650 7600 5750
Wire Wire Line
	8300 5850 7850 5850
Wire Wire Line
	8300 5225 8300 5850
Wire Wire Line
	7000 5150 7000 5800
Wire Wire Line
	6850 5800 7000 5800
Wire Wire Line
	8675 5575 8675 5225
Connection ~ 8675 5225
Wire Wire Line
	6475 3625 7100 3625
Connection ~ 7100 3625
Wire Wire Line
	6550 5500 6550 5625
Wire Wire Line
	6850 5450 6850 5050
Wire Wire Line
	6850 5050 6550 5050
Wire Wire Line
	6550 5050 6550 5100
Wire Wire Line
	6850 5650 6850 5800
Connection ~ 7000 5800
Wire Wire Line
	6625 5900 6570 5900
Wire Wire Line
	6825 5900 7000 5900
Wire Wire Line
	7200 3875 7200 4125
Wire Wire Line
	7300 4625 7300 4800
Wire Wire Line
	7300 4800 7575 4800
Wire Wire Line
	7575 4800 7575 4700
Wire Wire Line
	6950 4125 6950 4000
Wire Wire Line
	6950 4000 6800 4000
Wire Wire Line
	6800 4000 6800 3950
Wire Wire Line
	6900 4625 6800 4625
Wire Wire Line
	6800 4625 6800 4700
Wire Wire Line
	7550 4375 7400 4375
Wire Wire Line
	7700 4475 7700 4525
Wire Wire Line
	7700 4525 7550 4525
Wire Wire Line
	7550 4525 7550 4475
Wire Wire Line
	7550 4475 7400 4475
Wire Wire Line
	7700 4200 7700 4250
Wire Wire Line
	7550 4250 7700 4250
Wire Wire Line
	7200 4725 7200 4950
Wire Wire Line
	7200 5150 7000 5150
Wire Wire Line
	7200 4950 7300 4950
Connection ~ 7200 4950
Connection ~ 7700 4250
Wire Wire Line
	7700 3950 7700 4000
Wire Wire Line
	7550 4375 7550 4250
Wire Wire Line
	7200 3875 7450 3875
Wire Wire Line
	7450 3875 7450 3975
Wire Wire Line
	9625 6175 9350 6175
Wire Wire Line
	9350 6175 9350 6125
Connection ~ 9625 6175
Connection ~ 9350 5850
Wire Wire Line
	6475 3975 6475 3900
Wire Wire Line
	6475 3625 6475 3700
Wire Wire Line
	8300 4500 8300 4425
Wire Wire Line
	8050 5100 8050 5175
Wire Wire Line
	8050 5100 8300 5100
Connection ~ 8300 5100
Wire Wire Line
	8050 5500 8050 5375
Wire Wire Line
	3105 5870 3105 5950
Connection ~ 3105 5950
Wire Wire Line
	3100 6125 3100 6050
Connection ~ 3100 6050
Wire Wire Line
	4555 5815 4555 5900
Connection ~ 4555 5900
Wire Wire Line
	5925 5780 5925 5850
Connection ~ 5925 5850
Wire Wire Line
	5925 5580 5925 5555
Wire Wire Line
	4555 5615 4555 5595
Wire Wire Line
	3105 5670 3105 5650
Wire Wire Line
	3100 6325 3100 6355
Wire Wire Line
	5825 6145 5825 5950
Connection ~ 5825 5950
Wire Wire Line
	5825 6345 5825 6375
Wire Wire Line
	7220 5965 7220 5900
Connection ~ 7220 5900
Wire Wire Line
	7220 6165 7220 6200
Wire Wire Line
	7225 5730 7225 5800
Connection ~ 7225 5800
$Comp
L device:C_Small C84
U 1 1 590AFBB2
P 8435 5680
F 0 "C84" H 8460 5780 50  0000 L CNN
F 1 "22nF 50V" H 8460 5580 50  0000 L CNN
F 2 "Capacitors_SMD:C_0402" H 8473 5530 50  0001 C CNN
F 3 "" H 8435 5680 50  0000 C CNN
F 4 "490-6360-1-ND" H 8435 5680 60  0001 C CNN "digikey#"
F 5 "GRM155R71H223KA12J" H 8435 5680 60  0001 C CNN "manf#"
	1    8435 5680
	1    0    0    1   
$EndComp
Wire Wire Line
	8435 5580 8435 5225
Connection ~ 8435 5225
$Comp
L Raspberry_Shield-rescue:GND-RESCUE-Raspberry_Shield-RESCUE-Raspberry_Shield #PWR0127
U 1 1 590B008D
P 8435 5840
F 0 "#PWR0127" H 8435 5590 50  0001 C CNN
F 1 "GND" H 8440 5667 50  0000 C CNN
F 2 "" H 8435 5840 50  0000 C CNN
F 3 "" H 8435 5840 50  0000 C CNN
	1    8435 5840
	1    0    0    -1  
$EndComp
Wire Wire Line
	8435 5780 8435 5840
$Comp
L device:R_Small R44
U 1 1 590B3B61
P 8300 4600
F 0 "R44" H 8359 4646 50  0000 L CNN
F 1 "51" H 8359 4555 50  0000 L CNN
F 2 "Resistors_SMD:R_0402" H 8300 4600 50  0001 C CNN
F 3 "" H 8300 4600 50  0000 C CNN
F 4 "311-51JRCT-ND" H 8300 4600 60  0001 C CNN "digikey#"
F 5 "RC0402JR-0751RL" H 8300 4600 60  0001 C CNN "manf#"
	1    8300 4600
	1    0    0    -1  
$EndComp
Wire Wire Line
	7225 5530 7225 5460
$Comp
L device:C_Small C85
U 1 1 590C11F2
P 10750 4420
F 0 "C85" H 10842 4466 50  0000 L CNN
F 1 "empty" H 10842 4375 50  0000 L CNN
F 2 "Capacitors_SMD:C_0402" H 10750 4420 50  0001 C CNN
F 3 "" H 10750 4420 50  0000 C CNN
F 4 "empty" H 10750 4420 60  0001 C CNN "manf#"
	1    10750 4420
	1    0    0    -1  
$EndComp
$Comp
L Raspberry_Shield-rescue:GND-RESCUE-Raspberry_Shield-RESCUE-Raspberry_Shield #PWR0128
U 1 1 590C260D
P 10750 4555
F 0 "#PWR0128" H 10750 4305 50  0001 C CNN
F 1 "GND" H 10755 4382 50  0000 C CNN
F 2 "" H 10750 4555 50  0000 C CNN
F 3 "" H 10750 4555 50  0000 C CNN
	1    10750 4555
	1    0    0    -1  
$EndComp
$Comp
L device:R_Small R45
U 1 1 5911F4EE
P 10380 3905
F 0 "R45" V 10460 3905 50  0000 C CNN
F 1 "2k" V 10305 3905 50  0000 C CNN
F 2 "Resistors_SMD:R_0402" V 10310 3905 50  0001 C CNN
F 3 "" H 10380 3905 50  0000 C CNN
F 4 "RC1005F202CS" H 10380 3905 60  0001 C CNN "manf#"
	1    10380 3905
	1    0    0    -1  
$EndComp
Wire Wire Line
	10380 3705 10380 3805
Wire Wire Line
	10380 4005 10380 4205
$Comp
L power:+5V #PWR0131
U 1 1 5911F511
P 10380 3705
F 0 "#PWR0131" H 10380 3555 50  0001 C CNN
F 1 "+5V" H 10395 3878 50  0000 C CNN
F 2 "" H 10380 3705 50  0000 C CNN
F 3 "" H 10380 3705 50  0000 C CNN
	1    10380 3705
	1    0    0    -1  
$EndComp
Wire Wire Line
	10750 4205 10755 4205
Wire Wire Line
	10445 5225 10445 4780
Wire Wire Line
	10445 4780 9620 4780
Wire Wire Line
	10750 4555 10750 4520
Wire Wire Line
	10755 4065 10755 4205
Connection ~ 10755 4205
Wire Wire Line
	10750 4320 10750 4205
Wire Wire Line
	10755 4205 10670 4205
Wire Wire Line
	8450 5125 8850 5125
Wire Wire Line
	8800 4700 8800 4850
Wire Wire Line
	8975 4425 9150 4425
Wire Wire Line
	8675 5850 8675 6225
Wire Wire Line
	9625 5850 9625 5925
Wire Wire Line
	1225 4175 1525 4175
Wire Wire Line
	1225 4175 1225 4225
Wire Wire Line
	2975 4175 3050 4175
Wire Wire Line
	2975 4175 2975 5950
Wire Wire Line
	2675 4175 2975 4175
Wire Wire Line
	2675 4175 2675 4225
Wire Wire Line
	4400 4175 4400 5900
Wire Wire Line
	4400 4175 4475 4175
Wire Wire Line
	4125 4175 4400 4175
Wire Wire Line
	4125 4175 4125 4225
Wire Wire Line
	5775 4175 5775 5850
Wire Wire Line
	5775 4175 5875 4175
Wire Wire Line
	5500 4175 5775 4175
Wire Wire Line
	5500 4175 5500 4225
Wire Wire Line
	7000 5900 7220 5900
Wire Wire Line
	7100 3450 7475 3450
Wire Wire Line
	7100 3450 7100 3625
Wire Wire Line
	1225 4900 1225 4950
Wire Wire Line
	2675 4900 2675 4950
Wire Wire Line
	4125 4900 4125 4950
Wire Wire Line
	5500 4900 5500 4950
Wire Wire Line
	1225 3875 1225 3925
Wire Wire Line
	1525 4175 1525 6050
Wire Wire Line
	1525 4175 1600 4175
Wire Wire Line
	2675 3875 2675 3925
Wire Wire Line
	4125 3875 4125 3925
Wire Wire Line
	5500 3875 5500 3950
Wire Wire Line
	8675 5225 8850 5225
Wire Wire Line
	7100 3625 7450 3625
Wire Wire Line
	7100 3625 7100 4125
Wire Wire Line
	7000 5800 7225 5800
Wire Wire Line
	7200 4950 7200 5150
Wire Wire Line
	7700 4250 7700 4275
Wire Wire Line
	9625 6175 9625 6225
Wire Wire Line
	9350 5850 9350 5925
Wire Wire Line
	8300 5100 8300 5125
Wire Wire Line
	3105 5950 3295 5950
Wire Wire Line
	3100 6050 3295 6050
Wire Wire Line
	4555 5900 4665 5900
Wire Wire Line
	5925 5850 6020 5850
Wire Wire Line
	5825 5950 6020 5950
Wire Wire Line
	7220 5900 7300 5900
Wire Wire Line
	7225 5800 7300 5800
Wire Wire Line
	8435 5225 8675 5225
Wire Wire Line
	10380 4205 10470 4205
Wire Wire Line
	10755 4205 10845 4205
Wire Wire Line
	9755 3755 9755 3880
Wire Wire Line
	9755 4205 9905 4205
Connection ~ 10380 4205
Wire Wire Line
	10305 4205 10380 4205
Wire Wire Line
	9620 4780 9620 4205
Wire Wire Line
	10055 3755 10055 3905
Wire Wire Line
	9755 3755 10055 3755
Wire Wire Line
	9755 4080 9755 4205
$Comp
L Raspberry_Shield-rescue:BSS138-RESCUE-Raspberry_Shield Q6
U 1 1 5911F501
P 10105 4105
F 0 "Q6" H 10296 4151 50  0000 L CNN
F 1 "BSS138" H 10296 4060 50  0000 L CNN
F 2 "TO_SOT_Packages_SMD:SOT-23" H 10305 4030 50  0001 L CIN
F 3 "" H 10105 4105 50  0000 L CNN
F 4 "BSS138CT-ND" H 10105 4105 60  0001 C CNN "manf#"
	1    10105 4105
	0    1    1    0   
$EndComp
Connection ~ 9755 3755
Wire Wire Line
	9755 3705 9755 3755
$Comp
L device:R_Small R38
U 1 1 5911F4F6
P 9755 3980
F 0 "R38" V 9835 3980 50  0000 C CNN
F 1 "10k" V 9680 3980 50  0000 C CNN
F 2 "Resistors_SMD:R_0402" V 9685 3980 50  0001 C CNN
F 3 "" H 9755 3980 50  0000 C CNN
F 4 "RC1005F103CS" H 9755 3980 60  0001 C CNN "manf#"
	1    9755 3980
	1    0    0    -1  
$EndComp
$Comp
L Raspberry_Shield-rescue:3V3_Raspberry-RESCUE-Raspberry_Shield #PWR0130
U 1 1 5911F4E7
P 9755 3705
AR Path="/5911F4E7" Ref="#PWR0130"  Part="1" 
AR Path="/57A1419D/5911F4E7" Ref="#PWR0130"  Part="1" 
F 0 "#PWR0130" H 9755 3665 30  0001 C CNN
F 1 "3V3_Raspberry" H 9755 3825 30  0000 C CNN
F 2 "" H 9755 3705 60  0000 C CNN
F 3 "" H 9755 3705 60  0000 C CNN
	1    9755 3705
	1    0    0    -1  
$EndComp
Connection ~ 9755 4205
Wire Wire Line
	9620 4205 9755 4205
Text Notes 9965 4370 0    60   ~ 0
Bullshit
$EndSCHEMATC
