(export (version D)
  (design
    (source /home/teja/workspace/laser4diy-safety-electronics/PCB/Raspberry_Shield.sch)
    (date "Mon 18 Jun 2018 06:07:52 PM CEST")
    (tool "Eeschema no-vcs-found")
    (sheet (number 1) (name /) (tstamps /)
      (title_block
        (title "Laser4DIY Raspberry Pi Shield")
        (company)
        (rev 01)
        (date 2017-12-22)
        (source Raspberry_Shield.sch)
        (comment (number 1) (value ""))
        (comment (number 2) (value ""))
        (comment (number 3) (value ""))
        (comment (number 4) (value ""))))
    (sheet (number 2) (name /Power_Supply+Safety/) (tstamps /579F3726/)
      (title_block
        (title "Laser4DIY Raspberry Pi Shield")
        (company)
        (rev 01)
        (date 2017-12-22)
        (source Power_Supply+Safety.sch)
        (comment (number 1) (value ""))
        (comment (number 2) (value ""))
        (comment (number 3) (value ""))
        (comment (number 4) (value ""))))
    (sheet (number 3) (name "/Interlock circuit/") (tstamps /57A1419D/)
      (title_block
        (title "Laser4DIY Raspberry Pi Shield")
        (company)
        (rev 01)
        (date 2017-12-22)
        (source Interlock_circuit.sch)
        (comment (number 1) (value ""))
        (comment (number 2) (value ""))
        (comment (number 3) (value ""))
        (comment (number 4) (value ""))))
    (sheet (number 4) (name /Rasperry-Connector/) (tstamps /57A1A8FF/)
      (title_block
        (title "Laser4DIY Raspberry Pi Shield")
        (company)
        (rev 01)
        (date 2017-12-22)
        (source Raspberry-Connector.sch)
        (comment (number 1) (value ""))
        (comment (number 2) (value ""))
        (comment (number 3) (value ""))
        (comment (number 4) (value ""))))
    (sheet (number 5) (name /i2c-expander/) (tstamps /5806772C/)
      (title_block
        (title "Laser4DIY Raspberry Pi Shield")
        (company)
        (rev 01)
        (date 2017-12-22)
        (source i2c-expander.sch)
        (comment (number 1) (value ""))
        (comment (number 2) (value ""))
        (comment (number 3) (value ""))
        (comment (number 4) (value "")))))
  (components
    (comp (ref D1)
      (value LED)
      (footprint LEDs:LED_0805)
      (datasheet http://www.osram-os.com/Graphics/XPic9/00078860_0.pdf)
      (fields
        (field (name manf#) "LG R971-KN-1")
        (field (name Characteristics) "LED CHIPLED 570NM GREEN")
        (field (name Description) "Power On Green LED")
        (field (name MFN) "OSRAM Opto")
        (field (name MFP) "LG R971-KN-1")
        (field (name "Package ID") SMD_0805)
        (field (name Source) ANY)
        (field (name Critical) N)
        (field (name Subsystem) Voltage_Reg))
      (libsource (lib Raspberry_Shield-rescue) (part LED-RESCUE-Raspberry_Shield))
      (sheetpath (names /Power_Supply+Safety/) (tstamps /579F3726/))
      (tstamp 57A08DD7))
    (comp (ref C16)
      (value "10µF 35V")
      (footprint IPC7351-Nominal:RESC2012X60)
      (fields
        (field (name manf#) GRM21BR6YA106KE43L))
      (libsource (lib device) (part C_Small))
      (sheetpath (names /Power_Supply+Safety/) (tstamps /579F3726/))
      (tstamp 579FCB1E))
    (comp (ref C17)
      (value "0.1µF 50V")
      (footprint IPC7351-Nominal:CAPC1005X60)
      (fields
        (field (name manf#) GRM155R61H104ME14D))
      (libsource (lib device) (part C_Small))
      (sheetpath (names /Power_Supply+Safety/) (tstamps /579F3726/))
      (tstamp 579FD168))
    (comp (ref R32)
      (value 100k)
      (footprint IPC7351-Nominal:RESC1005X40)
      (fields
        (field (name manf#) RC1005F104CS))
      (libsource (lib device) (part R_Small))
      (sheetpath (names /Power_Supply+Safety/) (tstamps /579F3726/))
      (tstamp 579FDF94))
    (comp (ref R33)
      (value 13K)
      (footprint IPC7351-Nominal:RESC1005X40)
      (fields
        (field (name manf#) RC1005F133CS)
        (field (name "#digikey") 1276-4125-1-ND))
      (libsource (lib device) (part R_Small))
      (sheetpath (names /Power_Supply+Safety/) (tstamps /579F3726/))
      (tstamp 579FE16F))
    (comp (ref D4)
      (value LED)
      (footprint LEDs:LED_0805)
      (datasheet http://www.osram-os.com/Graphics/XPic9/00078860_0.pdf)
      (fields
        (field (name manf#) "LG R971-KN-1")
        (field (name Characteristics) "LED CHIPLED 570NM GREEN")
        (field (name Description) "Power On Green LED")
        (field (name MFN) "OSRAM Opto")
        (field (name MFP) "LG R971-KN-1")
        (field (name "Package ID") SMD_0805)
        (field (name Source) ANY)
        (field (name Critical) N)
        (field (name Subsystem) Voltage_Reg))
      (libsource (lib Raspberry_Shield-rescue) (part LED-RESCUE-Raspberry_Shield))
      (sheetpath (names /Power_Supply+Safety/) (tstamps /579F3726/))
      (tstamp 57A3C149))
    (comp (ref Q5)
      (value PMV250EPEAR)
      (footprint TO_SOT_Packages_SMD:SOT-23)
      (fields
        (field (name manf#) PMV250EPEAR))
      (libsource (lib device) (part Q_PMOS_GSD))
      (sheetpath (names /Power_Supply+Safety/) (tstamps /579F3726/))
      (tstamp 57A912B1))
    (comp (ref Q4)
      (value DMMT5401-7-F)
      (footprint smd-semi:SOT-23-6)
      (fields
        (field (name manf#) DMMT5401-7-F))
      (libsource (lib Raspberry_Shield-rescue) (part DMMT5401-7-F-RESCUE-Raspberry_Shield))
      (sheetpath (names /Power_Supply+Safety/) (tstamps /579F3726/))
      (tstamp 57A93ADB))
    (comp (ref U7)
      (value TPS54302)
      (footprint smd-semi:SOT-23-6)
      (fields
        (field (name manf#) TPS54302DDCT)
        (field (name digikey#) 296-44542-1-ND))
      (libsource (lib Raspberry_Shield-rescue) (part TPS54302-RESCUE-Raspberry_Shield))
      (sheetpath (names /Power_Supply+Safety/) (tstamps /579F3726/))
      (tstamp 57A9CC64))
    (comp (ref R46)
      (value 499)
      (footprint IPC7351-Nominal:RESC1005X40)
      (fields
        (field (name manf#) RC1005F4990CS))
      (libsource (lib device) (part R_Small))
      (sheetpath (names /Power_Supply+Safety/) (tstamps /579F3726/))
      (tstamp 57ACB76A))
    (comp (ref R47)
      (value 1.2k)
      (footprint IPC7351-Nominal:RESC1005X40)
      (fields
        (field (name manf#) RC1005J122CS))
      (libsource (lib device) (part R_Small))
      (sheetpath (names /Power_Supply+Safety/) (tstamps /579F3726/))
      (tstamp 57ACBE11))
    (comp (ref R31)
      (value 47k)
      (footprint IPC7351-Nominal:RESC1005X40)
      (fields
        (field (name manf#) ERJ-2RKF4702X))
      (libsource (lib device) (part R_Small))
      (sheetpath (names /Power_Supply+Safety/) (tstamps /579F3726/))
      (tstamp 57ACCA24))
    (comp (ref R3)
      (value 10k)
      (footprint IPC7351-Nominal:RESC1005X40)
      (fields
        (field (name manf#) RC1005F103CS))
      (libsource (lib device) (part R_Small))
      (sheetpath (names /Power_Supply+Safety/) (tstamps /579F3726/))
      (tstamp 57ACCD51))
    (comp (ref C5)
      (value "0.1µF 50V")
      (footprint IPC7351-Nominal:CAPC1005X60)
      (fields
        (field (name manf#) GRM155R61H104ME14D))
      (libsource (lib device) (part C_Small))
      (sheetpath (names /Power_Supply+Safety/) (tstamps /579F3726/))
      (tstamp 57C4565E))
    (comp (ref C6)
      (value "75pF 50V")
      (footprint IPC7351-Nominal:CAPC1005X60)
      (fields
        (field (name manf#) GRM1555C1H750JA01D))
      (libsource (lib device) (part C_Small))
      (sheetpath (names /Power_Supply+Safety/) (tstamps /579F3726/))
      (tstamp 57C45DE8))
    (comp (ref U3)
      (value RT8292B)
      (footprint Housings_SOIC:SOIC-8-1EP_3.9x4.9mm_Pitch1.27mm)
      (fields
        (field (name manf#) RT8292BHGSP)
        (field (name digikey#) 1028-1049-1-ND))
      (libsource (lib Raspberry_Shield-rescue) (part RT8292B-RESCUE-Raspberry_Shield))
      (sheetpath (names /Power_Supply+Safety/) (tstamps /579F3726/))
      (tstamp 57D6C904))
    (comp (ref C23)
      (value "0.1µF 50V")
      (footprint IPC7351-Nominal:CAPC1005X60)
      (fields
        (field (name manf#) GRM155R61H104ME14D))
      (libsource (lib device) (part C_Small))
      (sheetpath (names /Power_Supply+Safety/) (tstamps /579F3726/))
      (tstamp 57D6CB8D))
    (comp (ref C18)
      (value "10µF 35V")
      (footprint IPC7351-Nominal:RESC2012X60)
      (fields
        (field (name manf#) GRM21BR6YA106KE43L))
      (libsource (lib device) (part C_Small))
      (sheetpath (names /Power_Supply+Safety/) (tstamps /579F3726/))
      (tstamp 57D6CC4C))
    (comp (ref C22)
      (value "0.1µF 50V")
      (footprint IPC7351-Nominal:CAPC1005X60)
      (fields
        (field (name manf#) GRM155R61H104ME14D))
      (libsource (lib device) (part C_Small))
      (sheetpath (names /Power_Supply+Safety/) (tstamps /579F3726/))
      (tstamp 57D6CD50))
    (comp (ref C35)
      (value "22µF 25V")
      (footprint Capacitors_SMD:C_1210)
      (fields
        (field (name digikey#) 1276-3392-1-ND)
        (field (name manf#) CL32B226KAJNNNE))
      (libsource (lib device) (part C_Small))
      (sheetpath (names /Power_Supply+Safety/) (tstamps /579F3726/))
      (tstamp 57D6CE9B))
    (comp (ref L2)
      (value 10µH)
      (footprint inductors_[JS]:SRN1060)
      (fields
        (field (name digikey#) SRU1048A-100YCT-ND)
        (field (name manf#) SRU1048A-100Y))
      (libsource (lib device) (part L_Small))
      (sheetpath (names /Power_Supply+Safety/) (tstamps /579F3726/))
      (tstamp 57D6F076))
    (comp (ref C34)
      (value "0.82nF 50V")
      (footprint IPC7351-Nominal:CAPC1005X60)
      (fields
        (field (name manf#) GRM155R71H821KA01D))
      (libsource (lib device) (part C_Small))
      (sheetpath (names /Power_Supply+Safety/) (tstamps /579F3726/))
      (tstamp 57D6FAF4))
    (comp (ref R67)
      (value 6k2)
      (footprint IPC7351-Nominal:RESC1005X40)
      (fields
        (field (name manf#) RC0402FR-076K2L))
      (libsource (lib device) (part R_Small))
      (sheetpath (names /Power_Supply+Safety/) (tstamps /579F3726/))
      (tstamp 57D703FE))
    (comp (ref R65)
      (value 100k)
      (footprint IPC7351-Nominal:RESC1005X40)
      (fields
        (field (name manf#) RC1005F104CS))
      (libsource (lib device) (part R_Small))
      (sheetpath (names /Power_Supply+Safety/) (tstamps /579F3726/))
      (tstamp 57D72ACF))
    (comp (ref R4)
      (value 100k)
      (footprint IPC7351-Nominal:RESC1005X40)
      (fields
        (field (name manf#) RC1005F104CS))
      (libsource (lib device) (part R_Small))
      (sheetpath (names /Power_Supply+Safety/) (tstamps /579F3726/))
      (tstamp 57D72EE0))
    (comp (ref R66)
      (value 100k)
      (footprint IPC7351-Nominal:RESC1005X40)
      (fields
        (field (name manf#) RC1005F104CS))
      (libsource (lib device) (part R_Small))
      (sheetpath (names /Power_Supply+Safety/) (tstamps /579F3726/))
      (tstamp 57D73A98))
    (comp (ref Q16)
      (value BSZ120P03NS3)
      (footprint Mosfet-[JS]:PG-TSDSON-8-FL)
      (fields
        (field (name manf#) BSZ120P03NS3))
      (libsource (lib Raspberry_Shield-rescue) (part BSZ120P03NS3-RESCUE-Raspberry_Shield))
      (sheetpath (names /Power_Supply+Safety/) (tstamps /579F3726/))
      (tstamp 5813D90D))
    (comp (ref P11)
      (value CONN_01X02)
      (footprint LHE-PH-NAB_[JS]:PH-2AB)
      (libsource (lib Raspberry_Shield-rescue) (part CONN_01X02-RESCUE-Raspberry_Shield))
      (sheetpath (names /Power_Supply+Safety/) (tstamps /579F3726/))
      (tstamp 5813E431))
    (comp (ref R77)
      (value 10k)
      (footprint IPC7351-Nominal:RESC1005X40)
      (fields
        (field (name manf#) RC1005F103CS))
      (libsource (lib device) (part R_Small))
      (sheetpath (names /Power_Supply+Safety/) (tstamps /579F3726/))
      (tstamp 5813F59D))
    (comp (ref P30)
      (value Testpad)
      (footprint w_details:testpoint_2mm)
      (libsource (lib Raspberry_Shield-rescue) (part CONN_01X01-RESCUE-Raspberry_Shield))
      (sheetpath (names /Power_Supply+Safety/) (tstamps /579F3726/))
      (tstamp 5835A488))
    (comp (ref P31)
      (value Testpad)
      (footprint w_details:testpoint_2mm)
      (libsource (lib Raspberry_Shield-rescue) (part CONN_01X01-RESCUE-Raspberry_Shield))
      (sheetpath (names /Power_Supply+Safety/) (tstamps /579F3726/))
      (tstamp 5835A8EA))
    (comp (ref P32)
      (value Testpad)
      (footprint w_details:testpoint_2mm)
      (libsource (lib Raspberry_Shield-rescue) (part CONN_01X01-RESCUE-Raspberry_Shield))
      (sheetpath (names /Power_Supply+Safety/) (tstamps /579F3726/))
      (tstamp 5835ABB5))
    (comp (ref P33)
      (value Testpad)
      (footprint w_details:testpoint_2mm)
      (libsource (lib Raspberry_Shield-rescue) (part CONN_01X01-RESCUE-Raspberry_Shield))
      (sheetpath (names /Power_Supply+Safety/) (tstamps /579F3726/))
      (tstamp 5835B0BD))
    (comp (ref P29)
      (value Testpad)
      (footprint w_details:testpoint_2mm)
      (libsource (lib Raspberry_Shield-rescue) (part CONN_01X01-RESCUE-Raspberry_Shield))
      (sheetpath (names /Power_Supply+Safety/) (tstamps /579F3726/))
      (tstamp 5835C57D))
    (comp (ref P12)
      (value V_Supply)
      (footprint LHE-PH-NAB_[JS]:PH-4AB)
      (libsource (lib Raspberry_Shield-rescue) (part CONN_01X04-RESCUE-Raspberry_Shield))
      (sheetpath (names /Power_Supply+Safety/) (tstamps /579F3726/))
      (tstamp 584AF772))
    (comp (ref C46)
      (value "10µF 35V")
      (footprint IPC7351-Nominal:RESC2012X60)
      (fields
        (field (name manf#) GRM21BR6YA106KE43L))
      (libsource (lib device) (part C_Small))
      (sheetpath (names /Power_Supply+Safety/) (tstamps /579F3726/))
      (tstamp 58D81F6C))
    (comp (ref R42)
      (value 5)
      (footprint IPC7351-Nominal:RESC1005X40)
      (fields
        (field (name manf#) RC1005F5000CS))
      (libsource (lib device) (part R_Small))
      (sheetpath (names /Power_Supply+Safety/) (tstamps /579F3726/))
      (tstamp 58D9E1BB))
    (comp (ref C71)
      (value "470pF 50V")
      (footprint IPC7351-Nominal:CAPC1005X60)
      (fields
        (field (name manf#) CL05B471KB5NNNC))
      (libsource (lib device) (part C_Small))
      (sheetpath (names /Power_Supply+Safety/) (tstamps /579F3726/))
      (tstamp 58D9F14A))
    (comp (ref R43)
      (value 5)
      (footprint IPC7351-Nominal:RESC1005X40)
      (fields
        (field (name manf#) RC1005F5000CS))
      (libsource (lib device) (part R_Small))
      (sheetpath (names /Power_Supply+Safety/) (tstamps /579F3726/))
      (tstamp 58D9FD3D))
    (comp (ref C72)
      (value "470pF 50V")
      (footprint IPC7351-Nominal:CAPC1005X60)
      (fields
        (field (name manf#) CL05B471KB5NNNC))
      (libsource (lib device) (part C_Small))
      (sheetpath (names /Power_Supply+Safety/) (tstamps /579F3726/))
      (tstamp 58D9FD44))
    (comp (ref C98)
      (value 100µF)
      (footprint Capacitors_SMD:CP_Elec_6.3x7.7)
      (fields
        (field (name digikey#) 1189-2119-1-ND)
        (field (name manf#) 35TZV100M6.3X8))
      (libsource (lib device) (part CP1_Small))
      (sheetpath (names /Power_Supply+Safety/) (tstamps /579F3726/))
      (tstamp 5908D6FE))
    (comp (ref C99)
      (value 100µF)
      (footprint Capacitors_SMD:CP_Elec_6.3x7.7)
      (fields
        (field (name digikey#) 1189-2119-1-ND)
        (field (name manf#) 35TZV100M6.3X8))
      (libsource (lib device) (part CP1_Small))
      (sheetpath (names /Power_Supply+Safety/) (tstamps /579F3726/))
      (tstamp 59090E36))
    (comp (ref C69)
      (value "22µF 25V")
      (footprint Capacitors_SMD:C_1210)
      (fields
        (field (name digikey#) 1276-3392-1-ND)
        (field (name manf#) CL32B226KAJNNNE))
      (libsource (lib device) (part C_Small))
      (sheetpath (names /Power_Supply+Safety/) (tstamps /579F3726/))
      (tstamp 5909B1B4))
    (comp (ref C19)
      (value "22µF 25V")
      (footprint Capacitors_SMD:C_1210)
      (fields
        (field (name digikey#) 1276-3392-1-ND)
        (field (name manf#) CL32B226KAJNNNE))
      (libsource (lib device) (part C_Small))
      (sheetpath (names /Power_Supply+Safety/) (tstamps /579F3726/))
      (tstamp 5909E6F7))
    (comp (ref C70)
      (value "22µF 25V")
      (footprint Capacitors_SMD:C_1210)
      (fields
        (field (name digikey#) 1276-3392-1-ND)
        (field (name manf#) CL32B226KAJNNNE))
      (libsource (lib device) (part C_Small))
      (sheetpath (names /Power_Supply+Safety/) (tstamps /579F3726/))
      (tstamp 5909E7E5))
    (comp (ref L1)
      (value 10µH)
      (footprint inductors_[JS]:SRN1060)
      (fields
        (field (name digikey#) SRU1048A-100YCT-ND)
        (field (name manf#) SRU1048A-100Y))
      (libsource (lib device) (part L_Small))
      (sheetpath (names /Power_Supply+Safety/) (tstamps /579F3726/))
      (tstamp 590A45D5))
    (comp (ref C101)
      (value "0.1µF 25V")
      (footprint Capacitors_SMD:C_0603)
      (fields
        (field (name digikey#) 1276-1006-1-ND)
        (field (name manf#) CL10B104KA8NNNC))
      (libsource (lib device) (part C_Small))
      (sheetpath (names /Power_Supply+Safety/) (tstamps /579F3726/))
      (tstamp 590A6369))
    (comp (ref C100)
      (value "0.1µF 25V")
      (footprint Capacitors_SMD:C_0603)
      (fields
        (field (name digikey#) 1276-1006-1-ND)
        (field (name manf#) CL10B104KA8NNNC))
      (libsource (lib device) (part C_Small))
      (sheetpath (names /Power_Supply+Safety/) (tstamps /579F3726/))
      (tstamp 590A76FB))
    (comp (ref U10)
      (value 74LVC2G08DP)
      (footprint Housings_SSOP:TSSOP-8_3x3mm_Pitch0.65mm)
      (fields
        (field (name manf#) 74LVC2G08DP))
      (libsource (lib Logic_74xgxx) (part 74LVC2G08))
      (sheetpath (names "/Interlock circuit/") (tstamps /57A1419D/))
      (tstamp 57A8B49F))
    (comp (ref R49)
      (value 5k)
      (footprint IPC7351-Nominal:RESC1005X40)
      (libsource (lib device) (part R_Small))
      (sheetpath (names "/Interlock circuit/") (tstamps /57A1419D/))
      (tstamp 57A8C2CB))
    (comp (ref R48)
      (value 10k)
      (footprint IPC7351-Nominal:RESC1005X40)
      (fields
        (field (name digikey#) 1276-3431-1-ND)
        (field (name manf#) RC1005F103CS))
      (libsource (lib device) (part R_Small))
      (sheetpath (names "/Interlock circuit/") (tstamps /57A1419D/))
      (tstamp 57A8C71F))
    (comp (ref C11)
      (value "0.1µF 50V")
      (footprint IPC7351-Nominal:CAPC1005X60)
      (fields
        (field (name manf#) GRM155R61H104ME14D))
      (libsource (lib device) (part C_Small))
      (sheetpath (names "/Interlock circuit/") (tstamps /57A1419D/))
      (tstamp 57A8C85B))
    (comp (ref R50)
      (value 100k)
      (footprint IPC7351-Nominal:RESC1005X40)
      (fields
        (field (name manf#) RC1005F104CS))
      (libsource (lib device) (part R_Small))
      (sheetpath (names "/Interlock circuit/") (tstamps /57A1419D/))
      (tstamp 57A8D61B))
    (comp (ref C21)
      (value "4.7µF 50V")
      (footprint IPC7351-Nominal:RESC2012X60)
      (fields
        (field (name manf#) GRM21BR61H475KE51L))
      (libsource (lib device) (part C_Small))
      (sheetpath (names "/Interlock circuit/") (tstamps /57A1419D/))
      (tstamp 57A8D7FF))
    (comp (ref R51)
      (value 51)
      (footprint IPC7351-Nominal:RESC1005X40)
      (fields
        (field (name digikey#) 311-51JRCT-ND)
        (field (name manf#) RC0402JR-0751RL))
      (libsource (lib device) (part R_Small))
      (sheetpath (names "/Interlock circuit/") (tstamps /57A1419D/))
      (tstamp 57A8DA81))
    (comp (ref SW1)
      (value Interlock)
      (footprint LHE-PH-NAB_[JS]:PH-2AB)
      (fields
        (field (name manf#) 68001-402HLF))
      (libsource (lib Raspberry_Shield-rescue) (part SW_PUSH_SMALL_H-RESCUE-Raspberry_Shield))
      (sheetpath (names "/Interlock circuit/") (tstamps /57A1419D/))
      (tstamp 58075561))
    (comp (ref C4)
      (value 0uF47)
      (footprint IPC7351-Nominal:CAPC1005X60)
      (fields
        (field (name manf#) CL05A474KP5NNNC))
      (libsource (lib device) (part C_Small))
      (sheetpath (names "/Interlock circuit/") (tstamps /57A1419D/))
      (tstamp 5807622E))
    (comp (ref SW2)
      (value Interlock)
      (footprint LHE-PH-NAB_[JS]:PH-2AB)
      (fields
        (field (name manf#) 68001-402HLF))
      (libsource (lib Raspberry_Shield-rescue) (part SW_PUSH_SMALL_H-RESCUE-Raspberry_Shield))
      (sheetpath (names "/Interlock circuit/") (tstamps /57A1419D/))
      (tstamp 58076CF0))
    (comp (ref C26)
      (value 0uF47)
      (footprint IPC7351-Nominal:CAPC1005X60)
      (fields
        (field (name manf#) CL05A474KP5NNNC))
      (libsource (lib device) (part C_Small))
      (sheetpath (names "/Interlock circuit/") (tstamps /57A1419D/))
      (tstamp 58076D19))
    (comp (ref SW3)
      (value Interlock)
      (footprint LHE-PH-NAB_[JS]:PH-2AB)
      (fields
        (field (name manf#) 68001-402HLF))
      (libsource (lib Raspberry_Shield-rescue) (part SW_PUSH_SMALL_H-RESCUE-Raspberry_Shield))
      (sheetpath (names "/Interlock circuit/") (tstamps /57A1419D/))
      (tstamp 58077B6B))
    (comp (ref C27)
      (value 0uF47)
      (footprint IPC7351-Nominal:CAPC1005X60)
      (fields
        (field (name manf#) CL05A474KP5NNNC))
      (libsource (lib device) (part C_Small))
      (sheetpath (names "/Interlock circuit/") (tstamps /57A1419D/))
      (tstamp 58077B8D))
    (comp (ref SW4)
      (value Interlock)
      (footprint LHE-PH-NAB_[JS]:PH-2AB)
      (fields
        (field (name manf#) nicht_bestueckt))
      (libsource (lib Raspberry_Shield-rescue) (part SW_PUSH_SMALL_H-RESCUE-Raspberry_Shield))
      (sheetpath (names "/Interlock circuit/") (tstamps /57A1419D/))
      (tstamp 58078FC1))
    (comp (ref C28)
      (value 0uF47)
      (footprint IPC7351-Nominal:CAPC1005X60)
      (fields
        (field (name manf#) CL05A474KP5NNNC))
      (libsource (lib device) (part C_Small))
      (sheetpath (names "/Interlock circuit/") (tstamps /57A1419D/))
      (tstamp 58078FE3))
    (comp (ref D2)
      (value LED)
      (footprint LEDs:LED_0805)
      (datasheet http://www.osram-os.com/Graphics/XPic9/00078860_0.pdf)
      (fields
        (field (name manf#) "LG R971-KN-1")
        (field (name Characteristics) "LED CHIPLED 570NM GREEN")
        (field (name Description) "Power On Green LED")
        (field (name MFN) "OSRAM Opto")
        (field (name MFP) "LG R971-KN-1")
        (field (name "Package ID") SMD_0805)
        (field (name Source) ANY)
        (field (name Critical) N)
        (field (name Subsystem) Voltage_Reg))
      (libsource (lib Raspberry_Shield-rescue) (part LED-RESCUE-Raspberry_Shield))
      (sheetpath (names "/Interlock circuit/") (tstamps /57A1419D/))
      (tstamp 580AF22A))
    (comp (ref D3)
      (value LED)
      (footprint LEDs:LED_0805)
      (datasheet http://www.osram-os.com/Graphics/XPic9/00078860_0.pdf)
      (fields
        (field (name manf#) "LG R971-KN-1")
        (field (name Characteristics) "LED CHIPLED 570NM GREEN")
        (field (name Description) "Power On Green LED")
        (field (name MFN) "OSRAM Opto")
        (field (name MFP) "LG R971-KN-1")
        (field (name "Package ID") SMD_0805)
        (field (name Source) ANY)
        (field (name Critical) N)
        (field (name Subsystem) Voltage_Reg))
      (libsource (lib Raspberry_Shield-rescue) (part LED-RESCUE-Raspberry_Shield))
      (sheetpath (names "/Interlock circuit/") (tstamps /57A1419D/))
      (tstamp 580AFCFC))
    (comp (ref D5)
      (value LED)
      (footprint LEDs:LED_0805)
      (datasheet http://www.osram-os.com/Graphics/XPic9/00078860_0.pdf)
      (fields
        (field (name manf#) "LG R971-KN-1")
        (field (name Characteristics) "LED CHIPLED 570NM GREEN")
        (field (name Description) "Power On Green LED")
        (field (name MFN) "OSRAM Opto")
        (field (name MFP) "LG R971-KN-1")
        (field (name "Package ID") SMD_0805)
        (field (name Source) ANY)
        (field (name Critical) N)
        (field (name Subsystem) Voltage_Reg))
      (libsource (lib Raspberry_Shield-rescue) (part LED-RESCUE-Raspberry_Shield))
      (sheetpath (names "/Interlock circuit/") (tstamps /57A1419D/))
      (tstamp 580AFDD9))
    (comp (ref D6)
      (value LED)
      (footprint LEDs:LED_0805)
      (datasheet http://www.osram-os.com/Graphics/XPic9/00078860_0.pdf)
      (fields
        (field (name manf#) "LG R971-KN-1")
        (field (name Characteristics) "LED CHIPLED 570NM GREEN")
        (field (name Description) "Power On Green LED")
        (field (name MFN) "OSRAM Opto")
        (field (name MFP) "LG R971-KN-1")
        (field (name "Package ID") SMD_0805)
        (field (name Source) ANY)
        (field (name Critical) N)
        (field (name Subsystem) Voltage_Reg))
      (libsource (lib Raspberry_Shield-rescue) (part LED-RESCUE-Raspberry_Shield))
      (sheetpath (names "/Interlock circuit/") (tstamps /57A1419D/))
      (tstamp 580AFEAB))
    (comp (ref R74)
      (value 165)
      (footprint IPC7351-Nominal:RESC1005X40)
      (fields
        (field (name manf#) ERJ-2RKF1650X))
      (libsource (lib device) (part R_Small))
      (sheetpath (names "/Interlock circuit/") (tstamps /57A1419D/))
      (tstamp 581441CA))
    (comp (ref D8)
      (value LED)
      (footprint LEDs:LED_0805)
      (datasheet http://www.osram-os.com/Graphics/XPic9/00078860_0.pdf)
      (fields
        (field (name manf#) "LG R971-KN-1")
        (field (name Characteristics) "LED CHIPLED 570NM GREEN")
        (field (name Description) "Power On Green LED")
        (field (name MFN) "OSRAM Opto")
        (field (name MFP) "LG R971-KN-1")
        (field (name "Package ID") SMD_0805)
        (field (name Source) ANY)
        (field (name Critical) N)
        (field (name Subsystem) Voltage_Reg))
      (libsource (lib Raspberry_Shield-rescue) (part LED-RESCUE-Raspberry_Shield))
      (sheetpath (names "/Interlock circuit/") (tstamps /57A1419D/))
      (tstamp 581441DB))
    (comp (ref D9)
      (value 1N4148W-7-F)
      (footprint w_smd_diode:sod123)
      (datasheet http://www.diodes.com/_files/datasheets/ds30086.pdf)
      (fields
        (field (name manf#) 1N4148W-7-F)
        (field (name Characteristics) "DIODE GEN PURP 100V 300MA SOD123")
        (field (name Description) "ATMEGA328P ICSP Reset Voltage Spike Protection")
        (field (name MFN) "Diodes Inc")
        (field (name MFP) 1N4148W-7-F)
        (field (name "Package ID") SOD123)
        (field (name Source) ANY)
        (field (name Critical) N)
        (field (name Subsystem) 328P_Sub))
      (libsource (lib device) (part D))
      (sheetpath (names "/Interlock circuit/") (tstamps /57A1419D/))
      (tstamp 58155C47))
    (comp (ref D10)
      (value 1N4148W-7-F)
      (footprint w_smd_diode:sod123)
      (datasheet http://www.diodes.com/_files/datasheets/ds30086.pdf)
      (fields
        (field (name manf#) 1N4148W-7-F)
        (field (name Characteristics) "DIODE GEN PURP 100V 300MA SOD123")
        (field (name Description) "ATMEGA328P ICSP Reset Voltage Spike Protection")
        (field (name MFN) "Diodes Inc")
        (field (name MFP) 1N4148W-7-F)
        (field (name "Package ID") SOD123)
        (field (name Source) ANY)
        (field (name Critical) N)
        (field (name Subsystem) 328P_Sub))
      (libsource (lib device) (part D))
      (sheetpath (names "/Interlock circuit/") (tstamps /57A1419D/))
      (tstamp 58155D8A))
    (comp (ref D11)
      (value 1N4148W-7-F)
      (footprint w_smd_diode:sod123)
      (datasheet http://www.diodes.com/_files/datasheets/ds30086.pdf)
      (fields
        (field (name manf#) 1N4148W-7-F)
        (field (name Characteristics) "DIODE GEN PURP 100V 300MA SOD123")
        (field (name Description) "ATMEGA328P ICSP Reset Voltage Spike Protection")
        (field (name MFN) "Diodes Inc")
        (field (name MFP) 1N4148W-7-F)
        (field (name "Package ID") SOD123)
        (field (name Source) ANY)
        (field (name Critical) N)
        (field (name Subsystem) 328P_Sub))
      (libsource (lib device) (part D))
      (sheetpath (names "/Interlock circuit/") (tstamps /57A1419D/))
      (tstamp 58155F95))
    (comp (ref R55)
      (value 499)
      (footprint IPC7351-Nominal:RESC1005X40)
      (fields
        (field (name manf#) RC1005F4990CS))
      (libsource (lib device) (part R_Small))
      (sheetpath (names "/Interlock circuit/") (tstamps /57A1419D/))
      (tstamp 5831A502))
    (comp (ref R52)
      (value 499)
      (footprint IPC7351-Nominal:RESC1005X40)
      (fields
        (field (name manf#) RC1005F4990CS))
      (libsource (lib device) (part R_Small))
      (sheetpath (names "/Interlock circuit/") (tstamps /57A1419D/))
      (tstamp 5831A5D4))
    (comp (ref R28)
      (value 499)
      (footprint IPC7351-Nominal:RESC1005X40)
      (fields
        (field (name manf#) RC1005F4990CS))
      (libsource (lib device) (part R_Small))
      (sheetpath (names "/Interlock circuit/") (tstamps /57A1419D/))
      (tstamp 5831A6B5))
    (comp (ref R83)
      (value 499)
      (footprint IPC7351-Nominal:RESC1005X40)
      (fields
        (field (name manf#) RC1005F4990CS))
      (libsource (lib device) (part R_Small))
      (sheetpath (names "/Interlock circuit/") (tstamps /57A1419D/))
      (tstamp 5831A411))
    (comp (ref R82)
      (value 2k)
      (footprint IPC7351-Nominal:RESC1005X40)
      (fields
        (field (name manf#) RC1005F202CS))
      (libsource (lib device) (part R_Small))
      (sheetpath (names "/Interlock circuit/") (tstamps /57A1419D/))
      (tstamp 5831B062))
    (comp (ref R54)
      (value 2k)
      (footprint IPC7351-Nominal:RESC1005X40)
      (fields
        (field (name manf#) RC1005F202CS))
      (libsource (lib device) (part R_Small))
      (sheetpath (names "/Interlock circuit/") (tstamps /57A1419D/))
      (tstamp 5831B139))
    (comp (ref R36)
      (value 2k)
      (footprint IPC7351-Nominal:RESC1005X40)
      (fields
        (field (name manf#) RC1005F202CS))
      (libsource (lib device) (part R_Small))
      (sheetpath (names "/Interlock circuit/") (tstamps /57A1419D/))
      (tstamp 5831B269))
    (comp (ref R2)
      (value 2k)
      (footprint IPC7351-Nominal:RESC1005X40)
      (fields
        (field (name manf#) RC1005F202CS))
      (libsource (lib device) (part R_Small))
      (sheetpath (names "/Interlock circuit/") (tstamps /57A1419D/))
      (tstamp 5831B507))
    (comp (ref R84)
      (value 2k)
      (footprint IPC7351-Nominal:RESC1005X40)
      (fields
        (field (name manf#) RC1005F202CS))
      (libsource (lib device) (part R_Small))
      (sheetpath (names "/Interlock circuit/") (tstamps /57A1419D/))
      (tstamp 5831C734))
    (comp (ref R81)
      (value 2k)
      (footprint IPC7351-Nominal:RESC1005X40)
      (fields
        (field (name manf#) RC1005F202CS))
      (libsource (lib device) (part R_Small))
      (sheetpath (names "/Interlock circuit/") (tstamps /57A1419D/))
      (tstamp 5831C815))
    (comp (ref R53)
      (value 2k)
      (footprint IPC7351-Nominal:RESC1005X40)
      (fields
        (field (name manf#) RC1005F202CS))
      (libsource (lib device) (part R_Small))
      (sheetpath (names "/Interlock circuit/") (tstamps /57A1419D/))
      (tstamp 5831C8ED))
    (comp (ref R35)
      (value 2k)
      (footprint IPC7351-Nominal:RESC1005X40)
      (fields
        (field (name manf#) RC1005F202CS))
      (libsource (lib device) (part R_Small))
      (sheetpath (names "/Interlock circuit/") (tstamps /57A1419D/))
      (tstamp 5831C9C2))
    (comp (ref P34)
      (value Testpad)
      (footprint w_details:testpoint_2mm)
      (libsource (lib Raspberry_Shield-rescue) (part CONN_01X01-RESCUE-Raspberry_Shield))
      (sheetpath (names "/Interlock circuit/") (tstamps /57A1419D/))
      (tstamp 5835F7D1))
    (comp (ref P35)
      (value Testpad)
      (footprint w_details:testpoint_2mm)
      (libsource (lib Raspberry_Shield-rescue) (part CONN_01X01-RESCUE-Raspberry_Shield))
      (sheetpath (names "/Interlock circuit/") (tstamps /57A1419D/))
      (tstamp 58360A03))
    (comp (ref P36)
      (value Testpad)
      (footprint w_details:testpoint_2mm)
      (libsource (lib Raspberry_Shield-rescue) (part CONN_01X01-RESCUE-Raspberry_Shield))
      (sheetpath (names "/Interlock circuit/") (tstamps /57A1419D/))
      (tstamp 58360B01))
    (comp (ref P37)
      (value Testpad)
      (footprint w_details:testpoint_2mm)
      (libsource (lib Raspberry_Shield-rescue) (part CONN_01X01-RESCUE-Raspberry_Shield))
      (sheetpath (names "/Interlock circuit/") (tstamps /57A1419D/))
      (tstamp 58360C14))
    (comp (ref P38)
      (value Testpad)
      (footprint w_details:testpoint_2mm)
      (libsource (lib Raspberry_Shield-rescue) (part CONN_01X01-RESCUE-Raspberry_Shield))
      (sheetpath (names "/Interlock circuit/") (tstamps /57A1419D/))
      (tstamp 58361ED2))
    (comp (ref P39)
      (value Testpad)
      (footprint w_details:testpoint_2mm)
      (libsource (lib Raspberry_Shield-rescue) (part CONN_01X01-RESCUE-Raspberry_Shield))
      (sheetpath (names "/Interlock circuit/") (tstamps /57A1419D/))
      (tstamp 58362FCA))
    (comp (ref U8)
      (value 74LVC2G08DP)
      (footprint Housings_SSOP:TSSOP-8_3x3mm_Pitch0.65mm)
      (fields
        (field (name manf#) 74LVC2G08DP))
      (libsource (lib Logic_74xgxx) (part 74LVC2G08))
      (sheetpath (names "/Interlock circuit/") (tstamps /57A1419D/))
      (tstamp 5848695A))
    (comp (ref U2)
      (value 74LVC2G08DP)
      (footprint Housings_SSOP:TSSOP-8_3x3mm_Pitch0.65mm)
      (fields
        (field (name manf#) 74LVC2G08DP))
      (libsource (lib Logic_74xgxx) (part 74LVC2G08))
      (sheetpath (names "/Interlock circuit/") (tstamps /57A1419D/))
      (tstamp 584894CF))
    (comp (ref R71)
      (value 2k)
      (footprint IPC7351-Nominal:RESC1005X40)
      (fields
        (field (name manf#) RC1005F202CS))
      (libsource (lib device) (part R_Small))
      (sheetpath (names "/Interlock circuit/") (tstamps /57A1419D/))
      (tstamp 5848BC68))
    (comp (ref U9)
      (value 74LVC1G123)
      (footprint Housings_SSOP:TSSOP-8_3x3mm_Pitch0.65mm)
      (fields
        (field (name manf#) 74lvc1g123DP))
      (libsource (lib Logic_74xgxx) (part 74LVC1G123))
      (sheetpath (names "/Interlock circuit/") (tstamps /57A1419D/))
      (tstamp 586A9D16))
    (comp (ref R1)
      (value 100k)
      (footprint IPC7351-Nominal:RESC1005X40)
      (fields
        (field (name manf#) RC1005F104CS))
      (libsource (lib device) (part R_Small))
      (sheetpath (names "/Interlock circuit/") (tstamps /57A1419D/))
      (tstamp 586B1367))
    (comp (ref C24)
      (value "4.7µF 50V")
      (footprint IPC7351-Nominal:RESC2012X60)
      (fields
        (field (name manf#) GRM21BR61H475KE51L))
      (libsource (lib device) (part C_Small))
      (sheetpath (names "/Interlock circuit/") (tstamps /57A1419D/))
      (tstamp 586B1915))
    (comp (ref R19)
      (value 1M)
      (footprint IPC7351-Nominal:RESC1005X40)
      (fields
        (field (name manf#) RC1005F105CS))
      (libsource (lib device) (part R_Small))
      (sheetpath (names "/Interlock circuit/") (tstamps /57A1419D/))
      (tstamp 58B1B954))
    (comp (ref R41)
      (value 10k)
      (footprint IPC7351-Nominal:RESC1005X40)
      (fields
        (field (name manf#) RC1005F103CS))
      (libsource (lib device) (part R_Small))
      (sheetpath (names "/Interlock circuit/") (tstamps /57A1419D/))
      (tstamp 58D5AA8C))
    (comp (ref C73)
      (value "75pF 50V")
      (footprint IPC7351-Nominal:CAPC1005X60)
      (fields
        (field (name manf#) GRM1555C1H750JA01D))
      (libsource (lib device) (part C_Small))
      (sheetpath (names "/Interlock circuit/") (tstamps /57A1419D/))
      (tstamp 58D8FCDD))
    (comp (ref C77)
      (value "22nF 50V")
      (footprint Capacitors_SMD:C_0402)
      (fields
        (field (name digikey#) 490-6360-1-ND)
        (field (name manf#) GRM155R71H223KA12J))
      (libsource (lib device) (part C_Small))
      (sheetpath (names "/Interlock circuit/") (tstamps /57A1419D/))
      (tstamp 5908DBF4))
    (comp (ref C78)
      (value "22nF 50V")
      (footprint Capacitors_SMD:C_0402)
      (fields
        (field (name digikey#) 490-6360-1-ND)
        (field (name manf#) GRM155R71H223KA12J))
      (libsource (lib device) (part C_Small))
      (sheetpath (names "/Interlock circuit/") (tstamps /57A1419D/))
      (tstamp 5909DD88))
    (comp (ref C79)
      (value "22nF 50V")
      (footprint Capacitors_SMD:C_0402)
      (fields
        (field (name digikey#) 490-6360-1-ND)
        (field (name manf#) GRM155R71H223KA12J))
      (libsource (lib device) (part C_Small))
      (sheetpath (names "/Interlock circuit/") (tstamps /57A1419D/))
      (tstamp 5909E03C))
    (comp (ref C80)
      (value "22nF 50V")
      (footprint Capacitors_SMD:C_0402)
      (fields
        (field (name digikey#) 490-6360-1-ND)
        (field (name manf#) GRM155R71H223KA12J))
      (libsource (lib device) (part C_Small))
      (sheetpath (names "/Interlock circuit/") (tstamps /57A1419D/))
      (tstamp 5909E8E7))
    (comp (ref C81)
      (value "22nF 50V")
      (footprint Capacitors_SMD:C_0402)
      (fields
        (field (name digikey#) 490-6360-1-ND)
        (field (name manf#) GRM155R71H223KA12J))
      (libsource (lib device) (part C_Small))
      (sheetpath (names "/Interlock circuit/") (tstamps /57A1419D/))
      (tstamp 590A4CB3))
    (comp (ref C82)
      (value 75pF)
      (footprint Capacitors_SMD:C_0402)
      (fields
        (field (name manf#) GRM1555C1H750JA01D))
      (libsource (lib device) (part C_Small))
      (sheetpath (names "/Interlock circuit/") (tstamps /57A1419D/))
      (tstamp 590A94C5))
    (comp (ref C83)
      (value "22nF 50V")
      (footprint Capacitors_SMD:C_0402)
      (fields
        (field (name digikey#) 490-6360-1-ND)
        (field (name manf#) GRM155R71H223KA12J))
      (libsource (lib device) (part C_Small))
      (sheetpath (names "/Interlock circuit/") (tstamps /57A1419D/))
      (tstamp 590AC269))
    (comp (ref C84)
      (value "22nF 50V")
      (footprint Capacitors_SMD:C_0402)
      (fields
        (field (name digikey#) 490-6360-1-ND)
        (field (name manf#) GRM155R71H223KA12J))
      (libsource (lib device) (part C_Small))
      (sheetpath (names "/Interlock circuit/") (tstamps /57A1419D/))
      (tstamp 590AFBB2))
    (comp (ref R44)
      (value 51)
      (footprint Resistors_SMD:R_0402)
      (fields
        (field (name digikey#) 311-51JRCT-ND)
        (field (name manf#) RC0402JR-0751RL))
      (libsource (lib device) (part R_Small))
      (sheetpath (names "/Interlock circuit/") (tstamps /57A1419D/))
      (tstamp 590B3B61))
    (comp (ref C85)
      (value empty)
      (footprint Capacitors_SMD:C_0402)
      (fields
        (field (name manf#) empty))
      (libsource (lib device) (part C_Small))
      (sheetpath (names "/Interlock circuit/") (tstamps /57A1419D/))
      (tstamp 590C11F2))
    (comp (ref R45)
      (value 2k)
      (footprint Resistors_SMD:R_0402)
      (fields
        (field (name manf#) RC1005F202CS))
      (libsource (lib device) (part R_Small))
      (sheetpath (names "/Interlock circuit/") (tstamps /57A1419D/))
      (tstamp 5911F4EE))
    (comp (ref R38)
      (value 10k)
      (footprint Resistors_SMD:R_0402)
      (fields
        (field (name manf#) RC1005F103CS))
      (libsource (lib device) (part R_Small))
      (sheetpath (names "/Interlock circuit/") (tstamps /57A1419D/))
      (tstamp 5911F4F6))
    (comp (ref Q6)
      (value BSS138)
      (footprint TO_SOT_Packages_SMD:SOT-23)
      (fields
        (field (name manf#) BSS138CT-ND))
      (libsource (lib Raspberry_Shield-rescue) (part BSS138-RESCUE-Raspberry_Shield))
      (sheetpath (names "/Interlock circuit/") (tstamps /57A1419D/))
      (tstamp 5911F501))
    (comp (ref J2)
      (value RasPI_IO_Header_B+)
      (footprint RPi_Hat.pretty-master:Pin_Header_Straight_2x20)
      (fields
        (field (name manf#) CES-120-01-T-D)
        (field (name digikey#) SAM1086-20-ND))
      (libsource (lib Raspberry_Shield-rescue) (part RasPI_IO_Header_B+-RESCUE-Raspberry_Shield))
      (sheetpath (names /Rasperry-Connector/) (tstamps /57A1A8FF/))
      (tstamp 57A0DC56))
    (comp (ref C87)
      (value "75pF 50V")
      (footprint Capacitors_SMD:C_0402)
      (fields
        (field (name manf#) GRM1555C1H750JA01D))
      (libsource (lib Raspberry_Shield-rescue) (part C-RESCUE-Raspberry_Shield))
      (sheetpath (names /Rasperry-Connector/) (tstamps /57A1A8FF/))
      (tstamp 590C8A6F))
    (comp (ref C86)
      (value "75pF 50V")
      (footprint Capacitors_SMD:C_0402)
      (fields
        (field (name manf#) GRM1555C1H750JA01D))
      (libsource (lib Raspberry_Shield-rescue) (part C-RESCUE-Raspberry_Shield))
      (sheetpath (names /Rasperry-Connector/) (tstamps /57A1A8FF/))
      (tstamp 590C8BE0))
    (comp (ref C88)
      (value "330pF 25V")
      (footprint Capacitors_SMD:C_0402)
      (fields
        (field (name digikey#) 732-7536-1-ND)
        (field (name manf#) 885012205041))
      (libsource (lib Raspberry_Shield-rescue) (part C-RESCUE-Raspberry_Shield))
      (sheetpath (names /Rasperry-Connector/) (tstamps /57A1A8FF/))
      (tstamp 590C9E67))
    (comp (ref U5)
      (value PCF8575)
      (footprint Housings_SSOP:SSOP-24_5.3x8.2mm_Pitch0.65mm)
      (fields
        (field (name manf#) PCF8575TS/1,112))
      (libsource (lib PCF8575) (part PCF8575))
      (sheetpath (names /i2c-expander/) (tstamps /5806772C/))
      (tstamp 58062E94))
    (comp (ref R18)
      (value 2k)
      (footprint IPC7351-Nominal:RESC1005X40)
      (fields
        (field (name manf#) RC1005F202CS))
      (libsource (lib device) (part R_Small))
      (sheetpath (names /i2c-expander/) (tstamps /5806772C/))
      (tstamp 58474368))
    (comp (ref C75)
      (value 0uF47)
      (footprint IPC7351-Nominal:CAPC1005X60)
      (fields
        (field (name manf#) CL05A474KP5NNNC))
      (libsource (lib device) (part C_Small))
      (sheetpath (names /i2c-expander/) (tstamps /5806772C/))
      (tstamp 58DA1191))
    (comp (ref P9)
      (value Testpad)
      (footprint w_details:testpoint_2mm)
      (libsource (lib Raspberry_Shield-rescue) (part CONN_01X01-RESCUE-Raspberry_Shield))
      (sheetpath (names /i2c-expander/) (tstamps /5806772C/))
      (tstamp 58D95941)))
  (libparts
    (libpart (lib Logic_74xgxx) (part 74LVC1G123)
      (description "Single Retrigerrable Monostabile Multivibrator, Low-Voltage CMOS")
      (docs http://www.ti.com/lit/sg/scyt129e/scyt129e.pdf)
      (footprints
        (fp SSOP*)
        (fp VSSOP*))
      (fields
        (field (name Reference) U)
        (field (name Value) 74LVC1G123))
      (pins
        (pin (num 1) (name ~A) (type input))
        (pin (num 2) (name B) (type input))
        (pin (num 3) (name ~CLR) (type input))
        (pin (num 4) (name GND) (type power_in))
        (pin (num 5) (name Q) (type output))
        (pin (num 6) (name Cext) (type input))
        (pin (num 7) (name Rext) (type input))
        (pin (num 8) (name VCC) (type power_in))))
    (libpart (lib Logic_74xgxx) (part 74LVC2G08)
      (aliases
        (alias 74AUC2G08))
      (description "Dual AND Gate, Low-Voltage CMOS")
      (docs http://www.ti.com/lit/sg/scyt129e/scyt129e.pdf)
      (footprints
        (fp SSOP*)
        (fp VSSOP*))
      (fields
        (field (name Reference) U)
        (field (name Value) 74LVC2G08))
      (pins
        (pin (num 1) (name ~) (type input))
        (pin (num 2) (name ~) (type input))
        (pin (num 3) (name ~) (type output))
        (pin (num 4) (name GND) (type power_in))
        (pin (num 5) (name ~) (type input))
        (pin (num 6) (name ~) (type input))
        (pin (num 7) (name ~) (type output))
        (pin (num 8) (name VCC) (type power_in))))
    (libpart (lib Raspberry_Shield-rescue) (part BSS138-RESCUE-Raspberry_Shield)
      (footprints
        (fp SOT-23*))
      (fields
        (field (name Reference) Q)
        (field (name Value) BSS138-RESCUE-Raspberry_Shield)
        (field (name Footprint) SOT-23))
      (pins
        (pin (num 1) (name G) (type passive))
        (pin (num 2) (name S) (type passive))
        (pin (num 3) (name D) (type passive))))
    (libpart (lib Raspberry_Shield-rescue) (part BSZ120P03NS3-RESCUE-Raspberry_Shield)
      (footprints
        (fp 8-PowerTDFN)
        (fp PG-TSDSON-8-FL))
      (fields
        (field (name Reference) Q)
        (field (name Value) BSZ120P03NS3-RESCUE-Raspberry_Shield))
      (pins
        (pin (num 1) (name S) (type passive))
        (pin (num 2) (name S) (type passive))
        (pin (num 3) (name S) (type passive))
        (pin (num 4) (name G) (type input))
        (pin (num 5) (name D) (type passive))
        (pin (num 6) (name D) (type passive))
        (pin (num 7) (name D) (type passive))
        (pin (num 8) (name D) (type passive))))
    (libpart (lib Raspberry_Shield-rescue) (part C-RESCUE-Raspberry_Shield)
      (footprints
        (fp C_*))
      (fields
        (field (name Reference) C)
        (field (name Value) C-RESCUE-Raspberry_Shield))
      (pins
        (pin (num 1) (name ~) (type passive))
        (pin (num 2) (name ~) (type passive))))
    (libpart (lib Raspberry_Shield-rescue) (part CONN_01X01-RESCUE-Raspberry_Shield)
      (footprints
        (fp Pin_Header_Straight_1X*)
        (fp Pin_Header_Angled_1X*)
        (fp Socket_Strip_Straight_1X*)
        (fp Socket_Strip_Angled_1X*))
      (fields
        (field (name Reference) J)
        (field (name Value) CONN_01X01-RESCUE-Raspberry_Shield))
      (pins
        (pin (num 1) (name P1) (type passive))))
    (libpart (lib Raspberry_Shield-rescue) (part CONN_01X02-RESCUE-Raspberry_Shield)
      (footprints
        (fp Pin_Header_Straight_1X*)
        (fp Pin_Header_Angled_1X*)
        (fp Socket_Strip_Straight_1X*)
        (fp Socket_Strip_Angled_1X*))
      (fields
        (field (name Reference) J)
        (field (name Value) CONN_01X02-RESCUE-Raspberry_Shield))
      (pins
        (pin (num 1) (name P1) (type passive))
        (pin (num 2) (name P2) (type passive))))
    (libpart (lib Raspberry_Shield-rescue) (part CONN_01X04-RESCUE-Raspberry_Shield)
      (footprints
        (fp Pin_Header_Straight_1X*)
        (fp Pin_Header_Angled_1X*)
        (fp Socket_Strip_Straight_1X*)
        (fp Socket_Strip_Angled_1X*))
      (fields
        (field (name Reference) J)
        (field (name Value) CONN_01X04-RESCUE-Raspberry_Shield))
      (pins
        (pin (num 1) (name P1) (type passive))
        (pin (num 2) (name P2) (type passive))
        (pin (num 3) (name P3) (type passive))
        (pin (num 4) (name P4) (type passive))))
    (libpart (lib device) (part CP1_Small)
      (description "Polarised capacitor")
      (footprints
        (fp CP_*))
      (fields
        (field (name Reference) C)
        (field (name Value) CP1_Small))
      (pins
        (pin (num 1) (name ~) (type passive))
        (pin (num 2) (name ~) (type passive))))
    (libpart (lib device) (part C_Small)
      (description "Unpolarized capacitor")
      (footprints
        (fp C_*))
      (fields
        (field (name Reference) C)
        (field (name Value) C_Small))
      (pins
        (pin (num 1) (name ~) (type passive))
        (pin (num 2) (name ~) (type passive))))
    (libpart (lib device) (part D)
      (description Diode)
      (footprints
        (fp TO-???*)
        (fp *SingleDiode)
        (fp *_Diode_*)
        (fp *SingleDiode*)
        (fp D_*))
      (fields
        (field (name Reference) D)
        (field (name Value) D))
      (pins
        (pin (num 1) (name K) (type passive))
        (pin (num 2) (name A) (type passive))))
    (libpart (lib Raspberry_Shield-rescue) (part DMMT5401-7-F-RESCUE-Raspberry_Shield)
      (fields
        (field (name Reference) Q)
        (field (name Value) DMMT5401-7-F-RESCUE-Raspberry_Shield))
      (pins
        (pin (num 1) (name C) (type passive))
        (pin (num 2) (name B) (type passive))
        (pin (num 3) (name B) (type passive))
        (pin (num 4) (name C) (type passive))
        (pin (num 5) (name E) (type passive))
        (pin (num 6) (name E) (type passive))))
    (libpart (lib Raspberry_Shield-rescue) (part LED-RESCUE-Raspberry_Shield)
      (footprints
        (fp LED-*)
        (fp LED_*))
      (fields
        (field (name Reference) D)
        (field (name Value) LED-RESCUE-Raspberry_Shield))
      (pins
        (pin (num 1) (name K) (type passive))
        (pin (num 2) (name A) (type passive))))
    (libpart (lib device) (part L_Small)
      (description "Inductor, small symbol")
      (footprints
        (fp Choke_*)
        (fp *Coil*)
        (fp Inductor_*)
        (fp L_*))
      (fields
        (field (name Reference) L)
        (field (name Value) L_Small))
      (pins
        (pin (num 1) (name ~) (type passive))
        (pin (num 2) (name ~) (type passive))))
    (libpart (lib PCF8575) (part PCF8575)
      (fields
        (field (name Reference) U)
        (field (name Value) PCF8575))
      (pins
        (pin (num 1) (name INT) (type output))
        (pin (num 2) (name A1) (type input))
        (pin (num 3) (name A2) (type input))
        (pin (num 4) (name P00) (type BiDi))
        (pin (num 5) (name P01) (type BiDi))
        (pin (num 6) (name P02) (type BiDi))
        (pin (num 7) (name P03) (type BiDi))
        (pin (num 8) (name P04) (type BiDi))
        (pin (num 9) (name P05) (type BiDi))
        (pin (num 10) (name P06) (type BiDi))
        (pin (num 11) (name P07) (type BiDi))
        (pin (num 12) (name VSS) (type output))
        (pin (num 13) (name P10) (type BiDi))
        (pin (num 14) (name P11) (type BiDi))
        (pin (num 15) (name P12) (type BiDi))
        (pin (num 16) (name P13) (type BiDi))
        (pin (num 17) (name P14) (type BiDi))
        (pin (num 18) (name P15) (type BiDi))
        (pin (num 19) (name P16) (type BiDi))
        (pin (num 20) (name P17) (type BiDi))
        (pin (num 21) (name A0) (type input))
        (pin (num 22) (name SCL) (type input))
        (pin (num 23) (name SDA) (type BiDi))
        (pin (num 24) (name VDD) (type input))))
    (libpart (lib device) (part Q_PMOS_GSD)
      (description "Transistor P-MOSFET with substrate diode (general)")
      (fields
        (field (name Reference) Q)
        (field (name Value) Q_PMOS_GSD))
      (pins
        (pin (num 1) (name G) (type input))
        (pin (num 2) (name S) (type passive))
        (pin (num 3) (name D) (type passive))))
    (libpart (lib Raspberry_Shield-rescue) (part RT8292B-RESCUE-Raspberry_Shield)
      (footprints
        (fp SOIC-8)
        (fp SOIC*))
      (fields
        (field (name Reference) U)
        (field (name Value) RT8292B-RESCUE-Raspberry_Shield))
      (pins
        (pin (num 1) (name BOOT) (type input))
        (pin (num 2) (name VIN) (type input))
        (pin (num 3) (name SW) (type input))
        (pin (num 4) (name GND) (type input))
        (pin (num 5) (name FB) (type input))
        (pin (num 6) (name COMP) (type input))
        (pin (num 7) (name EN) (type input))
        (pin (num 8) (name SS) (type input))
        (pin (num 9) (name GND) (type input))))
    (libpart (lib device) (part R_Small)
      (description "Resistor, small symbol")
      (footprints
        (fp R_*))
      (fields
        (field (name Reference) R)
        (field (name Value) R_Small))
      (pins
        (pin (num 1) (name ~) (type passive))
        (pin (num 2) (name ~) (type passive))))
    (libpart (lib Raspberry_Shield-rescue) (part RasPI_IO_Header_B+-RESCUE-Raspberry_Shield)
      (fields
        (field (name Reference) J)
        (field (name Value) RasPI_IO_Header_B+-RESCUE-Raspberry_Shield))
      (pins
        (pin (num 1) (name 3V3) (type passive))
        (pin (num 2) (name 5V) (type passive))
        (pin (num 3) (name GPIO0-R1/GPIO2-R2/SDA0/SDA1) (type passive))
        (pin (num 4) (name 5V) (type passive))
        (pin (num 5) (name GPIO1-R1/GPIO3-R2/SCL0/SCL1) (type passive))
        (pin (num 6) (name GND) (type passive))
        (pin (num 7) (name GPIO4/GPCLK0) (type passive))
        (pin (num 8) (name GPIO14/TXD0/TXD1) (type passive))
        (pin (num 9) (name GND) (type passive))
        (pin (num 10) (name GPIO15/RXD0/RXD1) (type passive))
        (pin (num 11) (name GPIO17/RTS0/RTS1/GPIO_GEN0) (type passive))
        (pin (num 12) (name GPIO18/PCM_CLK/CE0-1/PWM0/GPIO_GEN1) (type passive))
        (pin (num 13) (name GPIO21-R1/GPIO27-R2/PCM_DOUT/GPCLK1/GPIO_GEN2) (type passive))
        (pin (num 14) (name GND) (type passive))
        (pin (num 15) (name GPIO22/SD1_CLK/ARM_TRST/GPIO_GEN3) (type passive))
        (pin (num 16) (name GPIO23/SD1_CMD/ARM_RTCK/GPIO_GEN4) (type passive))
        (pin (num 17) (name 3V3) (type passive))
        (pin (num 18) (name GPIO24/SD1_DATA0/ARM_TDO/GPIO_GEN5) (type passive))
        (pin (num 19) (name GPIO10/SPI_MOSI0) (type passive))
        (pin (num 20) (name GND) (type passive))
        (pin (num 21) (name GPIO9/SPI_MISO0) (type passive))
        (pin (num 22) (name GPIO25/ARM_TCK/GPIO_GEN6) (type passive))
        (pin (num 23) (name GPIO11/SPI_SCKL0) (type passive))
        (pin (num 24) (name GPIO8/CE0-N) (type passive))
        (pin (num 25) (name GND) (type passive))
        (pin (num 26) (name GPIO7/CE1-N) (type passive))
        (pin (num 27) (name ID_SD) (type passive))
        (pin (num 28) (name ID_SC) (type passive))
        (pin (num 29) (name GPIO5) (type passive))
        (pin (num 30) (name GND) (type passive))
        (pin (num 31) (name GPIO6) (type passive))
        (pin (num 32) (name GPIO12) (type passive))
        (pin (num 33) (name GPIO13) (type passive))
        (pin (num 34) (name GND) (type passive))
        (pin (num 35) (name GPIO19) (type passive))
        (pin (num 36) (name GPIO16) (type passive))
        (pin (num 37) (name GPIO26) (type passive))
        (pin (num 38) (name GPIO20) (type passive))
        (pin (num 39) (name GND) (type passive))
        (pin (num 40) (name GPIO21) (type passive))))
    (libpart (lib Raspberry_Shield-rescue) (part SW_PUSH_SMALL_H-RESCUE-Raspberry_Shield)
      (fields
        (field (name Reference) SW)
        (field (name Value) SW_PUSH_SMALL_H-RESCUE-Raspberry_Shield))
      (pins
        (pin (num 1) (name 1) (type passive))
        (pin (num 2) (name 2) (type passive))))
    (libpart (lib Raspberry_Shield-rescue) (part TPS54302-RESCUE-Raspberry_Shield)
      (footprints
        (fp SOT-23*)
        (fp SOT-23-6)
        (fp SOT*))
      (fields
        (field (name Reference) U)
        (field (name Value) TPS54302-RESCUE-Raspberry_Shield))
      (pins
        (pin (num 1) (name GND) (type input))
        (pin (num 2) (name SW) (type input))
        (pin (num 3) (name VIN) (type input))
        (pin (num 4) (name FB) (type input))
        (pin (num 5) (name EN) (type input))
        (pin (num 6) (name BOOT) (type input)))))
  (libraries
    (library (logical Logic_74xgxx)
      (uri /home/teja/.local/share/kicad/library-repos/kicad-library/library/Logic_74xgxx.lib))
    (library (logical PCF8575)
      (uri /home/teja/workspace/laser4diy-safety-electronics/PCB/PCF8575.lib))
    (library (logical Raspberry_Shield-rescue)
      (uri /home/teja/workspace/laser4diy-safety-electronics/PCB/Raspberry_Shield-rescue.lib))
    (library (logical device)
      (uri /home/teja/.local/share/kicad/library-repos/kicad-library/library/device.lib)))
  (nets
    (net (code 1) (name "Net-(C23-Pad2)")
      (node (ref L2) (pin 1))
      (node (ref U3) (pin 3))
      (node (ref C23) (pin 2))
      (node (ref C72) (pin 1)))
    (net (code 2) (name "Net-(C72-Pad2)")
      (node (ref C72) (pin 2))
      (node (ref R43) (pin 1)))
    (net (code 3) (name "Net-(C71-Pad2)")
      (node (ref C71) (pin 2))
      (node (ref R42) (pin 1)))
    (net (code 4) (name /Power_Supply+Safety/Source)
      (node (ref R77) (pin 2))
      (node (ref Q16) (pin 3))
      (node (ref Q16) (pin 2))
      (node (ref Q16) (pin 1))
      (node (ref P12) (pin 2))
      (node (ref P12) (pin 3)))
    (net (code 5) (name "Net-(P11-Pad1)")
      (node (ref Q16) (pin 4))
      (node (ref P11) (pin 1))
      (node (ref P30) (pin 1))
      (node (ref R77) (pin 1)))
    (net (code 6) (name "Net-(Q4-Pad4)")
      (node (ref R31) (pin 1))
      (node (ref Q4) (pin 4))
      (node (ref Q5) (pin 1)))
    (net (code 7) (name GND)
      (node (ref C85) (pin 2))
      (node (ref R48) (pin 1))
      (node (ref C11) (pin 2))
      (node (ref R49) (pin 2))
      (node (ref C21) (pin 2))
      (node (ref U10) (pin 4))
      (node (ref U10) (pin 4))
      (node (ref D8) (pin 1))
      (node (ref C84) (pin 1))
      (node (ref D5) (pin 1))
      (node (ref D2) (pin 1))
      (node (ref D3) (pin 1))
      (node (ref D6) (pin 1))
      (node (ref U8) (pin 4))
      (node (ref R35) (pin 2))
      (node (ref U2) (pin 4))
      (node (ref R53) (pin 2))
      (node (ref R81) (pin 2))
      (node (ref R84) (pin 2))
      (node (ref U3) (pin 4))
      (node (ref C5) (pin 2))
      (node (ref R3) (pin 2))
      (node (ref R31) (pin 2))
      (node (ref C35) (pin 2))
      (node (ref C22) (pin 2))
      (node (ref U3) (pin 9))
      (node (ref R67) (pin 1))
      (node (ref C18) (pin 2))
      (node (ref U5) (pin 3))
      (node (ref U5) (pin 21))
      (node (ref C87) (pin 1))
      (node (ref C86) (pin 1))
      (node (ref U5) (pin 12))
      (node (ref C88) (pin 1))
      (node (ref J2) (pin 25))
      (node (ref U9) (pin 1))
      (node (ref U9) (pin 4))
      (node (ref U2) (pin 4))
      (node (ref U5) (pin 2))
      (node (ref J2) (pin 30))
      (node (ref C75) (pin 1))
      (node (ref J2) (pin 6))
      (node (ref J2) (pin 9))
      (node (ref J2) (pin 20))
      (node (ref J2) (pin 14))
      (node (ref J2) (pin 39))
      (node (ref J2) (pin 34))
      (node (ref C80) (pin 2))
      (node (ref C77) (pin 1))
      (node (ref C78) (pin 2))
      (node (ref C79) (pin 2))
      (node (ref C81) (pin 1))
      (node (ref R41) (pin 2))
      (node (ref R19) (pin 2))
      (node (ref C4) (pin 1))
      (node (ref C26) (pin 1))
      (node (ref C28) (pin 1))
      (node (ref U8) (pin 4))
      (node (ref C82) (pin 1))
      (node (ref C83) (pin 2))
      (node (ref C27) (pin 1))
      (node (ref C73) (pin 1))
      (node (ref C69) (pin 2))
      (node (ref R66) (pin 2))
      (node (ref C19) (pin 2))
      (node (ref C70) (pin 2))
      (node (ref D4) (pin 1))
      (node (ref D1) (pin 1))
      (node (ref C101) (pin 1))
      (node (ref C16) (pin 2))
      (node (ref U7) (pin 1))
      (node (ref C100) (pin 1))
      (node (ref C99) (pin 2))
      (node (ref R42) (pin 2))
      (node (ref R43) (pin 2))
      (node (ref C98) (pin 2))
      (node (ref P12) (pin 1))
      (node (ref P12) (pin 4))
      (node (ref C46) (pin 2))
      (node (ref R33) (pin 2))
      (node (ref P11) (pin 2)))
    (net (code 8) (name +5V)
      (node (ref C101) (pin 2))
      (node (ref L1) (pin 2))
      (node (ref Q5) (pin 3))
      (node (ref Q4) (pin 6))
      (node (ref R45) (pin 1))
      (node (ref C6) (pin 2))
      (node (ref P31) (pin 1))
      (node (ref C19) (pin 1))
      (node (ref R32) (pin 1))
      (node (ref C70) (pin 1))
      (node (ref R46) (pin 1)))
    (net (code 9) (name "Net-(D1-Pad2)")
      (node (ref D1) (pin 2))
      (node (ref R46) (pin 2)))
    (net (code 10) (name "Net-(Q4-Pad1)")
      (node (ref Q4) (pin 1))
      (node (ref Q4) (pin 2))
      (node (ref Q4) (pin 3))
      (node (ref R3) (pin 1)))
    (net (code 11) (name +12V)
      (node (ref C69) (pin 1))
      (node (ref C100) (pin 2))
      (node (ref P32) (pin 1))
      (node (ref R65) (pin 1))
      (node (ref L2) (pin 2))
      (node (ref C35) (pin 1))
      (node (ref R47) (pin 1)))
    (net (code 12) (name "Net-(U7-Pad5)")
      (node (ref U7) (pin 5)))
    (net (code 13) (name "Net-(C6-Pad1)")
      (node (ref U7) (pin 4))
      (node (ref R33) (pin 1))
      (node (ref C6) (pin 1))
      (node (ref R32) (pin 2)))
    (net (code 14) (name +5VA)
      (node (ref Q4) (pin 5))
      (node (ref P33) (pin 1))
      (node (ref J2) (pin 2))
      (node (ref J2) (pin 4))
      (node (ref Q5) (pin 2)))
    (net (code 15) (name "Net-(C17-Pad1)")
      (node (ref C17) (pin 1))
      (node (ref U7) (pin 6)))
    (net (code 16) (name "Net-(C17-Pad2)")
      (node (ref C17) (pin 2))
      (node (ref U7) (pin 2))
      (node (ref L1) (pin 1))
      (node (ref C71) (pin 1)))
    (net (code 17) (name Vin)
      (node (ref U7) (pin 3))
      (node (ref C5) (pin 1))
      (node (ref C18) (pin 1))
      (node (ref R4) (pin 2))
      (node (ref C98) (pin 1))
      (node (ref P29) (pin 1))
      (node (ref C99) (pin 1))
      (node (ref C16) (pin 1))
      (node (ref C46) (pin 1))
      (node (ref Q16) (pin 6))
      (node (ref Q16) (pin 8))
      (node (ref Q16) (pin 5))
      (node (ref Q16) (pin 7))
      (node (ref U3) (pin 2)))
    (net (code 18) (name "Net-(D4-Pad2)")
      (node (ref R47) (pin 2))
      (node (ref D4) (pin 2)))
    (net (code 19) (name "Net-(C34-Pad1)")
      (node (ref C34) (pin 1))
      (node (ref R66) (pin 1)))
    (net (code 20) (name "Net-(C34-Pad2)")
      (node (ref U3) (pin 6))
      (node (ref C34) (pin 2)))
    (net (code 21) (name "Net-(C23-Pad1)")
      (node (ref U3) (pin 1))
      (node (ref C23) (pin 1)))
    (net (code 22) (name "Net-(R4-Pad1)")
      (node (ref R4) (pin 1))
      (node (ref U3) (pin 7)))
    (net (code 23) (name "Net-(R65-Pad2)")
      (node (ref R67) (pin 2))
      (node (ref R65) (pin 2))
      (node (ref U3) (pin 5)))
    (net (code 24) (name "Net-(C22-Pad1)")
      (node (ref U3) (pin 8))
      (node (ref C22) (pin 1)))
    (net (code 25) (name "Net-(U2-Pad6)")
      (node (ref U2) (pin 6))
      (node (ref U2) (pin 7)))
    (net (code 26) (name "Net-(C81-Pad2)")
      (node (ref C81) (pin 2))
      (node (ref U2) (pin 3))
      (node (ref U8) (pin 2)))
    (net (code 27) (name INTERLOCK1)
      (node (ref R2) (pin 1))
      (node (ref U5) (pin 4))
      (node (ref C4) (pin 2)))
    (net (code 28) (name INTERLOCK2)
      (node (ref R36) (pin 1))
      (node (ref C26) (pin 2))
      (node (ref U5) (pin 5)))
    (net (code 29) (name INTERLOCK3)
      (node (ref R54) (pin 1))
      (node (ref C27) (pin 2))
      (node (ref U5) (pin 6)))
    (net (code 30) (name INTERLOCK4)
      (node (ref U5) (pin 7))
      (node (ref R82) (pin 1))
      (node (ref C28) (pin 2)))
    (net (code 31) (name HOLD)
      (node (ref C82) (pin 2))
      (node (ref U8) (pin 6))
      (node (ref R71) (pin 1)))
    (net (code 32) (name "Net-(C24-Pad2)")
      (node (ref U9) (pin 6))
      (node (ref C24) (pin 2)))
    (net (code 33) (name "Net-(C24-Pad1)")
      (node (ref C24) (pin 1))
      (node (ref U9) (pin 7))
      (node (ref R1) (pin 2)))
    (net (code 34) (name "Net-(C84-Pad2)")
      (node (ref U10) (pin 2))
      (node (ref C84) (pin 2))
      (node (ref R49) (pin 1))
      (node (ref U8) (pin 3)))
    (net (code 35) (name "Net-(D8-Pad2)")
      (node (ref D8) (pin 2))
      (node (ref R74) (pin 1)))
    (net (code 36) (name "Net-(R71-Pad2)")
      (node (ref U8) (pin 7))
      (node (ref R71) (pin 2)))
    (net (code 37) (name "Net-(C78-Pad1)")
      (node (ref SW2) (pin 2))
      (node (ref C78) (pin 1))
      (node (ref U2) (pin 1))
      (node (ref P35) (pin 1))
      (node (ref R53) (pin 1))
      (node (ref R52) (pin 1))
      (node (ref R36) (pin 2)))
    (net (code 38) (name "Net-(D3-Pad2)")
      (node (ref R52) (pin 2))
      (node (ref D3) (pin 2)))
    (net (code 39) (name "Net-(D6-Pad2)")
      (node (ref R83) (pin 2))
      (node (ref D6) (pin 2)))
    (net (code 40) (name "Net-(D5-Pad2)")
      (node (ref D5) (pin 2))
      (node (ref R55) (pin 2)))
    (net (code 41) (name "Net-(D10-Pad1)")
      (node (ref U9) (pin 2))
      (node (ref D11) (pin 1))
      (node (ref P38) (pin 1))
      (node (ref D10) (pin 1))
      (node (ref R41) (pin 1))
      (node (ref D9) (pin 1)))
    (net (code 42) (name "Net-(C21-Pad1)")
      (node (ref R19) (pin 1))
      (node (ref R50) (pin 2))
      (node (ref C21) (pin 1))
      (node (ref U10) (pin 6)))
    (net (code 43) (name "Net-(C77-Pad2)")
      (node (ref R28) (pin 1))
      (node (ref P34) (pin 1))
      (node (ref R2) (pin 2))
      (node (ref SW1) (pin 2))
      (node (ref U2) (pin 2))
      (node (ref C77) (pin 2))
      (node (ref R35) (pin 1)))
    (net (code 44) (name "Net-(C79-Pad1)")
      (node (ref R81) (pin 1))
      (node (ref P36) (pin 1))
      (node (ref SW3) (pin 2))
      (node (ref C79) (pin 1))
      (node (ref R54) (pin 2))
      (node (ref U2) (pin 5))
      (node (ref R55) (pin 1)))
    (net (code 45) (name "Net-(D2-Pad2)")
      (node (ref D2) (pin 2))
      (node (ref R28) (pin 2)))
    (net (code 46) (name Z-STEP)
      (node (ref D11) (pin 2)))
    (net (code 47) (name Y-STEP)
      (node (ref D10) (pin 2)))
    (net (code 48) (name X-STEP)
      (node (ref D9) (pin 2)))
    (net (code 49) (name "/Interlock circuit/driver_EN")
      (node (ref R51) (pin 1))
      (node (ref P39) (pin 1))
      (node (ref C85) (pin 1)))
    (net (code 50) (name STEPPERRUN)
      (node (ref U8) (pin 5))
      (node (ref R74) (pin 2))
      (node (ref U9) (pin 5))
      (node (ref C83) (pin 1)))
    (net (code 51) (name Laser_PWM)
      (node (ref R44) (pin 1)))
    (net (code 52) (name 3V3_LDO)
      (node (ref U5) (pin 24))
      (node (ref P9) (pin 1))
      (node (ref R18) (pin 1))
      (node (ref C75) (pin 2))
      (node (ref SW3) (pin 1))
      (node (ref J2) (pin 17))
      (node (ref J2) (pin 1))
      (node (ref U2) (pin 8))
      (node (ref R50) (pin 1))
      (node (ref U9) (pin 8))
      (node (ref C11) (pin 1))
      (node (ref U2) (pin 8))
      (node (ref U8) (pin 8))
      (node (ref SW1) (pin 1))
      (node (ref U9) (pin 3))
      (node (ref SW4) (pin 1))
      (node (ref U8) (pin 8))
      (node (ref U10) (pin 8))
      (node (ref U10) (pin 8))
      (node (ref R38) (pin 1))
      (node (ref Q6) (pin 1))
      (node (ref SW2) (pin 1))
      (node (ref R1) (pin 1)))
    (net (code 53) (name "Net-(Q6-Pad3)")
      (node (ref R45) (pin 2))
      (node (ref R51) (pin 2))
      (node (ref Q6) (pin 3)))
    (net (code 54) (name "Net-(Q6-Pad2)")
      (node (ref R38) (pin 2))
      (node (ref Q6) (pin 2))
      (node (ref U10) (pin 3)))
    (net (code 55) (name "Net-(C73-Pad2)")
      (node (ref U10) (pin 1))
      (node (ref R44) (pin 2))
      (node (ref R48) (pin 2))
      (node (ref C73) (pin 2)))
    (net (code 56) (name "Net-(U10-Pad5)")
      (node (ref U10) (pin 5))
      (node (ref U10) (pin 7)))
    (net (code 57) (name "/Interlock circuit/IL4")
      (node (ref C80) (pin 1))
      (node (ref SW4) (pin 2))
      (node (ref R83) (pin 1))
      (node (ref U8) (pin 1))
      (node (ref R82) (pin 2))
      (node (ref R84) (pin 1))
      (node (ref P37) (pin 1)))
    (net (code 58) (name "Net-(J2-Pad24)")
      (node (ref J2) (pin 24)))
    (net (code 59) (name "Net-(J2-Pad22)")
      (node (ref J2) (pin 22)))
    (net (code 60) (name "Net-(J2-Pad18)")
      (node (ref J2) (pin 18)))
    (net (code 61) (name "Net-(J2-Pad16)")
      (node (ref J2) (pin 16)))
    (net (code 62) (name "Net-(J2-Pad27)")
      (node (ref J2) (pin 27)))
    (net (code 63) (name "Net-(J2-Pad28)")
      (node (ref J2) (pin 28)))
    (net (code 64) (name PCF_INT)
      (node (ref R18) (pin 2))
      (node (ref J2) (pin 11))
      (node (ref U5) (pin 1)))
    (net (code 65) (name "Net-(J2-Pad7)")
      (node (ref J2) (pin 7)))
    (net (code 66) (name "Net-(J2-Pad13)")
      (node (ref J2) (pin 13)))
    (net (code 67) (name "Net-(J2-Pad31)")
      (node (ref J2) (pin 31)))
    (net (code 68) (name "Net-(J2-Pad15)")
      (node (ref J2) (pin 15)))
    (net (code 69) (name "Net-(J2-Pad21)")
      (node (ref J2) (pin 21)))
    (net (code 70) (name "Net-(J2-Pad23)")
      (node (ref J2) (pin 23)))
    (net (code 71) (name "Net-(J2-Pad29)")
      (node (ref J2) (pin 29)))
    (net (code 72) (name "Net-(J2-Pad33)")
      (node (ref J2) (pin 33)))
    (net (code 73) (name "Net-(J2-Pad35)")
      (node (ref J2) (pin 35)))
    (net (code 74) (name "Net-(J2-Pad37)")
      (node (ref J2) (pin 37)))
    (net (code 75) (name "Net-(J2-Pad40)")
      (node (ref J2) (pin 40)))
    (net (code 76) (name "Net-(J2-Pad38)")
      (node (ref J2) (pin 38)))
    (net (code 77) (name "Net-(J2-Pad36)")
      (node (ref J2) (pin 36)))
    (net (code 78) (name "Net-(J2-Pad32)")
      (node (ref J2) (pin 32)))
    (net (code 79) (name "Net-(J2-Pad26)")
      (node (ref J2) (pin 26)))
    (net (code 80) (name TX_Rasp)
      (node (ref C88) (pin 2))
      (node (ref J2) (pin 8)))
    (net (code 81) (name LED_SPI_Rasp)
      (node (ref J2) (pin 19)))
    (net (code 82) (name RX_Rasp)
      (node (ref J2) (pin 10)))
    (net (code 83) (name LED_PWM_Rasp)
      (node (ref J2) (pin 12)))
    (net (code 84) (name SDA)
      (node (ref C87) (pin 2))
      (node (ref U5) (pin 23))
      (node (ref J2) (pin 3)))
    (net (code 85) (name SCL)
      (node (ref J2) (pin 5))
      (node (ref C86) (pin 2))
      (node (ref U5) (pin 22)))
    (net (code 86) (name "Net-(U5-Pad20)")
      (node (ref U5) (pin 20)))
    (net (code 87) (name "Net-(U5-Pad19)")
      (node (ref U5) (pin 19)))
    (net (code 88) (name "Net-(U5-Pad18)")
      (node (ref U5) (pin 18)))
    (net (code 89) (name "Net-(U5-Pad17)")
      (node (ref U5) (pin 17)))
    (net (code 90) (name "Net-(U5-Pad16)")
      (node (ref U5) (pin 16)))
    (net (code 91) (name "Net-(U5-Pad15)")
      (node (ref U5) (pin 15)))
    (net (code 92) (name "Net-(U5-Pad14)")
      (node (ref U5) (pin 14)))
    (net (code 93) (name "Net-(U5-Pad13)")
      (node (ref U5) (pin 13)))
    (net (code 94) (name "Net-(U5-Pad11)")
      (node (ref U5) (pin 11)))
    (net (code 95) (name "Net-(U5-Pad8)")
      (node (ref U5) (pin 8)))
    (net (code 96) (name "Net-(U5-Pad10)")
      (node (ref U5) (pin 10)))
    (net (code 97) (name "Net-(U5-Pad9)")
      (node (ref U5) (pin 9)))))