EESchema Schematic File Version 3
LIBS:Raspberry_Shield-rescue
LIBS:PCF8575
LIBS:74xgxx
LIBS:74xx
LIBS:ac-dc
LIBS:actel
LIBS:adc-dac
LIBS:Altera
LIBS:analog_devices
LIBS:analog_switches
LIBS:atmel
LIBS:audio
LIBS:brooktre
LIBS:cmos4000
LIBS:cmos_ieee
LIBS:conn
LIBS:contrib
LIBS:cypress
LIBS:dc-dc
LIBS:device
LIBS:digital-audio
LIBS:diode
LIBS:display
LIBS:dsp
LIBS:elec-unifil
LIBS:ESD_Protection
LIBS:ftdi
LIBS:gennum
LIBS:hc11
LIBS:intel
LIBS:interface
LIBS:ir
LIBS:Lattice
LIBS:linear
LIBS:maxim
LIBS:memory
LIBS:microchip
LIBS:microchip_dspic33dsc
LIBS:microchip_pic10mcu
LIBS:microchip_pic12mcu
LIBS:microchip_pic16mcu
LIBS:microchip_pic18mcu
LIBS:microchip_pic32mcu
LIBS:microcontrollers
LIBS:motor_drivers
LIBS:motorola
LIBS:msp430
LIBS:nordicsemi
LIBS:nxp_armmcu
LIBS:onsemi
LIBS:opto
LIBS:Oscillators
LIBS:philips
LIBS:power
LIBS:powerint
LIBS:Power_Management
LIBS:pspice
LIBS:references
LIBS:regul
LIBS:relays
LIBS:rfcom
LIBS:sensors
LIBS:silabs
LIBS:siliconi
LIBS:stm8
LIBS:stm32
LIBS:supertex
LIBS:switches
LIBS:texas
LIBS:transf
LIBS:transistors
LIBS:ttl_ieee
LIBS:valves
LIBS:video
LIBS:Worldsemi
LIBS:Xicor
LIBS:xilinx
LIBS:Zilog
LIBS:Symbols_DCDC-ACDC-Converter_RevC_20Jul2012
LIBS:Symbols_EN60617_13Mar2013
LIBS:Symbols_EN60617-10_HF-Radio_DRAFT_12Sep2013
LIBS:Symbols_ICs-Diskrete_RevD10
LIBS:Symbols_ICs-Opto_RevB_16Sep2013
LIBS:Symbols_Microcontroller_Philips-NXP_RevA_06Oct2013
LIBS:SymbolsSimilarEN60617+oldDIN617-RevE8
LIBS:Symbols_Socket-DIN41612_RevA
LIBS:Symbols_Transformer-Diskrete_RevA
LIBS:Atmega8
LIBS:74lvc1g32
LIBS:Raspberry_Shield-cache
EELAYER 26 0
EELAYER END
$Descr A4 11693 8268
encoding utf-8
Sheet 4 9
Title "Mr Beam 2.0 Raspberry Pi Shield"
Date "2017-05-03"
Rev "04"
Comp "Mr Beam Lasers UG"
Comment1 "Stepper Drivers"
Comment2 ""
Comment3 ""
Comment4 ""
$EndDescr
$Comp
L Vin #PWR027
U 1 1 579F44BA
P 4200 1275
F 0 "#PWR027" H 4200 1365 20  0001 C CNN
F 1 "Vin" H 4196 1413 30  0000 C CNN
F 2 "" H 4200 1275 60  0000 C CNN
F 3 "" H 4200 1275 60  0000 C CNN
	1    4200 1275
	1    0    0    -1  
$EndComp
$Comp
L GND-RESCUE-Raspberry_Shield-RESCUE-Raspberry_Shield #PWR028
U 1 1 579F6255
P 2225 3575
F 0 "#PWR028" H 2225 3325 50  0001 C CNN
F 1 "GND" H 2230 3402 50  0000 C CNN
F 2 "" H 2225 3575 50  0000 C CNN
F 3 "" H 2225 3575 50  0000 C CNN
	1    2225 3575
	1    0    0    -1  
$EndComp
$Comp
L GND-RESCUE-Raspberry_Shield-RESCUE-Raspberry_Shield #PWR029
U 1 1 579F6C3C
P 4110 3515
F 0 "#PWR029" H 4110 3265 50  0001 C CNN
F 1 "GND" H 4115 3342 50  0000 C CNN
F 2 "" H 4110 3515 50  0000 C CNN
F 3 "" H 4110 3515 50  0000 C CNN
	1    4110 3515
	1    0    0    -1  
$EndComp
$Comp
L C_Small C3
U 1 1 579F6CCD
P 4110 3205
F 0 "C3" H 4202 3251 50  0000 L CNN
F 1 "2.2µF 6.3V" H 4202 3160 50  0000 L CNN
F 2 "IPC7351-Nominal:CAPC1005X60" H 4110 3205 50  0001 C CNN
F 3 "" H 4110 3205 50  0000 C CNN
F 4 "GRM155R60J225KE95D" H 4110 3205 60  0001 C CNN "manf#"
	1    4110 3205
	1    0    0    -1  
$EndComp
$Comp
L R_Small R20
U 1 1 579F6D62
P 4575 3040
F 0 "R20" H 4634 3086 50  0000 L CNN
F 1 "0.30" H 4634 2995 50  0000 L CNN
F 2 "Resistors_SMD:R_0805" H 4575 3040 50  0001 C CNN
F 3 "" H 4575 3040 50  0000 C CNN
F 4 "RL12S.30FCT-ND" H 4575 3040 60  0001 C CNN "digikey#"
F 5 "RL1220S-R30-F" H 4575 3040 60  0001 C CNN "manf#"
	1    4575 3040
	1    0    0    -1  
$EndComp
$Comp
L R_Small R22
U 1 1 579F6D8B
P 5320 3270
F 0 "R22" H 5379 3316 50  0000 L CNN
F 1 "0.30" H 5379 3225 50  0000 L CNN
F 2 "Resistors_SMD:R_0805" H 5320 3270 50  0001 C CNN
F 3 "" H 5320 3270 50  0000 C CNN
F 4 "RL12S.30FCT-ND" H 5320 3270 60  0001 C CNN "digikey#"
F 5 "RL1220S-R30-F" H 5320 3270 60  0001 C CNN "manf#"
	1    5320 3270
	1    0    0    -1  
$EndComp
Text Notes 3150 925  0    60   ~ 0
X-Achse
Text Label 4075 2500 0    60   ~ 0
X-1B
Text Label 4075 2400 0    60   ~ 0
X-1A
Text Label 4075 2300 0    60   ~ 0
X-2A
Text Label 4075 2600 0    60   ~ 0
X-2B
$Comp
L C_Small C1
U 1 1 579F8429
P 3325 1500
F 0 "C1" V 3096 1500 50  0000 C CNN
F 1 "22nF" V 3200 1500 50  0000 C CNN
F 2 "IPC7351-Nominal:CAPC1005X60" H 3325 1500 50  0001 C CNN
F 3 "" H 3325 1500 50  0000 C CNN
F 4 "GRM155R71H223KA12J" H 3325 1500 60  0001 C CNN "manf#"
	1    3325 1500
	0    1    1    0   
$EndComp
$Comp
L R_Small R10
U 1 1 579F9029
P 1850 2575
F 0 "R10" H 1909 2621 50  0000 L CNN
F 1 "100k" H 1909 2530 50  0000 L CNN
F 2 "IPC7351-Nominal:RESC1005X40" H 1850 2575 50  0001 C CNN
F 3 "" H 1850 2575 50  0000 C CNN
F 4 "RC1005F104CS" H 1850 2575 60  0001 C CNN "manf#"
	1    1850 2575
	1    0    0    -1  
$EndComp
$Comp
L GND-RESCUE-Raspberry_Shield-RESCUE-Raspberry_Shield #PWR030
U 1 1 579F9164
P 1850 2775
F 0 "#PWR030" H 1850 2525 50  0001 C CNN
F 1 "GND" H 1850 2625 50  0000 C CNN
F 2 "" H 1850 2775 50  0000 C CNN
F 3 "" H 1850 2775 50  0000 C CNN
	1    1850 2775
	1    0    0    -1  
$EndComp
Text Label 2200 2400 0    60   ~ 0
X-EN
$Comp
L R_Small R6
U 1 1 579F95E2
P 1525 3000
F 0 "R6" H 1584 3046 50  0000 L CNN
F 1 "NC" H 1584 2955 50  0000 L CNN
F 2 "Resistors_SMD:R_0402" H 1525 3000 50  0001 C CNN
F 3 "" H 1525 3000 50  0000 C CNN
	1    1525 3000
	1    0    0    -1  
$EndComp
$Comp
L R_Small R7
U 1 1 579F96CE
P 1525 3350
F 0 "R7" H 1584 3396 50  0000 L CNN
F 1 "NC" H 1584 3305 50  0000 L CNN
F 2 "Resistors_SMD:R_0402" H 1525 3350 50  0001 C CNN
F 3 "" H 1525 3350 50  0000 C CNN
	1    1525 3350
	1    0    0    -1  
$EndComp
Text Label 2200 2500 0    60   ~ 0
X-MS1
Text Label 2200 2600 0    60   ~ 0
X-MS2
Text Label 1265 1800 0    60   ~ 0
X-STEP
Text Label 2200 1900 0    60   ~ 0
X-DIR
$Comp
L Vin #PWR031
U 1 1 57A0EB33
P 9325 1250
F 0 "#PWR031" H 9325 1340 20  0001 C CNN
F 1 "Vin" H 9321 1388 30  0000 C CNN
F 2 "" H 9325 1250 60  0000 C CNN
F 3 "" H 9325 1250 60  0000 C CNN
	1    9325 1250
	1    0    0    -1  
$EndComp
$Comp
L GND-RESCUE-Raspberry_Shield-RESCUE-Raspberry_Shield #PWR032
U 1 1 57A0EB45
P 7350 3525
F 0 "#PWR032" H 7350 3275 50  0001 C CNN
F 1 "GND" H 7355 3352 50  0000 C CNN
F 2 "" H 7350 3525 50  0000 C CNN
F 3 "" H 7350 3525 50  0000 C CNN
	1    7350 3525
	1    0    0    -1  
$EndComp
$Comp
L GND-RESCUE-Raspberry_Shield-RESCUE-Raspberry_Shield #PWR033
U 1 1 57A0EB4B
P 9135 3470
F 0 "#PWR033" H 9135 3220 50  0001 C CNN
F 1 "GND" H 9140 3297 50  0000 C CNN
F 2 "" H 9135 3470 50  0000 C CNN
F 3 "" H 9135 3470 50  0000 C CNN
	1    9135 3470
	1    0    0    -1  
$EndComp
$Comp
L C_Small C12
U 1 1 57A0EB53
P 9135 3150
F 0 "C12" H 9227 3196 50  0000 L CNN
F 1 "2.2µF" H 9227 3105 50  0000 L CNN
F 2 "IPC7351-Nominal:CAPC1005X60" H 9135 3150 50  0001 C CNN
F 3 "" H 9135 3150 50  0000 C CNN
F 4 "GRM155R60J225KE95D" H 9135 3150 60  0001 C CNN "manf#"
	1    9135 3150
	1    0    0    -1  
$EndComp
$Comp
L R_Small R29
U 1 1 57A0EB5D
P 9545 3035
F 0 "R29" H 9604 3081 50  0000 L CNN
F 1 "0.30" H 9604 2990 50  0000 L CNN
F 2 "Resistors_SMD:R_0805" H 9545 3035 50  0001 C CNN
F 3 "" H 9545 3035 50  0000 C CNN
F 4 "RL12S.30FCT-ND" H 9545 3035 60  0001 C CNN "digikey#"
F 5 "RL1220S-R30-F" H 9545 3035 60  0001 C CNN "manf#"
	1    9545 3035
	1    0    0    -1  
$EndComp
$Comp
L R_Small R30
U 1 1 57A0EB63
P 10280 3040
F 0 "R30" H 10339 3086 50  0000 L CNN
F 1 "0.30" H 10339 2995 50  0000 L CNN
F 2 "Resistors_SMD:R_0805" H 10280 3040 50  0001 C CNN
F 3 "" H 10280 3040 50  0000 C CNN
F 4 "RL12S.30FCT-ND" H 10280 3040 60  0001 C CNN "digikey#"
F 5 "RL1220S-R30-F" H 10280 3040 60  0001 C CNN "manf#"
	1    10280 3040
	1    0    0    -1  
$EndComp
Text Notes 8275 925  0    60   ~ 0
Y-Achse
Text Label 9250 2450 0    60   ~ 0
Y-1B
Text Label 9250 2350 0    60   ~ 0
Y-1A
Text Label 9250 2250 0    60   ~ 0
Y-2A
Text Label 9250 2550 0    60   ~ 0
Y-2B
$Comp
L C_Small C13
U 1 1 57A0EB8A
P 9525 1825
F 0 "C13" H 9617 1871 50  0000 L CNN
F 1 "0.1µF 50V" H 9617 1780 50  0000 L CNN
F 2 "IPC7351-Nominal:CAPC1005X60" H 9525 1825 50  0001 C CNN
F 3 "" H 9525 1825 50  0000 C CNN
F 4 "GRM155R61H104ME14D" H 9525 1825 60  0001 C CNN "manf#"
	1    9525 1825
	1    0    0    -1  
$EndComp
$Comp
L C_Small C10
U 1 1 57A0EB95
P 8450 1450
F 0 "C10" V 8221 1450 50  0000 C CNN
F 1 "22nF" V 8312 1450 50  0000 C CNN
F 2 "IPC7351-Nominal:CAPC1005X60" H 8450 1450 50  0001 C CNN
F 3 "" H 8450 1450 50  0000 C CNN
F 4 "GRM155R71H223KA12J" H 8450 1450 60  0001 C CNN "manf#"
	1    8450 1450
	0    1    1    0   
$EndComp
$Comp
L R_Small R27
U 1 1 57A0EBA4
P 7000 2500
F 0 "R27" H 7059 2546 50  0000 L CNN
F 1 "100k" H 7059 2455 50  0000 L CNN
F 2 "IPC7351-Nominal:RESC1005X40" H 7000 2500 50  0001 C CNN
F 3 "" H 7000 2500 50  0000 C CNN
F 4 "RC1005F104CS" H 7000 2500 60  0001 C CNN "manf#"
	1    7000 2500
	1    0    0    -1  
$EndComp
$Comp
L GND-RESCUE-Raspberry_Shield-RESCUE-Raspberry_Shield #PWR034
U 1 1 57A0EBAC
P 7000 2700
F 0 "#PWR034" H 7000 2450 50  0001 C CNN
F 1 "GND" H 7005 2527 50  0000 C CNN
F 2 "" H 7000 2700 50  0000 C CNN
F 3 "" H 7000 2700 50  0000 C CNN
	1    7000 2700
	1    0    0    -1  
$EndComp
Text Label 7000 2350 0    60   ~ 0
Y-EN
$Comp
L R_Small R25
U 1 1 57A0EBBA
P 6650 2950
F 0 "R25" H 6709 2996 50  0000 L CNN
F 1 "NC" H 6709 2905 50  0000 L CNN
F 2 "Resistors_SMD:R_0402" H 6650 2950 50  0001 C CNN
F 3 "" H 6650 2950 50  0000 C CNN
	1    6650 2950
	1    0    0    -1  
$EndComp
$Comp
L R_Small R26
U 1 1 57A0EBC2
P 6650 3300
F 0 "R26" H 6709 3346 50  0000 L CNN
F 1 "NC" H 6709 3255 50  0000 L CNN
F 2 "Resistors_SMD:R_0402" H 6650 3300 50  0001 C CNN
F 3 "" H 6650 3300 50  0000 C CNN
	1    6650 3300
	1    0    0    -1  
$EndComp
Text Label 7325 2450 0    60   ~ 0
Y-MS1
Text Label 7325 2550 0    60   ~ 0
Y-MS2
Text Label 6955 1750 0    60   ~ 0
Y-STEP
Text Label 7325 1850 0    60   ~ 0
Y-DIR
$Comp
L Vin #PWR035
U 1 1 57A0FCE9
P 4200 4625
F 0 "#PWR035" H 4200 4715 20  0001 C CNN
F 1 "Vin" H 4196 4763 30  0000 C CNN
F 2 "" H 4200 4625 60  0000 C CNN
F 3 "" H 4200 4625 60  0000 C CNN
	1    4200 4625
	1    0    0    -1  
$EndComp
$Comp
L GND-RESCUE-Raspberry_Shield-RESCUE-Raspberry_Shield #PWR036
U 1 1 57A0FCFB
P 2225 6900
F 0 "#PWR036" H 2225 6650 50  0001 C CNN
F 1 "GND" H 2230 6727 50  0000 C CNN
F 2 "" H 2225 6900 50  0000 C CNN
F 3 "" H 2225 6900 50  0000 C CNN
	1    2225 6900
	1    0    0    -1  
$EndComp
$Comp
L GND-RESCUE-Raspberry_Shield-RESCUE-Raspberry_Shield #PWR037
U 1 1 57A0FD01
P 4030 6850
F 0 "#PWR037" H 4030 6600 50  0001 C CNN
F 1 "GND" H 4035 6677 50  0000 C CNN
F 2 "" H 4030 6850 50  0000 C CNN
F 3 "" H 4030 6850 50  0000 C CNN
	1    4030 6850
	1    0    0    -1  
$EndComp
$Comp
L C_Small C7
U 1 1 57A0FD09
P 4030 6545
F 0 "C7" H 4122 6591 50  0000 L CNN
F 1 "2.2µF 6.3V" H 4122 6500 50  0000 L CNN
F 2 "IPC7351-Nominal:CAPC1005X60" H 4030 6545 50  0001 C CNN
F 3 "" H 4030 6545 50  0000 C CNN
F 4 "nicht_bestueckt" H 4030 6545 60  0001 C CNN "manf#"
	1    4030 6545
	1    0    0    -1  
$EndComp
$Comp
L R_Small R21
U 1 1 57A0FD13
P 4460 6390
F 0 "R21" H 4519 6436 50  0000 L CNN
F 1 "0.30" H 4519 6345 50  0000 L CNN
F 2 "Resistors_SMD:R_0805" H 4460 6390 50  0001 C CNN
F 3 "" H 4460 6390 50  0000 C CNN
F 4 "nicht_bestueckt" H 4460 6390 60  0001 C CNN "manf#"
	1    4460 6390
	1    0    0    -1  
$EndComp
$Comp
L R_Small R23
U 1 1 57A0FD19
P 5165 6405
F 0 "R23" H 5224 6451 50  0000 L CNN
F 1 "0.3" H 5224 6360 50  0000 L CNN
F 2 "Resistors_SMD:R_0805" H 5165 6405 50  0001 C CNN
F 3 "" H 5165 6405 50  0000 C CNN
F 4 "nicht_bestueckt" H 5165 6405 60  0001 C CNN "manf#"
	1    5165 6405
	1    0    0    -1  
$EndComp
$Comp
L CONN_01X04 P6
U 1 1 57A0FD25
P 7710 5735
F 0 "P6" H 7788 5776 50  0000 L CNN
F 1 "Stepper_Z-Achse" H 7360 6010 50  0000 L CNN
F 2 "LHE-PH-NAB_[JS]:PH-4AB" H 7710 5735 50  0001 C CNN
F 3 "" H 7710 5735 50  0000 C CNN
F 4 "nicht_bestueckt" H 7710 5735 60  0001 C CNN "manf#"
	1    7710 5735
	1    0    0    -1  
$EndComp
Text Notes 3150 4300 0    60   ~ 0
Z-Achse
Text Label 4125 5825 0    60   ~ 0
Z-1B
Text Label 4125 5725 0    60   ~ 0
Z-1A
Text Label 4125 5625 0    60   ~ 0
Z-2A
Text Label 4125 5925 0    60   ~ 0
Z-2B
$Comp
L C_Small C9
U 1 1 57A0FD40
P 4400 5200
F 0 "C9" H 4492 5246 50  0000 L CNN
F 1 "0.1µF 50V" H 4492 5155 50  0000 L CNN
F 2 "IPC7351-Nominal:CAPC1005X60" H 4400 5200 50  0001 C CNN
F 3 "" H 4400 5200 50  0000 C CNN
F 4 "nicht_bestueckt" H 4400 5200 60  0001 C CNN "manf#"
	1    4400 5200
	1    0    0    -1  
$EndComp
$Comp
L C_Small C2
U 1 1 57A0FD4B
P 3325 4825
F 0 "C2" V 3096 4825 50  0000 C CNN
F 1 "22nF" V 3187 4825 50  0000 C CNN
F 2 "IPC7351-Nominal:CAPC1005X60" H 3325 4825 50  0001 C CNN
F 3 "" H 3325 4825 50  0000 C CNN
F 4 "nicht_bestueckt" H 3325 4825 60  0001 C CNN "manf#"
	1    3325 4825
	0    1    1    0   
$EndComp
$Comp
L R_Small R11
U 1 1 57A0FD5A
P 1875 5900
F 0 "R11" H 1934 5946 50  0000 L CNN
F 1 "100k" H 1934 5855 50  0000 L CNN
F 2 "IPC7351-Nominal:RESC1005X40" H 1875 5900 50  0001 C CNN
F 3 "" H 1875 5900 50  0000 C CNN
F 4 "nicht_bestueckt" H 1875 5900 60  0001 C CNN "manf#"
	1    1875 5900
	1    0    0    -1  
$EndComp
$Comp
L GND-RESCUE-Raspberry_Shield-RESCUE-Raspberry_Shield #PWR038
U 1 1 57A0FD62
P 1875 6100
F 0 "#PWR038" H 1875 5850 50  0001 C CNN
F 1 "GND" H 1880 5927 50  0000 C CNN
F 2 "" H 1875 6100 50  0000 C CNN
F 3 "" H 1875 6100 50  0000 C CNN
	1    1875 6100
	1    0    0    -1  
$EndComp
$Comp
L R_Small R8
U 1 1 57A0FD70
P 1525 6325
F 0 "R8" H 1584 6371 50  0000 L CNN
F 1 "15k" H 1584 6280 50  0000 L CNN
F 2 "Resistors_SMD:R_0402" H 1525 6325 50  0001 C CNN
F 3 "" H 1525 6325 50  0000 C CNN
F 4 "311-15KJRCT-ND" H 1525 6325 60  0001 C CNN "digikey#"
F 5 "nicht_bestueckt" H 1525 6325 60  0001 C CNN "manf#"
	1    1525 6325
	1    0    0    -1  
$EndComp
$Comp
L R_Small R9
U 1 1 57A0FD78
P 1525 6675
F 0 "R9" H 1584 6721 50  0000 L CNN
F 1 "4k99" H 1584 6630 50  0000 L CNN
F 2 "Resistors_SMD:R_0402" H 1525 6675 50  0001 C CNN
F 3 "" H 1525 6675 50  0000 C CNN
F 4 "1276-3468-1-ND" H 1525 6675 60  0001 C CNN "digikey#"
F 5 "nicht_bestueckt" H 1525 6675 60  0001 C CNN "manf#"
	1    1525 6675
	1    0    0    -1  
$EndComp
Text Label 2200 5825 0    60   ~ 0
Z-MS1
Text Label 2200 5925 0    60   ~ 0
Z-MS2
Text GLabel 7650 4200 0    60   Input ~ 0
STEP_EN
Text GLabel 8800 4750 0    60   Input ~ 0
Z-DIR
Text GLabel 8800 4400 0    60   Input ~ 0
Y-DIR
Text GLabel 8775 4050 0    60   Input ~ 0
X-DIR
Text GLabel 8800 4850 0    60   Input ~ 0
Z-STEP
Text GLabel 8800 4500 0    60   Input ~ 0
Y-STEP
Text GLabel 8775 4150 0    60   Input ~ 0
X-STEP
Text Label 2015 5225 0    60   ~ 0
Z-DIR
Text Label 1135 5125 0    60   ~ 0
Z-STEP
Text Label 10750 4175 0    60   ~ 0
Z-MS1
Text Label 10750 4275 0    60   ~ 0
Z-MS2
Text Label 8900 4750 0    60   ~ 0
Z-DIR
Text Label 8900 4850 0    60   ~ 0
Z-STEP
Text Label 10750 5675 0    60   ~ 0
X-MS1
Text Label 10750 5775 0    60   ~ 0
X-MS2
Text Label 8900 4150 0    60   ~ 0
X-STEP
Text Label 8900 4050 0    60   ~ 0
X-DIR
Text Label 10750 4925 0    60   ~ 0
Y-MS1
Text Label 10750 5025 0    60   ~ 0
Y-MS2
Text Label 8900 4500 0    60   ~ 0
Y-STEP
Text Label 8900 4400 0    60   ~ 0
Y-DIR
Text Label 7950 4200 0    60   ~ 0
Y-EN
Text Label 7950 4400 0    60   ~ 0
Z-EN
Text Label 7950 4000 0    60   ~ 0
X-EN
Text GLabel 4350 2500 2    60   Input ~ 0
X-1B
Text GLabel 4350 2400 2    60   Input ~ 0
X-1A
Text GLabel 4350 2300 2    60   Input ~ 0
X-2A
Text GLabel 4350 2600 2    60   Input ~ 0
X-2B
Text Label 7510 5785 2    60   ~ 0
Z-1B
Text Label 7510 5685 2    60   ~ 0
Z-1A
Text Label 7510 5885 2    60   ~ 0
Z-2B
Text Label 7510 5585 2    60   ~ 0
Z-2A
$Comp
L CONN_01X04 P3
U 1 1 57A4DFA2
P 7000 4825
F 0 "P3" H 7078 4866 50  0000 L CNN
F 1 "Stepper_Y-Achse" H 6650 5100 50  0000 L CNN
F 2 "LHE-PH-NAB_[JS]:PH-4AB" H 7000 4825 50  0001 C CNN
F 3 "" H 7000 4825 50  0000 C CNN
F 4 "68016-204HLF" H 7000 4825 60  0001 C CNN "manf#"
	1    7000 4825
	1    0    0    -1  
$EndComp
Text Label 6800 4875 2    60   ~ 0
Y-1B
Text Label 6800 4775 2    60   ~ 0
Y-1A
Text Label 6800 4675 2    60   ~ 0
Y-2A
Text Label 6800 4975 2    60   ~ 0
Y-2B
$Comp
L GND-RESCUE-Raspberry_Shield-RESCUE-Raspberry_Shield #PWR039
U 1 1 57D81702
P 1750 1675
F 0 "#PWR039" H 1750 1425 50  0001 C CNN
F 1 "GND" H 1755 1502 50  0000 C CNN
F 2 "" H 1750 1675 50  0000 C CNN
F 3 "" H 1750 1675 50  0000 C CNN
	1    1750 1675
	1    0    0    -1  
$EndComp
$Comp
L CONN_01X04 P7
U 1 1 57D7DD58
P 9650 5850
F 0 "P7" H 9728 5891 50  0000 L CNN
F 1 "Stepper_X-Achse" H 9100 6125 50  0000 L CNN
F 2 "LHE-PH-NAB_[JS]:PH-4AB" H 9650 5850 50  0001 C CNN
F 3 "" H 9650 5850 50  0000 C CNN
F 4 "68016-204HLF" H 9650 5850 60  0001 C CNN "manf#"
	1    9650 5850
	1    0    0    -1  
$EndComp
Text Label 9450 5900 2    60   ~ 0
X-1B
Text Label 9450 5800 2    60   ~ 0
X-1A
Text Label 9450 5700 2    60   ~ 0
X-2A
Text Label 9450 6000 2    60   ~ 0
X-2B
$Comp
L CONN_01X01 P24
U 1 1 5835D6A7
P 9475 4150
F 0 "P24" H 9550 4150 50  0000 L CNN
F 1 "Testpad" H 9725 4150 50  0000 L CNN
F 2 "w_details:testpoint_2mm" H 9475 4150 50  0001 C CNN
F 3 "" H 9475 4150 50  0000 C CNN
	1    9475 4150
	1    0    0    -1  
$EndComp
$Comp
L CONN_01X01 P23
U 1 1 5835D710
P 9475 4050
F 0 "P23" H 9550 4050 50  0000 L CNN
F 1 "Testpad" H 9725 4075 50  0000 L CNN
F 2 "w_details:testpoint_2mm" H 9475 4050 50  0001 C CNN
F 3 "" H 9475 4050 50  0000 C CNN
	1    9475 4050
	1    0    0    -1  
$EndComp
$Comp
L CONN_01X01 P26
U 1 1 5835DB8A
P 9475 4500
F 0 "P26" H 9550 4500 50  0000 L CNN
F 1 "Testpad" H 9725 4500 50  0000 L CNN
F 2 "w_details:testpoint_2mm" H 9475 4500 50  0001 C CNN
F 3 "" H 9475 4500 50  0000 C CNN
	1    9475 4500
	1    0    0    -1  
$EndComp
$Comp
L CONN_01X01 P25
U 1 1 5835DB90
P 9475 4400
F 0 "P25" H 9550 4400 50  0000 L CNN
F 1 "Testpad" H 9725 4425 50  0000 L CNN
F 2 "w_details:testpoint_2mm" H 9475 4400 50  0001 C CNN
F 3 "" H 9475 4400 50  0000 C CNN
	1    9475 4400
	1    0    0    -1  
$EndComp
$Comp
L CONN_01X01 P28
U 1 1 5835DCB6
P 9475 4850
F 0 "P28" H 9550 4850 50  0000 L CNN
F 1 "Testpad" H 9725 4850 50  0000 L CNN
F 2 "w_details:testpoint_2mm" H 9475 4850 50  0001 C CNN
F 3 "" H 9475 4850 50  0000 C CNN
	1    9475 4850
	1    0    0    -1  
$EndComp
$Comp
L CONN_01X01 P27
U 1 1 5835DCBC
P 9475 4750
F 0 "P27" H 9550 4750 50  0000 L CNN
F 1 "Testpad" H 9725 4750 50  0000 L CNN
F 2 "w_details:testpoint_2mm" H 9475 4750 50  0001 C CNN
F 3 "" H 9475 4750 50  0000 C CNN
	1    9475 4750
	1    0    0    -1  
$EndComp
$Comp
L TMC2208 U6
U 1 1 584AE52B
P 3325 2400
F 0 "U6" H 3325 2125 60  0000 C CNN
F 1 "TMC2208" H 3325 2400 60  0000 C CNN
F 2 "IPC7351-Most:QFN50P500X500X100-29V1" H 3325 2400 60  0001 C CNN
F 3 "" H 3325 2400 60  0001 C CNN
F 4 "TMC2208-LA-T" H 3325 2400 60  0001 C CNN "manf#"
	1    3325 2400
	1    0    0    -1  
$EndComp
NoConn ~ 2675 2000
NoConn ~ 2675 2100
$Comp
L TMC2208 U4
U 1 1 5850B71F
P 8450 2350
F 0 "U4" H 8450 2075 60  0000 C CNN
F 1 "TMC2208" H 8450 2350 60  0000 C CNN
F 2 "IPC7351-Most:QFN50P500X500X100-29V1" H 8450 2350 60  0001 C CNN
F 3 "" H 8450 2350 60  0001 C CNN
F 4 "TMC2208-LA-T" H 8450 2350 60  0001 C CNN "manf#"
	1    8450 2350
	1    0    0    -1  
$EndComp
$Comp
L TMC2208 U1
U 1 1 5850C3DB
P 3325 5725
F 0 "U1" H 3325 5450 60  0000 C CNN
F 1 "TMC2208" H 3325 5725 60  0000 C CNN
F 2 "IPC7351-Most:QFN50P500X500X100-29V1" H 3325 5725 60  0001 C CNN
F 3 "" H 3325 5725 60  0001 C CNN
F 4 "nicht_bestueckt" H 3325 5725 60  0001 C CNN "manf#"
	1    3325 5725
	1    0    0    -1  
$EndComp
NoConn ~ 7800 1950
NoConn ~ 7800 2050
Text Label 2200 5725 0    60   ~ 0
Z-EN
NoConn ~ 2675 5425
NoConn ~ 2675 5325
$Comp
L C_Small C45
U 1 1 584F185E
P 1750 1425
F 0 "C45" H 1842 1471 50  0000 L CNN
F 1 "0.1µF 50V" H 1842 1380 50  0000 L CNN
F 2 "IPC7351-Nominal:CAPC1005X60" H 1750 1425 50  0001 C CNN
F 3 "" H 1750 1425 50  0000 C CNN
F 4 "GRM155R61H104ME14D" H 1750 1425 60  0001 C CNN "manf#"
	1    1750 1425
	1    0    0    -1  
$EndComp
$Comp
L C_Small C36
U 1 1 57D80A0D
P 2150 1425
F 0 "C36" H 2225 1475 50  0000 L CNN
F 1 "4.7µF 50V" H 2225 1375 50  0000 L CNN
F 2 "IPC7351-Nominal:RESC2012X60" H 2150 1425 50  0001 C CNN
F 3 "" H 2150 1425 50  0000 C CNN
F 4 "GRM21BR61H475KE51L" H 2150 1425 60  0001 C CNN "manf#"
	1    2150 1425
	1    0    0    -1  
$EndComp
$Comp
L CP1_Small C37
U 1 1 57D833C6
P 2525 1425
F 0 "C37" H 2675 1475 50  0000 C CNN
F 1 "100µF" H 2725 1375 50  0000 C CNN
F 2 "Capacitors_SMD:c_elec_6.3x7.7" H 2525 1425 50  0001 C CNN
F 3 "" H 2525 1425 50  0000 C CNN
F 4 "1189-2119-1-ND" V 2525 1425 60  0001 C CNN "digikey#"
F 5 "35TZV100M6.3X8" H 2525 1425 60  0001 C CNN "manf#"
	1    2525 1425
	1    0    0    -1  
$EndComp
$Comp
L C_Small C8
U 1 1 579F8011
P 4400 1875
F 0 "C8" H 4492 1921 50  0000 L CNN
F 1 "0.1µF 50V" H 4492 1830 50  0000 L CNN
F 2 "IPC7351-Nominal:CAPC1005X60" H 4400 1875 50  0001 C CNN
F 3 "" H 4400 1875 50  0000 C CNN
F 4 "GRM155R61H104ME14D" H 4400 1875 60  0001 C CNN "manf#"
	1    4400 1875
	1    0    0    -1  
$EndComp
$Comp
L C_Small C43
U 1 1 584FAA67
P 1350 1425
F 0 "C43" H 1442 1471 50  0000 L CNN
F 1 "0.1µF 50V" H 1442 1380 50  0000 L CNN
F 2 "IPC7351-Nominal:CAPC1005X60" H 1350 1425 50  0001 C CNN
F 3 "" H 1350 1425 50  0000 C CNN
F 4 "GRM155R61H104ME14D" H 1350 1425 60  0001 C CNN "manf#"
	1    1350 1425
	1    0    0    -1  
$EndComp
$Comp
L Vin #PWR040
U 1 1 585009ED
P 1750 1175
F 0 "#PWR040" H 1750 1265 20  0001 C CNN
F 1 "Vin" H 1746 1313 30  0000 C CNN
F 2 "" H 1750 1175 60  0000 C CNN
F 3 "" H 1750 1175 60  0000 C CNN
	1    1750 1175
	1    0    0    -1  
$EndComp
$Comp
L GND-RESCUE-Raspberry_Shield-RESCUE-Raspberry_Shield #PWR041
U 1 1 58504357
P 1700 5010
F 0 "#PWR041" H 1700 4760 50  0001 C CNN
F 1 "GND" H 1705 4837 50  0000 C CNN
F 2 "" H 1700 5010 50  0000 C CNN
F 3 "" H 1700 5010 50  0000 C CNN
	1    1700 5010
	1    0    0    -1  
$EndComp
$Comp
L C_Small C44
U 1 1 5850435D
P 1700 4800
F 0 "C44" H 1792 4846 50  0000 L CNN
F 1 "0.1µF 50V" V 1590 4610 50  0000 L CNN
F 2 "IPC7351-Nominal:CAPC1005X60" H 1700 4800 50  0001 C CNN
F 3 "" H 1700 4800 50  0000 C CNN
F 4 "nicht_bestueckt" H 1700 4800 60  0001 C CNN "manf#"
	1    1700 4800
	1    0    0    -1  
$EndComp
$Comp
L C_Small C38
U 1 1 58504364
P 2100 4800
F 0 "C38" H 2175 4850 50  0000 L CNN
F 1 "4.7µF 50V" V 2000 4620 50  0000 L CNN
F 2 "IPC7351-Nominal:RESC2012X60" H 2100 4800 50  0001 C CNN
F 3 "" H 2100 4800 50  0000 C CNN
F 4 "nicht_bestueckt" H 2100 4800 60  0001 C CNN "manf#"
	1    2100 4800
	1    0    0    -1  
$EndComp
$Comp
L CP1_Small C39
U 1 1 5850436C
P 2475 4800
F 0 "C39" H 2625 4850 50  0000 C CNN
F 1 "100µF" H 2675 4750 50  0000 C CNN
F 2 "Capacitors_SMD:c_elec_6.3x7.7" H 2475 4800 50  0001 C CNN
F 3 "" H 2475 4800 50  0000 C CNN
F 4 "1189-2119-1-ND" V 2475 4800 60  0001 C CNN "digikey#"
F 5 "nicht_bestueckt" H 2475 4800 60  0001 C CNN "manf#"
	1    2475 4800
	1    0    0    -1  
$EndComp
$Comp
L C_Small C42
U 1 1 58504383
P 1300 4800
F 0 "C42" H 1392 4846 50  0000 L CNN
F 1 "0.1µF 50V" V 1180 4610 50  0000 L CNN
F 2 "IPC7351-Nominal:CAPC1005X60" H 1300 4800 50  0001 C CNN
F 3 "" H 1300 4800 50  0000 C CNN
F 4 "nicht_bestueckt" H 1300 4800 60  0001 C CNN "manf#"
	1    1300 4800
	1    0    0    -1  
$EndComp
$Comp
L Vin #PWR042
U 1 1 5850438C
P 1700 4550
F 0 "#PWR042" H 1700 4640 20  0001 C CNN
F 1 "Vin" H 1696 4688 30  0000 C CNN
F 2 "" H 1700 4550 60  0000 C CNN
F 3 "" H 1700 4550 60  0000 C CNN
	1    1700 4550
	1    0    0    -1  
$EndComp
$Comp
L GND-RESCUE-Raspberry_Shield-RESCUE-Raspberry_Shield #PWR043
U 1 1 5850565B
P 6825 1650
F 0 "#PWR043" H 6825 1400 50  0001 C CNN
F 1 "GND" H 6830 1477 50  0000 C CNN
F 2 "" H 6825 1650 50  0000 C CNN
F 3 "" H 6825 1650 50  0000 C CNN
	1    6825 1650
	1    0    0    -1  
$EndComp
$Comp
L C_Small C50
U 1 1 58505661
P 6825 1400
F 0 "C50" H 6917 1446 50  0000 L CNN
F 1 "0.1µF 50V" H 6917 1355 50  0000 L CNN
F 2 "IPC7351-Nominal:CAPC1005X60" H 6825 1400 50  0001 C CNN
F 3 "" H 6825 1400 50  0000 C CNN
F 4 "GRM155R61H104ME14D" H 6825 1400 60  0001 C CNN "manf#"
	1    6825 1400
	1    0    0    -1  
$EndComp
$Comp
L C_Small C40
U 1 1 58505668
P 7225 1400
F 0 "C40" H 7300 1450 50  0000 L CNN
F 1 "4.7µF 50V" H 7300 1350 50  0000 L CNN
F 2 "IPC7351-Nominal:RESC2012X60" H 7225 1400 50  0001 C CNN
F 3 "" H 7225 1400 50  0000 C CNN
F 4 "GRM21BR61H475KE51L" H 7225 1400 60  0001 C CNN "manf#"
	1    7225 1400
	1    0    0    -1  
$EndComp
$Comp
L CP1_Small C41
U 1 1 58505670
P 7600 1400
F 0 "C41" H 7750 1450 50  0000 C CNN
F 1 "100µF" H 7800 1350 50  0000 C CNN
F 2 "Capacitors_SMD:c_elec_6.3x7.7" H 7600 1400 50  0001 C CNN
F 3 "" H 7600 1400 50  0000 C CNN
F 4 "1189-2119-1-ND" V 7600 1400 60  0001 C CNN "digikey#"
F 5 "35TZV100M6.3X8" H 7600 1400 60  0001 C CNN "manf#"
	1    7600 1400
	1    0    0    -1  
$EndComp
$Comp
L C_Small C48
U 1 1 58505687
P 6425 1400
F 0 "C48" H 6517 1446 50  0000 L CNN
F 1 "0.1µF 50V" H 6517 1355 50  0000 L CNN
F 2 "IPC7351-Nominal:CAPC1005X60" H 6425 1400 50  0001 C CNN
F 3 "" H 6425 1400 50  0000 C CNN
F 4 "GRM155R61H104ME14D" H 6425 1400 60  0001 C CNN "manf#"
	1    6425 1400
	1    0    0    -1  
$EndComp
$Comp
L Vin #PWR044
U 1 1 58505690
P 6825 1150
F 0 "#PWR044" H 6825 1240 20  0001 C CNN
F 1 "Vin" H 6821 1288 30  0000 C CNN
F 2 "" H 6825 1150 60  0000 C CNN
F 3 "" H 6825 1150 60  0000 C CNN
	1    6825 1150
	1    0    0    -1  
$EndComp
$Comp
L +5V #PWR045
U 1 1 5873D1FE
P 5075 1300
F 0 "#PWR045" H 5075 1150 50  0001 C CNN
F 1 "+5V" H 5090 1473 50  0000 C CNN
F 2 "" H 5075 1300 50  0000 C CNN
F 3 "" H 5075 1300 50  0000 C CNN
	1    5075 1300
	1    0    0    -1  
$EndComp
$Comp
L +5V #PWR046
U 1 1 5873D36B
P 1525 2825
F 0 "#PWR046" H 1525 2675 50  0001 C CNN
F 1 "+5V" H 1540 2998 50  0000 C CNN
F 2 "" H 1525 2825 50  0000 C CNN
F 3 "" H 1525 2825 50  0000 C CNN
	1    1525 2825
	1    0    0    -1  
$EndComp
$Comp
L +5V #PWR047
U 1 1 5873D5B7
P 6650 2775
F 0 "#PWR047" H 6650 2625 50  0001 C CNN
F 1 "+5V" H 6665 2948 50  0000 C CNN
F 2 "" H 6650 2775 50  0000 C CNN
F 3 "" H 6650 2775 50  0000 C CNN
	1    6650 2775
	1    0    0    -1  
$EndComp
$Comp
L +5V #PWR048
U 1 1 5873D893
P 10100 1250
F 0 "#PWR048" H 10100 1100 50  0001 C CNN
F 1 "+5V" H 10115 1423 50  0000 C CNN
F 2 "" H 10100 1250 50  0000 C CNN
F 3 "" H 10100 1250 50  0000 C CNN
	1    10100 1250
	1    0    0    -1  
$EndComp
$Comp
L +5V #PWR049
U 1 1 5873DCBF
P 10350 4100
F 0 "#PWR049" H 10350 3950 50  0001 C CNN
F 1 "+5V" H 10365 4273 50  0000 C CNN
F 2 "" H 10350 4100 50  0000 C CNN
F 3 "" H 10350 4100 50  0000 C CNN
	1    10350 4100
	1    0    0    -1  
$EndComp
$Comp
L +5V #PWR050
U 1 1 5873E3EF
P 5125 4625
F 0 "#PWR050" H 5125 4475 50  0001 C CNN
F 1 "+5V" H 5140 4798 50  0000 C CNN
F 2 "" H 5125 4625 50  0000 C CNN
F 3 "" H 5125 4625 50  0000 C CNN
	1    5125 4625
	1    0    0    -1  
$EndComp
$Comp
L +5V #PWR051
U 1 1 5873E5AB
P 1525 6150
F 0 "#PWR051" H 1525 6000 50  0001 C CNN
F 1 "+5V" H 1540 6323 50  0000 C CNN
F 2 "" H 1525 6150 50  0000 C CNN
F 3 "" H 1525 6150 50  0000 C CNN
	1    1525 6150
	1    0    0    -1  
$EndComp
$Comp
L C_Small C52
U 1 1 58D8EFC9
P 4920 3035
F 0 "C52" H 5012 3081 50  0000 L CNN
F 1 "0.1µF 50V" H 5012 2990 50  0000 L CNN
F 2 "IPC7351-Nominal:CAPC1005X60" H 4920 3035 50  0001 C CNN
F 3 "" H 4920 3035 50  0000 C CNN
F 4 "GRM155R61H104ME14D" H 4920 3035 60  0001 C CNN "manf#"
	1    4920 3035
	1    0    0    -1  
$EndComp
$Comp
L C_Small C53
U 1 1 58D91118
P 5650 3260
F 0 "C53" H 5742 3306 50  0000 L CNN
F 1 "0.1µF 50V" H 5742 3215 50  0000 L CNN
F 2 "IPC7351-Nominal:CAPC1005X60" H 5650 3260 50  0001 C CNN
F 3 "" H 5650 3260 50  0000 C CNN
F 4 "GRM155R61H104ME14D" H 5650 3260 60  0001 C CNN "manf#"
	1    5650 3260
	1    0    0    -1  
$EndComp
$Comp
L C_Small C51
U 1 1 58D911D4
P 4770 6390
F 0 "C51" H 4862 6436 50  0000 L CNN
F 1 "0.1µF 50V" H 4862 6345 50  0000 L CNN
F 2 "IPC7351-Nominal:CAPC1005X60" H 4770 6390 50  0001 C CNN
F 3 "" H 4770 6390 50  0000 C CNN
F 4 "nicht_bestueckt" H 4770 6390 60  0001 C CNN "manf#"
	1    4770 6390
	1    0    0    -1  
$EndComp
$Comp
L C_Small C54
U 1 1 58D91990
P 5500 6405
F 0 "C54" H 5592 6451 50  0000 L CNN
F 1 "0.1µF 50V" H 5592 6360 50  0000 L CNN
F 2 "IPC7351-Nominal:CAPC1005X60" H 5500 6405 50  0001 C CNN
F 3 "" H 5500 6405 50  0000 C CNN
F 4 "nicht_bestueckt" H 5500 6405 60  0001 C CNN "manf#"
	1    5500 6405
	1    0    0    -1  
$EndComp
$Comp
L C_Small C67
U 1 1 58D91A3C
P 9875 3025
F 0 "C67" H 9967 3071 50  0000 L CNN
F 1 "0.1µF 50V" H 9967 2980 50  0000 L CNN
F 2 "IPC7351-Nominal:CAPC1005X60" H 9875 3025 50  0001 C CNN
F 3 "" H 9875 3025 50  0000 C CNN
F 4 "GRM155R61H104ME14D" H 9875 3025 60  0001 C CNN "manf#"
	1    9875 3025
	1    0    0    -1  
$EndComp
$Comp
L C_Small C68
U 1 1 58D91FB9
P 10605 3015
F 0 "C68" H 10697 3061 50  0000 L CNN
F 1 "0.1µF 50V" H 10697 2970 50  0000 L CNN
F 2 "IPC7351-Nominal:CAPC1005X60" H 10605 3015 50  0001 C CNN
F 3 "" H 10605 3015 50  0000 C CNN
F 4 "GRM155R61H104ME14D" H 10605 3015 60  0001 C CNN "manf#"
	1    10605 3015
	1    0    0    -1  
$EndComp
$Comp
L C_Small C55
U 1 1 58D9933B
P 6350 4675
F 0 "C55" V 6121 4675 50  0000 C CNN
F 1 "0.82nF 50V" V 6212 4675 50  0000 C CNN
F 2 "IPC7351-Nominal:CAPC1005X60" H 6350 4675 50  0001 C CNN
F 3 "" H 6350 4675 50  0000 C CNN
F 4 "GRM155R71H821KA01D" H 6350 4675 60  0001 C CNN "manf#"
	1    6350 4675
	0    1    1    0   
$EndComp
$Comp
L C_Small C56
U 1 1 58D9957D
P 6350 4775
F 0 "C56" V 6121 4775 50  0000 C CNN
F 1 "0.82nF 50V" V 6212 4775 50  0000 C CNN
F 2 "IPC7351-Nominal:CAPC1005X60" H 6350 4775 50  0001 C CNN
F 3 "" H 6350 4775 50  0000 C CNN
F 4 "GRM155R71H821KA01D" H 6350 4775 60  0001 C CNN "manf#"
	1    6350 4775
	0    1    1    0   
$EndComp
$Comp
L C_Small C57
U 1 1 58D99603
P 6350 4875
F 0 "C57" V 6121 4875 50  0000 C CNN
F 1 "0.82nF 50V" V 6212 4875 50  0000 C CNN
F 2 "IPC7351-Nominal:CAPC1005X60" H 6350 4875 50  0001 C CNN
F 3 "" H 6350 4875 50  0000 C CNN
F 4 "GRM155R71H821KA01D" H 6350 4875 60  0001 C CNN "manf#"
	1    6350 4875
	0    1    1    0   
$EndComp
$Comp
L C_Small C58
U 1 1 58D9968B
P 6350 4975
F 0 "C58" V 6121 4975 50  0000 C CNN
F 1 "0.82nF 50V" V 6212 4975 50  0000 C CNN
F 2 "IPC7351-Nominal:CAPC1005X60" H 6350 4975 50  0001 C CNN
F 3 "" H 6350 4975 50  0000 C CNN
F 4 "GRM155R71H821KA01D" H 6350 4975 60  0001 C CNN "manf#"
	1    6350 4975
	0    1    1    0   
$EndComp
$Comp
L C_Small C59
U 1 1 58D9A609
P 7060 5585
F 0 "C59" V 6831 5585 50  0000 C CNN
F 1 "0.82nF 50V" V 6922 5585 50  0000 C CNN
F 2 "IPC7351-Nominal:CAPC1005X60" H 7060 5585 50  0001 C CNN
F 3 "" H 7060 5585 50  0000 C CNN
F 4 "nicht_bestueckt" H 7060 5585 60  0001 C CNN "manf#"
	1    7060 5585
	0    1    1    0   
$EndComp
$Comp
L C_Small C60
U 1 1 58D9A610
P 7060 5685
F 0 "C60" V 6831 5685 50  0000 C CNN
F 1 "0.82nF 50V" V 6922 5685 50  0000 C CNN
F 2 "IPC7351-Nominal:CAPC1005X60" H 7060 5685 50  0001 C CNN
F 3 "" H 7060 5685 50  0000 C CNN
F 4 "nicht_bestueckt" H 7060 5685 60  0001 C CNN "manf#"
	1    7060 5685
	0    1    1    0   
$EndComp
$Comp
L C_Small C61
U 1 1 58D9A617
P 7060 5785
F 0 "C61" V 6831 5785 50  0000 C CNN
F 1 "0.82nF 50V" V 6922 5785 50  0000 C CNN
F 2 "IPC7351-Nominal:CAPC1005X60" H 7060 5785 50  0001 C CNN
F 3 "" H 7060 5785 50  0000 C CNN
F 4 "nicht_bestueckt" H 7060 5785 60  0001 C CNN "manf#"
	1    7060 5785
	0    1    1    0   
$EndComp
$Comp
L C_Small C62
U 1 1 58D9A61E
P 7060 5885
F 0 "C62" V 6831 5885 50  0000 C CNN
F 1 "0.82nF 50V" V 6922 5885 50  0000 C CNN
F 2 "IPC7351-Nominal:CAPC1005X60" H 7060 5885 50  0001 C CNN
F 3 "" H 7060 5885 50  0000 C CNN
F 4 "nicht_bestueckt" H 7060 5885 60  0001 C CNN "manf#"
	1    7060 5885
	0    1    1    0   
$EndComp
$Comp
L C_Small C63
U 1 1 58D9A931
P 9000 5700
F 0 "C63" V 8771 5700 50  0000 C CNN
F 1 "0.82nF 50V" V 8862 5700 50  0000 C CNN
F 2 "IPC7351-Nominal:CAPC1005X60" H 9000 5700 50  0001 C CNN
F 3 "" H 9000 5700 50  0000 C CNN
F 4 "GRM155R71H821KA01D" H 9000 5700 60  0001 C CNN "manf#"
	1    9000 5700
	0    1    1    0   
$EndComp
$Comp
L C_Small C64
U 1 1 58D9A938
P 9000 5800
F 0 "C64" V 8771 5800 50  0000 C CNN
F 1 "0.82nF 50V" V 8862 5800 50  0000 C CNN
F 2 "IPC7351-Nominal:CAPC1005X60" H 9000 5800 50  0001 C CNN
F 3 "" H 9000 5800 50  0000 C CNN
F 4 "GRM155R71H821KA01D" H 9000 5800 60  0001 C CNN "manf#"
	1    9000 5800
	0    1    1    0   
$EndComp
$Comp
L C_Small C65
U 1 1 58D9A93F
P 9000 5900
F 0 "C65" V 8771 5900 50  0000 C CNN
F 1 "0.82nF 50V" V 8862 5900 50  0000 C CNN
F 2 "IPC7351-Nominal:CAPC1005X60" H 9000 5900 50  0001 C CNN
F 3 "" H 9000 5900 50  0000 C CNN
F 4 "GRM155R71H821KA01D" H 9000 5900 60  0001 C CNN "manf#"
	1    9000 5900
	0    1    1    0   
$EndComp
$Comp
L C_Small C66
U 1 1 58D9A946
P 9000 6000
F 0 "C66" V 8771 6000 50  0000 C CNN
F 1 "0.82nF 50V" V 8862 6000 50  0000 C CNN
F 2 "IPC7351-Nominal:CAPC1005X60" H 9000 6000 50  0001 C CNN
F 3 "" H 9000 6000 50  0000 C CNN
F 4 "GRM155R71H821KA01D" H 9000 6000 60  0001 C CNN "manf#"
	1    9000 6000
	0    1    1    0   
$EndComp
$Comp
L GND-RESCUE-Raspberry_Shield-RESCUE-Raspberry_Shield #PWR052
U 1 1 58D9AD36
P 6075 5150
F 0 "#PWR052" H 6075 4900 50  0001 C CNN
F 1 "GND" H 6080 4977 50  0000 C CNN
F 2 "" H 6075 5150 50  0000 C CNN
F 3 "" H 6075 5150 50  0000 C CNN
	1    6075 5150
	1    0    0    -1  
$EndComp
$Comp
L GND-RESCUE-Raspberry_Shield-RESCUE-Raspberry_Shield #PWR053
U 1 1 58D9ADC5
P 6785 6060
F 0 "#PWR053" H 6785 5810 50  0001 C CNN
F 1 "GND" H 6790 5887 50  0000 C CNN
F 2 "" H 6785 6060 50  0000 C CNN
F 3 "" H 6785 6060 50  0000 C CNN
	1    6785 6060
	1    0    0    -1  
$EndComp
$Comp
L GND-RESCUE-Raspberry_Shield-RESCUE-Raspberry_Shield #PWR054
U 1 1 58D9AE54
P 8725 6175
F 0 "#PWR054" H 8725 5925 50  0001 C CNN
F 1 "GND" H 8730 6002 50  0000 C CNN
F 2 "" H 8725 6175 50  0000 C CNN
F 3 "" H 8725 6175 50  0000 C CNN
	1    8725 6175
	1    0    0    -1  
$EndComp
$Comp
L C_Small C90
U 1 1 590D4A4C
P 1240 5250
F 0 "C90" H 1332 5296 50  0000 L CNN
F 1 "75pF" H 1332 5205 50  0000 L CNN
F 2 "Capacitors_SMD:C_0402" H 1240 5250 50  0001 C CNN
F 3 "" H 1240 5250 50  0000 C CNN
F 4 "nicht_bestueckt" H 1240 5250 60  0001 C CNN "manf#"
	1    1240 5250
	1    0    0    -1  
$EndComp
$Comp
L C_Small C92
U 1 1 590D4E08
P 2365 5340
F 0 "C92" H 2457 5386 50  0000 L CNN
F 1 "75pF" H 2457 5295 50  0000 L CNN
F 2 "Capacitors_SMD:C_0402" H 2365 5340 50  0001 C CNN
F 3 "" H 2365 5340 50  0000 C CNN
F 4 "nicht_bestueckt" H 2365 5340 60  0001 C CNN "manf#"
	1    2365 5340
	1    0    0    -1  
$EndComp
$Comp
L GND-RESCUE-Raspberry_Shield-RESCUE-Raspberry_Shield #PWR055
U 1 1 590DAB1E
P 1240 5390
F 0 "#PWR055" H 1240 5140 50  0001 C CNN
F 1 "GND" H 1245 5217 50  0000 C CNN
F 2 "" H 1240 5390 50  0000 C CNN
F 3 "" H 1240 5390 50  0000 C CNN
	1    1240 5390
	1    0    0    -1  
$EndComp
$Comp
L GND-RESCUE-Raspberry_Shield-RESCUE-Raspberry_Shield #PWR056
U 1 1 590DACC1
P 2310 5440
F 0 "#PWR056" H 2310 5190 50  0001 C CNN
F 1 "GND" H 2315 5267 50  0000 C CNN
F 2 "" H 2310 5440 50  0000 C CNN
F 3 "" H 2310 5440 50  0000 C CNN
	1    2310 5440
	0    1    1    0   
$EndComp
$Comp
L C_Small C93
U 1 1 590DD5A5
P 2390 2020
F 0 "C93" H 2482 2066 50  0000 L CNN
F 1 "75pF" H 2482 1975 50  0000 L CNN
F 2 "Capacitors_SMD:C_0402" H 2390 2020 50  0001 C CNN
F 3 "" H 2390 2020 50  0000 C CNN
F 4 "GRM1555C1H750JA01D" H 2390 2020 60  0001 C CNN "manf#"
	1    2390 2020
	1    0    0    -1  
$EndComp
$Comp
L GND-RESCUE-Raspberry_Shield-RESCUE-Raspberry_Shield #PWR057
U 1 1 590DEE6C
P 2350 2120
F 0 "#PWR057" H 2350 1870 50  0001 C CNN
F 1 "GND" H 2355 1947 50  0000 C CNN
F 2 "" H 2350 2120 50  0000 C CNN
F 3 "" H 2350 2120 50  0000 C CNN
	1    2350 2120
	0    1    1    0   
$EndComp
$Comp
L C_Small C91
U 1 1 590DFA8A
P 1380 1940
F 0 "C91" H 1472 1986 50  0000 L CNN
F 1 "75pF" H 1472 1895 50  0000 L CNN
F 2 "Capacitors_SMD:C_0402" H 1380 1940 50  0001 C CNN
F 3 "" H 1380 1940 50  0000 C CNN
F 4 "GRM1555C1H750JA01D" H 1380 1940 60  0001 C CNN "manf#"
	1    1380 1940
	1    0    0    -1  
$EndComp
$Comp
L GND-RESCUE-Raspberry_Shield-RESCUE-Raspberry_Shield #PWR058
U 1 1 590DFB75
P 1380 2080
F 0 "#PWR058" H 1380 1830 50  0001 C CNN
F 1 "GND" H 1385 1907 50  0000 C CNN
F 2 "" H 1380 2080 50  0000 C CNN
F 3 "" H 1380 2080 50  0000 C CNN
	1    1380 2080
	1    0    0    -1  
$EndComp
$Comp
L C_Small C95
U 1 1 590E0BBE
P 7575 1975
F 0 "C95" H 7667 2021 50  0000 L CNN
F 1 "75pF" H 7667 1930 50  0000 L CNN
F 2 "Capacitors_SMD:C_0402" H 7575 1975 50  0001 C CNN
F 3 "" H 7575 1975 50  0000 C CNN
F 4 "GRM1555C1H750JA01D" H 7575 1975 60  0001 C CNN "manf#"
	1    7575 1975
	1    0    0    -1  
$EndComp
$Comp
L GND-RESCUE-Raspberry_Shield-RESCUE-Raspberry_Shield #PWR059
U 1 1 590E212C
P 7540 2075
F 0 "#PWR059" H 7540 1825 50  0001 C CNN
F 1 "GND" H 7545 1902 50  0000 C CNN
F 2 "" H 7540 2075 50  0000 C CNN
F 3 "" H 7540 2075 50  0000 C CNN
	1    7540 2075
	0    1    1    0   
$EndComp
$Comp
L C_Small C94
U 1 1 590E2B05
P 7050 1890
F 0 "C94" H 7142 1936 50  0000 L CNN
F 1 "75pF" H 7142 1845 50  0000 L CNN
F 2 "Capacitors_SMD:C_0402" H 7050 1890 50  0001 C CNN
F 3 "" H 7050 1890 50  0000 C CNN
F 4 "GRM1555C1H750JA01D" H 7050 1890 60  0001 C CNN "manf#"
	1    7050 1890
	1    0    0    -1  
$EndComp
$Comp
L GND-RESCUE-Raspberry_Shield-RESCUE-Raspberry_Shield #PWR060
U 1 1 590E2C02
P 7050 2030
F 0 "#PWR060" H 7050 1780 50  0001 C CNN
F 1 "GND" H 7055 1857 50  0000 C CNN
F 2 "" H 7050 2030 50  0000 C CNN
F 3 "" H 7050 2030 50  0000 C CNN
	1    7050 2030
	0    1    1    0   
$EndComp
Wire Wire Line
	2675 2800 2225 2800
Wire Wire Line
	2225 2800 2225 3575
Wire Wire Line
	2675 2900 2225 2900
Connection ~ 2225 2900
Wire Wire Line
	2675 3000 2225 3000
Connection ~ 2225 3000
Wire Wire Line
	3975 3000 4110 3000
Wire Wire Line
	4110 3000 4110 3105
Wire Wire Line
	4110 3305 4110 3515
Wire Wire Line
	4110 3420 5650 3420
Wire Wire Line
	4575 3140 4575 3420
Connection ~ 4110 3420
Wire Wire Line
	5320 3420 5320 3370
Connection ~ 4575 3420
Wire Wire Line
	3975 2850 4920 2850
Wire Wire Line
	4575 2850 4575 2940
Wire Wire Line
	3975 2750 5320 2750
Wire Wire Line
	5320 2750 5320 3170
Wire Wire Line
	3975 2600 4350 2600
Wire Wire Line
	3975 2300 4350 2300
Wire Wire Line
	3975 2500 4350 2500
Wire Wire Line
	3975 2400 4350 2400
Wire Wire Line
	5075 1300 5075 2125
Wire Wire Line
	5075 2125 3975 2125
Wire Wire Line
	4200 1800 3975 1800
Wire Wire Line
	4200 1275 4200 1900
Wire Wire Line
	4200 1900 3975 1900
Connection ~ 4200 1800
Wire Wire Line
	3975 2025 4400 2025
Wire Wire Line
	4400 2025 4400 1975
Wire Wire Line
	4400 1775 4400 1725
Wire Wire Line
	4400 1725 4200 1725
Connection ~ 4200 1725
Wire Wire Line
	3175 1600 3175 1500
Wire Wire Line
	3175 1500 3225 1500
Wire Wire Line
	3425 1500 3475 1500
Wire Wire Line
	3475 1500 3475 1600
Wire Wire Line
	2675 2700 2050 2700
Wire Wire Line
	2050 2700 2050 3175
Wire Wire Line
	1850 2400 2675 2400
Wire Wire Line
	1850 2675 1850 2775
Wire Wire Line
	1525 2825 1525 2900
Wire Wire Line
	1525 3100 1525 3250
Wire Wire Line
	2050 3175 1525 3175
Connection ~ 1525 3175
Wire Wire Line
	1525 3450 1525 3500
Wire Wire Line
	1525 3500 2225 3500
Connection ~ 2225 3500
Wire Wire Line
	2675 2500 2200 2500
Wire Wire Line
	2675 2600 2200 2600
Wire Wire Line
	1265 1800 2675 1800
Wire Wire Line
	2200 1900 2675 1900
Wire Notes Line
	1175 975  5450 975 
Wire Notes Line
	1175 975  1175 3825
Wire Notes Line
	1175 3825 5450 3825
Wire Notes Line
	5925 3800 5925 950 
Wire Wire Line
	7800 2750 7350 2750
Wire Wire Line
	7350 2750 7350 3525
Wire Wire Line
	7800 2850 7350 2850
Connection ~ 7350 2850
Wire Wire Line
	7800 2950 7350 2950
Connection ~ 7350 2950
Wire Wire Line
	9100 2950 9135 2950
Wire Wire Line
	9135 2950 9135 3050
Wire Wire Line
	9135 3250 9135 3470
Wire Wire Line
	9135 3375 10605 3375
Wire Wire Line
	9545 3135 9545 3375
Connection ~ 9135 3375
Wire Wire Line
	10280 3375 10280 3140
Connection ~ 9545 3375
Wire Wire Line
	9100 2800 9875 2800
Wire Wire Line
	9545 2800 9545 2935
Wire Wire Line
	9100 2700 10280 2700
Wire Wire Line
	10280 2700 10280 2940
Wire Wire Line
	9250 2550 9100 2550
Wire Wire Line
	9100 2450 9250 2450
Wire Wire Line
	9100 2350 9250 2350
Wire Wire Line
	9100 2250 9250 2250
Wire Wire Line
	10100 1250 10100 2075
Wire Wire Line
	10100 2075 9100 2075
Wire Wire Line
	9325 1750 9100 1750
Wire Wire Line
	9325 1250 9325 1850
Wire Wire Line
	9325 1850 9100 1850
Connection ~ 9325 1750
Wire Wire Line
	9100 1975 9525 1975
Wire Wire Line
	9525 1975 9525 1925
Wire Wire Line
	9525 1725 9525 1700
Wire Wire Line
	9525 1700 9325 1700
Connection ~ 9325 1700
Wire Wire Line
	8300 1550 8300 1450
Wire Wire Line
	8300 1450 8350 1450
Wire Wire Line
	8550 1450 8600 1450
Wire Wire Line
	8600 1450 8600 1550
Wire Wire Line
	7800 2650 7175 2650
Wire Wire Line
	7175 2650 7175 3125
Wire Wire Line
	7000 2600 7000 2700
Wire Wire Line
	6650 2775 6650 2850
Wire Wire Line
	6650 3050 6650 3200
Wire Wire Line
	7175 3125 6650 3125
Connection ~ 6650 3125
Wire Wire Line
	6650 3400 6650 3450
Wire Wire Line
	6650 3450 7350 3450
Connection ~ 7350 3450
Wire Wire Line
	7800 2450 7325 2450
Wire Wire Line
	7800 2550 7325 2550
Wire Wire Line
	7325 1850 7800 1850
Wire Wire Line
	6955 1750 7800 1750
Wire Notes Line
	6300 975  10575 975 
Wire Notes Line
	6300 975  6300 3825
Wire Notes Line
	6300 3825 10575 3825
Wire Notes Line
	10575 3825 10575 975 
Wire Wire Line
	2675 6125 2225 6125
Wire Wire Line
	2225 6125 2225 6900
Wire Wire Line
	2675 6225 2225 6225
Connection ~ 2225 6225
Wire Wire Line
	2675 6325 2225 6325
Connection ~ 2225 6325
Wire Wire Line
	3975 6325 4030 6325
Wire Wire Line
	4030 6325 4030 6445
Wire Wire Line
	4030 6645 4030 6850
Wire Wire Line
	4030 6765 5500 6765
Wire Wire Line
	4460 6490 4460 6765
Connection ~ 4030 6765
Wire Wire Line
	5165 6765 5165 6505
Connection ~ 4460 6765
Wire Wire Line
	3975 6175 4770 6175
Wire Wire Line
	4460 6175 4460 6290
Wire Wire Line
	3975 6075 5165 6075
Wire Wire Line
	5165 6075 5165 6305
Wire Wire Line
	3975 5925 4125 5925
Wire Wire Line
	3975 5825 4125 5825
Wire Wire Line
	3975 5725 4125 5725
Wire Wire Line
	3975 5625 4125 5625
Wire Wire Line
	5125 4625 5125 5450
Wire Wire Line
	5125 5450 3975 5450
Wire Wire Line
	4200 5125 3975 5125
Wire Wire Line
	4200 4625 4200 5225
Wire Wire Line
	4200 5225 3975 5225
Connection ~ 4200 5125
Wire Wire Line
	3975 5350 4400 5350
Wire Wire Line
	4400 5350 4400 5300
Wire Wire Line
	4400 5100 4400 5050
Wire Wire Line
	4400 5050 4200 5050
Connection ~ 4200 5050
Wire Wire Line
	3175 4925 3175 4825
Wire Wire Line
	3175 4825 3225 4825
Wire Wire Line
	3425 4825 3475 4825
Wire Wire Line
	3475 4825 3475 4925
Wire Wire Line
	2675 6025 2050 6025
Wire Wire Line
	2050 6025 2050 6500
Wire Wire Line
	1875 6000 1875 6100
Wire Wire Line
	1525 6150 1525 6225
Wire Wire Line
	1525 6425 1525 6575
Wire Wire Line
	2050 6500 1525 6500
Connection ~ 1525 6500
Wire Wire Line
	1525 6775 1525 6825
Wire Wire Line
	1525 6825 2225 6825
Connection ~ 2225 6825
Wire Notes Line
	1175 4350 5450 4350
Wire Notes Line
	920  4355 920  7205
Wire Notes Line
	1175 7200 5450 7200
Wire Wire Line
	2675 5925 2200 5925
Wire Wire Line
	2675 5825 2200 5825
Wire Wire Line
	1135 5125 2675 5125
Wire Wire Line
	2015 5225 2675 5225
Wire Wire Line
	7650 4200 7950 4200
Wire Wire Line
	7950 4000 7800 4000
Wire Wire Line
	7800 4000 7800 4400
Connection ~ 7800 4200
Wire Wire Line
	7800 4400 7950 4400
Wire Wire Line
	8800 4850 9275 4850
Wire Wire Line
	8800 4750 9275 4750
Wire Wire Line
	8800 4400 9275 4400
Wire Wire Line
	8800 4500 9275 4500
Wire Wire Line
	8775 4050 9275 4050
Wire Wire Line
	8775 4150 9275 4150
Wire Wire Line
	10350 5775 10750 5775
Wire Wire Line
	10350 5675 10750 5675
Connection ~ 10350 5675
Wire Wire Line
	10350 5025 10750 5025
Connection ~ 10350 5025
Wire Wire Line
	10350 4925 10750 4925
Connection ~ 10350 4925
Wire Wire Line
	10350 4275 10750 4275
Connection ~ 10350 4275
Wire Wire Line
	10750 4175 10350 4175
Connection ~ 10350 4175
Wire Wire Line
	1700 2200 2675 2200
Wire Wire Line
	1700 2200 1700 2725
Wire Wire Line
	1700 2725 1850 2725
Connection ~ 1850 2725
Wire Wire Line
	1850 2400 1850 2475
Wire Wire Line
	7800 2350 7000 2350
Wire Wire Line
	7000 2350 7000 2400
Wire Wire Line
	7800 2150 6850 2150
Wire Wire Line
	6850 2150 6850 2650
Wire Wire Line
	6850 2650 7000 2650
Connection ~ 7000 2650
Wire Wire Line
	1875 5800 1875 5725
Wire Wire Line
	1875 5725 2675 5725
Wire Wire Line
	2675 5525 1700 5525
Wire Wire Line
	1700 5525 1700 6050
Wire Wire Line
	1700 6050 1875 6050
Connection ~ 1875 6050
Wire Wire Line
	10350 4100 10350 5775
Wire Wire Line
	1350 1225 2525 1225
Wire Wire Line
	1750 1175 1750 1325
Wire Wire Line
	2525 1225 2525 1325
Wire Wire Line
	2150 1225 2150 1325
Connection ~ 2150 1225
Wire Wire Line
	2525 1600 2525 1525
Wire Wire Line
	1350 1600 2525 1600
Wire Wire Line
	1750 1525 1750 1675
Connection ~ 1750 1600
Wire Wire Line
	2150 1525 2150 1600
Connection ~ 2150 1600
Wire Wire Line
	1350 1225 1350 1325
Connection ~ 1750 1225
Wire Wire Line
	1350 1600 1350 1525
Wire Wire Line
	1300 4600 2475 4600
Wire Wire Line
	1700 4550 1700 4700
Wire Wire Line
	2475 4600 2475 4700
Wire Wire Line
	2100 4600 2100 4700
Connection ~ 2100 4600
Wire Wire Line
	2475 4975 2475 4900
Wire Wire Line
	1300 4975 2475 4975
Wire Wire Line
	1700 4900 1700 5010
Connection ~ 1700 4975
Wire Wire Line
	2100 4900 2100 4975
Connection ~ 2100 4975
Wire Wire Line
	1300 4600 1300 4700
Connection ~ 1700 4600
Wire Wire Line
	1300 4975 1300 4900
Wire Wire Line
	6425 1200 7600 1200
Wire Wire Line
	6825 1150 6825 1300
Wire Wire Line
	7600 1200 7600 1300
Wire Wire Line
	7225 1200 7225 1300
Connection ~ 7225 1200
Wire Wire Line
	7600 1575 7600 1500
Wire Wire Line
	6425 1575 7600 1575
Wire Wire Line
	6825 1500 6825 1650
Connection ~ 6825 1575
Wire Wire Line
	7225 1500 7225 1575
Connection ~ 7225 1575
Wire Wire Line
	6425 1200 6425 1300
Connection ~ 6825 1200
Wire Wire Line
	6425 1575 6425 1500
Wire Wire Line
	10605 2830 10605 2915
Wire Wire Line
	10605 2830 10280 2830
Connection ~ 10280 2830
Wire Wire Line
	10605 3375 10605 3115
Connection ~ 10280 3375
Wire Wire Line
	9875 2800 9875 2925
Connection ~ 9545 2800
Wire Wire Line
	9875 3125 9875 3240
Wire Wire Line
	9875 3240 9545 3240
Connection ~ 9545 3240
Wire Wire Line
	4770 6175 4770 6290
Connection ~ 4460 6175
Wire Wire Line
	4770 6490 4770 6590
Wire Wire Line
	4770 6590 4460 6590
Connection ~ 4460 6590
Wire Wire Line
	5500 6305 5500 6205
Wire Wire Line
	5500 6205 5165 6205
Connection ~ 5165 6205
Wire Wire Line
	5500 6765 5500 6505
Connection ~ 5165 6765
Wire Wire Line
	4920 2850 4920 2935
Connection ~ 4575 2850
Wire Wire Line
	4920 3135 4920 3225
Wire Wire Line
	4920 3225 4575 3225
Connection ~ 4575 3225
Wire Wire Line
	5650 3160 5650 3010
Wire Wire Line
	5650 3010 5320 3010
Connection ~ 5320 3010
Wire Wire Line
	5650 3420 5650 3360
Connection ~ 5320 3420
Wire Wire Line
	6800 4675 6450 4675
Wire Wire Line
	6800 4775 6450 4775
Wire Wire Line
	6800 4875 6450 4875
Wire Wire Line
	6800 4975 6450 4975
Wire Wire Line
	6250 4675 6075 4675
Wire Wire Line
	6075 4675 6075 5150
Wire Wire Line
	6250 4775 6075 4775
Connection ~ 6075 4775
Wire Wire Line
	6250 4875 6075 4875
Connection ~ 6075 4875
Wire Wire Line
	6250 4975 6075 4975
Connection ~ 6075 4975
Wire Wire Line
	7510 5585 7160 5585
Wire Wire Line
	7510 5685 7160 5685
Wire Wire Line
	7510 5785 7160 5785
Wire Wire Line
	7510 5885 7160 5885
Wire Wire Line
	6960 5585 6785 5585
Wire Wire Line
	6785 5585 6785 6060
Wire Wire Line
	6960 5685 6785 5685
Connection ~ 6785 5685
Wire Wire Line
	6960 5785 6785 5785
Connection ~ 6785 5785
Wire Wire Line
	6960 5885 6785 5885
Connection ~ 6785 5885
Wire Wire Line
	9450 5700 9100 5700
Wire Wire Line
	9450 5800 9100 5800
Wire Wire Line
	9450 5900 9100 5900
Wire Wire Line
	9450 6000 9100 6000
Wire Wire Line
	8900 5700 8725 5700
Wire Wire Line
	8725 5700 8725 6175
Wire Wire Line
	8900 5800 8725 5800
Connection ~ 8725 5800
Wire Wire Line
	8900 5900 8725 5900
Connection ~ 8725 5900
Wire Wire Line
	8900 6000 8725 6000
Connection ~ 8725 6000
Wire Wire Line
	2310 5440 2365 5440
Wire Wire Line
	2365 5240 2365 5225
Connection ~ 2365 5225
Wire Wire Line
	1240 5150 1240 5125
Connection ~ 1240 5125
Wire Wire Line
	1240 5350 1240 5390
Wire Wire Line
	2390 1920 2390 1900
Connection ~ 2390 1900
Wire Wire Line
	2350 2120 2390 2120
Wire Wire Line
	1380 1840 1380 1800
Connection ~ 1380 1800
Wire Wire Line
	1380 2080 1380 2040
Wire Wire Line
	7540 2075 7575 2075
Wire Wire Line
	7575 1875 7575 1850
Connection ~ 7575 1850
Wire Wire Line
	7050 2030 7050 1990
Wire Wire Line
	7050 1790 7050 1750
Connection ~ 7050 1750
Text Notes 8575 1300 0    60   ~ 0
I_RMS=0.72A\nV_REF=NC\nR_S=0,30Ohm
Text Notes 3445 1305 0    60   ~ 0
I_RMS=0.72A\nV_REF=NC\nR_S=0,30Ohm
Text Notes 3470 4705 0    60   ~ 0
< nicht bestueckt >\nI_RMS=0.359A\nV_REF=1.25V\nR_S=0,30Ohm
$Comp
L GND-RESCUE-Raspberry_Shield-RESCUE-Raspberry_Shield #PWR061
U 1 1 591567CE
P 2650 5625
F 0 "#PWR061" H 2650 5375 50  0001 C CNN
F 1 "GND" H 2655 5452 50  0000 C CNN
F 2 "" H 2650 5625 50  0000 C CNN
F 3 "" H 2650 5625 50  0000 C CNN
	1    2650 5625
	0    1    1    0   
$EndComp
Wire Wire Line
	2675 5625 2650 5625
$Comp
L GND-RESCUE-Raspberry_Shield-RESCUE-Raspberry_Shield #PWR062
U 1 1 59157D68
P 2645 2300
F 0 "#PWR062" H 2645 2050 50  0001 C CNN
F 1 "GND" H 2650 2127 50  0000 C CNN
F 2 "" H 2645 2300 50  0000 C CNN
F 3 "" H 2645 2300 50  0000 C CNN
	1    2645 2300
	0    1    1    0   
$EndComp
Wire Wire Line
	2645 2300 2675 2300
$Comp
L GND-RESCUE-Raspberry_Shield-RESCUE-Raspberry_Shield #PWR063
U 1 1 59158E39
P 7755 2250
F 0 "#PWR063" H 7755 2000 50  0001 C CNN
F 1 "GND" H 7760 2077 50  0000 C CNN
F 2 "" H 7755 2250 50  0000 C CNN
F 3 "" H 7755 2250 50  0000 C CNN
	1    7755 2250
	0    1    1    0   
$EndComp
Wire Wire Line
	7755 2250 7800 2250
$EndSCHEMATC
