(module reed_switch-multi_footprint (layer F.Cu) (tedit 58B4270D)
  (fp_text reference SW1 (at 0 3) (layer F.SilkS)
    (effects (font (size 1 1) (thickness 0.15)))
  )
  (fp_text value reed_switch (at 0 0) (layer F.Fab) hide
    (effects (font (size 1 1) (thickness 0.15)))
  )
  (fp_line (start 5.45 -1.5) (end 5.45 1.5) (layer F.SilkS) (width 0.15))
  (fp_line (start -7.5 -1.5) (end 7.5 -1.5) (layer F.SilkS) (width 0.15))
  (fp_line (start -5.45 1.55) (end -5.45 -1.45) (layer F.SilkS) (width 0.15))
  (fp_line (start 7.5 1.5) (end -7.5 1.5) (layer F.SilkS) (width 0.15))
  (pad 1 smd rect (at -8 0) (size 4 1.3) (layers F.Cu F.Paste F.Mask))
  (pad 2 smd rect (at 8 0) (size 4 1.3) (layers F.Cu F.Paste F.Mask))
)
