EESchema Schematic File Version 2
LIBS:Raspberry_Shield-rescue
LIBS:PCF8575
LIBS:ac-dc
LIBS:adc-dac
LIBS:Altera
LIBS:analog_devices
LIBS:analog_switches
LIBS:atmel
LIBS:audio
LIBS:brooktre
LIBS:contrib
LIBS:cypress
LIBS:dc-dc
LIBS:device
LIBS:digital-audio
LIBS:dsp
LIBS:elec-unifil
LIBS:ESD_Protection
LIBS:ftdi
LIBS:gennum
LIBS:hc11
LIBS:intel
LIBS:interface
LIBS:ir
LIBS:Lattice
LIBS:linear
LIBS:maxim
LIBS:memory
LIBS:microchip
LIBS:microcontrollers
LIBS:motor_drivers
LIBS:motorola
LIBS:nordicsemi
LIBS:onsemi
LIBS:opto
LIBS:Oscillators
LIBS:philips
LIBS:power
LIBS:powerint
LIBS:Power_Management
LIBS:pspice
LIBS:references
LIBS:regul
LIBS:rfcom
LIBS:sensors
LIBS:silabs
LIBS:siliconi
LIBS:supertex
LIBS:texas
LIBS:video
LIBS:Worldsemi
LIBS:Xicor
LIBS:xilinx
LIBS:Zilog
LIBS:Symbols_DCDC-ACDC-Converter_RevC_20Jul2012
LIBS:Symbols_EN60617_13Mar2013
LIBS:Symbols_EN60617-10_HF-Radio_DRAFT_12Sep2013
LIBS:Symbols_ICs-Diskrete_RevD10
LIBS:Symbols_ICs-Opto_RevB_16Sep2013
LIBS:Symbols_Microcontroller_Philips-NXP_RevA_06Oct2013
LIBS:SymbolsSimilarEN60617+oldDIN617-RevE8
LIBS:Symbols_Socket-DIN41612_RevA
LIBS:Symbols_Transformer-Diskrete_RevA
LIBS:Atmega8
LIBS:74lvc1g32
LIBS:Raspberry_Shield-cache
EELAYER 26 0
EELAYER END
$Descr A4 11693 8268
encoding utf-8
Sheet 5 5
Title "Laser4DIY Raspberry Pi Shield"
Date "2017-12-22"
Rev "01"
Comp ""
Comment1 ""
Comment2 ""
Comment3 ""
Comment4 ""
$EndDescr
$Comp
L PCF8575 U5
U 1 1 58062E94
P 3575 3050
F 0 "U5" H 3575 2000 60  0000 C CNN
F 1 "PCF8575" H 3575 3750 60  0000 C CNN
F 2 "Housings_SSOP:SSOP-24_5.3x8.2mm_Pitch0.65mm" H 3575 3050 60  0001 C CNN
F 3 "" H 3575 3050 60  0000 C CNN
F 4 "PCF8575TS/1,112" H 3575 3050 60  0001 C CNN "manf#"
	1    3575 3050
	1    0    0    -1  
$EndComp
$Comp
L GND-RESCUE-Raspberry_Shield-RESCUE-Raspberry_Shield #PWR0151
U 1 1 58063558
P 2100 4125
F 0 "#PWR0151" H 2100 3875 50  0001 C CNN
F 1 "GND" H 2100 3975 50  0000 C CNN
F 2 "" H 2100 4125 50  0000 C CNN
F 3 "" H 2100 4125 50  0000 C CNN
	1    2100 4125
	1    0    0    -1  
$EndComp
$Comp
L GND-RESCUE-Raspberry_Shield-RESCUE-Raspberry_Shield #PWR0152
U 1 1 580635E1
P 2100 3100
F 0 "#PWR0152" H 2100 2850 50  0001 C CNN
F 1 "GND" H 2100 2950 50  0000 C CNN
F 2 "" H 2100 3100 50  0000 C CNN
F 3 "" H 2100 3100 50  0000 C CNN
	1    2100 3100
	1    0    0    -1  
$EndComp
$Comp
L 3V3_Raspberry #PWR0153
U 1 1 5806F719
P 2100 3675
F 0 "#PWR0153" H 2100 3635 30  0001 C CNN
F 1 "3V3_Raspberry" H 2100 3795 30  0000 C CNN
F 2 "" H 2100 3675 60  0000 C CNN
F 3 "" H 2100 3675 60  0000 C CNN
	1    2100 3675
	1    0    0    -1  
$EndComp
Text GLabel 2675 3550 0    60   Input ~ 0
SDA
Wire Wire Line
	2675 3850 2100 3850
Wire Wire Line
	2675 3950 2100 3950
Wire Wire Line
	2675 2850 2100 2850
Wire Wire Line
	2100 2850 2100 3100
Wire Wire Line
	2675 2950 2100 2950
Connection ~ 2100 2950
Wire Wire Line
	2675 3050 2100 3050
Connection ~ 2100 3050
Text GLabel 4300 2075 1    60   Input ~ 0
INTERLOCK1
Text GLabel 4450 2075 1    60   Input ~ 0
INTERLOCK2
Text GLabel 4600 2075 1    60   Input ~ 0
INTERLOCK3
Text GLabel 4750 2075 1    60   Input ~ 0
INTERLOCK4
Wire Wire Line
	4525 2450 4525 2275
Wire Wire Line
	4525 2275 4300 2275
Wire Wire Line
	4300 2275 4300 2075
Wire Wire Line
	4525 2550 4600 2550
Wire Wire Line
	4600 2550 4600 2225
Wire Wire Line
	4600 2225 4450 2225
Wire Wire Line
	4450 2225 4450 2075
Wire Wire Line
	4525 2650 4675 2650
Wire Wire Line
	4675 2650 4675 2175
Wire Wire Line
	4675 2175 4600 2175
Wire Wire Line
	4600 2175 4600 2075
Wire Wire Line
	4525 2750 4750 2750
Wire Wire Line
	4750 2750 4750 2075
$Comp
L BSS138-RESCUE-Raspberry_Shield Q13
U 1 1 580783B0
P 7350 4525
F 0 "Q13" H 7550 4600 50  0000 L CNN
F 1 "BSS138" H 7550 4525 50  0000 L CNN
F 2 "TO_SOT_Packages_SMD:SOT-23" H 7550 4450 50  0001 L CIN
F 3 "" H 7350 4525 50  0000 L CNN
F 4 "BSS138CT-ND" H 7350 4525 60  0001 C CNN "manf#"
	1    7350 4525
	0    -1   1    0   
$EndComp
Wire Wire Line
	4525 3300 7820 3300
Wire Wire Line
	7550 4625 7600 4625
Text GLabel 7100 4625 1    60   Input ~ 0
HOLD
Wire Wire Line
	7100 4625 7150 4625
Wire Wire Line
	7400 3300 7400 4325
$Comp
L BSS138-RESCUE-Raspberry_Shield Q12
U 1 1 5807AF18
P 6675 4525
F 0 "Q12" H 6875 4600 50  0000 L CNN
F 1 "BSS138" H 6875 4525 50  0000 L CNN
F 2 "TO_SOT_Packages_SMD:SOT-23" H 6875 4450 50  0001 L CIN
F 3 "" H 6675 4525 50  0000 L CNN
F 4 "BSS138CT-ND" H 6675 4525 60  0001 C CNN "manf#"
	1    6675 4525
	0    -1   1    0   
$EndComp
Wire Wire Line
	6875 4625 6900 4625
Text GLabel 6425 4625 1    60   Input ~ 0
RESUME
Wire Wire Line
	6425 4625 6475 4625
Wire Wire Line
	6725 3400 6725 4325
Wire Wire Line
	4525 3400 7125 3400
$Comp
L BSS138-RESCUE-Raspberry_Shield Q11
U 1 1 5807B0C7
P 6025 4525
F 0 "Q11" H 6225 4600 50  0000 L CNN
F 1 "BSS138" H 6225 4525 50  0000 L CNN
F 2 "TO_SOT_Packages_SMD:SOT-23" H 6225 4450 50  0001 L CIN
F 3 "" H 6025 4525 50  0000 L CNN
F 4 "BSS138CT-ND" H 6025 4525 60  0001 C CNN "manf#"
	1    6025 4525
	0    -1   1    0   
$EndComp
$Comp
L GND-RESCUE-Raspberry_Shield-RESCUE-Raspberry_Shield #PWR0159
U 1 1 5807B0CD
P 6250 3800
F 0 "#PWR0159" H 6250 3550 50  0001 C CNN
F 1 "GND" H 6250 3650 50  0000 C CNN
F 2 "" H 6250 3800 50  0000 C CNN
F 3 "" H 6250 3800 50  0000 C CNN
	1    6250 3800
	1    0    0    -1  
$EndComp
Wire Wire Line
	6225 4625 6250 4625
Text GLabel 5775 4625 1    60   Input ~ 0
Reset-Abort_Ardu
Wire Wire Line
	5775 4625 5825 4625
Wire Wire Line
	4525 3500 6440 3500
Wire Wire Line
	6075 3500 6075 4325
$Comp
L R_Small R13
U 1 1 5807CC91
P 6250 3650
F 0 "R13" V 6330 3650 50  0000 C CNN
F 1 "2k" V 6175 3650 50  0000 C CNN
F 2 "IPC7351-Nominal:RESC1005X40" V 6180 3650 50  0001 C CNN
F 3 "" H 6250 3650 50  0000 C CNN
F 4 "RC1005F202CS" H 6250 3650 60  0001 C CNN "manf#"
	1    6250 3650
	-1   0    0    1   
$EndComp
Text GLabel 4750 3600 2    60   Input ~ 0
Prog_RESET_Ardu
Wire Wire Line
	4750 3600 4525 3600
Connection ~ 6075 3500
$Comp
L GND-RESCUE-Raspberry_Shield-RESCUE-Raspberry_Shield #PWR0160
U 1 1 58086CBE
P 6900 3750
F 0 "#PWR0160" H 6900 3500 50  0001 C CNN
F 1 "GND" H 6900 3600 50  0000 C CNN
F 2 "" H 6900 3750 50  0000 C CNN
F 3 "" H 6900 3750 50  0000 C CNN
	1    6900 3750
	1    0    0    -1  
$EndComp
$Comp
L R_Small R63
U 1 1 58086CC5
P 6900 3600
F 0 "R63" V 6980 3600 50  0000 C CNN
F 1 "2k" V 6800 3600 50  0000 C CNN
F 2 "IPC7351-Nominal:RESC1005X40" V 6830 3600 50  0001 C CNN
F 3 "" H 6900 3600 50  0000 C CNN
F 4 "RC1005F202CS" H 6900 3600 60  0001 C CNN "manf#"
	1    6900 3600
	-1   0    0    1   
$EndComp
$Comp
L GND-RESCUE-Raspberry_Shield-RESCUE-Raspberry_Shield #PWR0161
U 1 1 58086D59
P 7600 3700
F 0 "#PWR0161" H 7600 3450 50  0001 C CNN
F 1 "GND" H 7600 3550 50  0000 C CNN
F 2 "" H 7600 3700 50  0000 C CNN
F 3 "" H 7600 3700 50  0000 C CNN
	1    7600 3700
	1    0    0    -1  
$EndComp
$Comp
L R_Small R64
U 1 1 58086D60
P 7600 3550
F 0 "R64" V 7680 3550 50  0000 C CNN
F 1 "2k" V 7500 3550 50  0000 C CNN
F 2 "IPC7351-Nominal:RESC1005X40" V 7530 3550 50  0001 C CNN
F 3 "" H 7600 3550 50  0000 C CNN
F 4 "RC1005F202CS" H 7600 3550 60  0001 C CNN "manf#"
	1    7600 3550
	-1   0    0    1   
$EndComp
Wire Wire Line
	6900 3400 6900 3500
Connection ~ 6725 3400
Wire Wire Line
	7600 3300 7600 3450
Connection ~ 7400 3300
$Comp
L GND-RESCUE-Raspberry_Shield-RESCUE-Raspberry_Shield #PWR0162
U 1 1 58087C3B
P 6250 4800
F 0 "#PWR0162" H 6250 4550 50  0001 C CNN
F 1 "GND" H 6250 4650 50  0000 C CNN
F 2 "" H 6250 4800 50  0000 C CNN
F 3 "" H 6250 4800 50  0000 C CNN
	1    6250 4800
	1    0    0    -1  
$EndComp
$Comp
L GND-RESCUE-Raspberry_Shield-RESCUE-Raspberry_Shield #PWR0163
U 1 1 58087C73
P 6900 4800
F 0 "#PWR0163" H 6900 4550 50  0001 C CNN
F 1 "GND" H 6900 4650 50  0000 C CNN
F 2 "" H 6900 4800 50  0000 C CNN
F 3 "" H 6900 4800 50  0000 C CNN
	1    6900 4800
	1    0    0    -1  
$EndComp
$Comp
L GND-RESCUE-Raspberry_Shield-RESCUE-Raspberry_Shield #PWR0164
U 1 1 58087CAB
P 7600 4800
F 0 "#PWR0164" H 7600 4550 50  0001 C CNN
F 1 "GND" H 7600 4650 50  0000 C CNN
F 2 "" H 7600 4800 50  0000 C CNN
F 3 "" H 7600 4800 50  0000 C CNN
	1    7600 4800
	1    0    0    -1  
$EndComp
Wire Wire Line
	7600 4625 7600 4800
Wire Wire Line
	6900 4625 6900 4800
Wire Wire Line
	6250 4625 6250 4800
Text GLabel 2525 2500 0    60   Input ~ 0
PCF_INT
Wire Wire Line
	2525 2500 2675 2500
Text GLabel 4900 2075 1    60   Input ~ 0
STEPPERRUN
Wire Wire Line
	4900 2075 4900 2850
Wire Wire Line
	4900 2850 4525 2850
Wire Wire Line
	6250 3500 6250 3550
Wire Wire Line
	6250 3800 6250 3750
Wire Wire Line
	6900 3700 6900 3750
Wire Wire Line
	7600 3650 7600 3700
$Comp
L R_Small R18
U 1 1 58474368
P 2600 2075
F 0 "R18" V 2680 2075 50  0000 C CNN
F 1 "2k" V 2525 2075 50  0000 C CNN
F 2 "IPC7351-Nominal:RESC1005X40" V 2530 2075 50  0001 C CNN
F 3 "" H 2600 2075 50  0000 C CNN
F 4 "RC1005F202CS" H 2600 2075 60  0001 C CNN "manf#"
	1    2600 2075
	1    0    0    -1  
$EndComp
$Comp
L 3V3_Raspberry #PWR0166
U 1 1 584754E7
P 2600 1750
F 0 "#PWR0166" H 2600 1710 30  0001 C CNN
F 1 "3V3_Raspberry" H 2609 1888 30  0000 C CNN
F 2 "" H 2600 1750 60  0000 C CNN
F 3 "" H 2600 1750 60  0000 C CNN
	1    2600 1750
	1    0    0    -1  
$EndComp
Wire Wire Line
	2600 1750 2600 1975
Wire Wire Line
	2600 2175 2600 2500
Connection ~ 2600 2500
Wire Wire Line
	2100 3950 2100 4125
Wire Wire Line
	2100 3850 2100 3675
Text GLabel 2675 3450 0    60   Input ~ 0
SCL
$Comp
L C_Small C75
U 1 1 58DA1191
P 1925 3900
F 0 "C75" H 1950 4000 50  0000 L CNN
F 1 "0uF47" H 1950 3800 50  0000 L CNN
F 2 "IPC7351-Nominal:CAPC1005X60" H 1963 3750 50  0001 C CNN
F 3 "" H 1925 3900 50  0000 C CNN
F 4 "CL05A474KP5NNNC" H 1925 3900 60  0001 C CNN "manf#"
	1    1925 3900
	-1   0    0    1   
$EndComp
Wire Wire Line
	1925 3800 1925 3725
Wire Wire Line
	1600 3725 2100 3725
Connection ~ 2100 3725
Wire Wire Line
	1925 4000 1925 4075
Wire Wire Line
	1925 4075 2100 4075
Connection ~ 2100 4075
$Comp
L CONN_01X01 P9
U 1 1 58D95941
P 1400 3725
F 0 "P9" H 1500 3725 50  0000 L CNN
F 1 "Testpad" H 1325 3600 50  0000 L CNN
F 2 "w_details:testpoint_2mm" H 1400 3725 50  0001 C CNN
F 3 "" H 1400 3725 50  0000 C CNN
	1    1400 3725
	-1   0    0    1   
$EndComp
Connection ~ 1925 3725
$Comp
L C_Small C49
U 1 1 590F8452
P 6440 3665
F 0 "C49" H 6465 3765 50  0000 L CNN
F 1 "75pF" H 6465 3565 50  0000 L CNN
F 2 "Capacitors_SMD:C_0402" H 6478 3515 50  0001 C CNN
F 3 "" H 6440 3665 50  0000 C CNN
F 4 "GRM1555C1H750JA01D" H 6440 3665 60  0001 C CNN "manf#"
	1    6440 3665
	1    0    0    -1  
$EndComp
Wire Wire Line
	6440 3500 6440 3565
Connection ~ 6250 3500
Wire Wire Line
	6440 3765 6250 3765
Connection ~ 6250 3765
$Comp
L C_Small C96
U 1 1 590F8710
P 7125 3600
F 0 "C96" H 7150 3700 50  0000 L CNN
F 1 "75pF" H 7150 3500 50  0000 L CNN
F 2 "Capacitors_SMD:C_0402" H 7163 3450 50  0001 C CNN
F 3 "" H 7125 3600 50  0000 C CNN
F 4 "GRM1555C1H750JA01D" H 7125 3600 60  0001 C CNN "manf#"
	1    7125 3600
	1    0    0    -1  
$EndComp
Wire Wire Line
	7125 3400 7125 3500
Connection ~ 6900 3400
Wire Wire Line
	7125 3700 7125 3730
Wire Wire Line
	7125 3730 6900 3730
Connection ~ 6900 3730
$Comp
L C_Small C97
U 1 1 590F8B51
P 7820 3555
F 0 "C97" H 7845 3655 50  0000 L CNN
F 1 "75pF" H 7845 3455 50  0000 L CNN
F 2 "Capacitors_SMD:C_0402" H 7858 3405 50  0001 C CNN
F 3 "" H 7820 3555 50  0000 C CNN
F 4 "GRM1555C1H750JA01D" H 7820 3555 60  0001 C CNN "manf#"
	1    7820 3555
	1    0    0    -1  
$EndComp
Wire Wire Line
	7820 3300 7820 3455
Connection ~ 7600 3300
Wire Wire Line
	7820 3655 7820 3670
Wire Wire Line
	7820 3670 7600 3670
Connection ~ 7600 3670
$Comp
L CONN_01X01 P10
U 1 1 59124E8C
P 4925 3150
F 0 "P10" H 5025 3150 50  0000 L CNN
F 1 "Testpad" H 4850 3025 50  0000 L CNN
F 2 "Measurement_Points:Measurement_Point_Square-SMD-Pad_Small" H 4925 3150 50  0001 C CNN
F 3 "" H 4925 3150 50  0000 C CNN
	1    4925 3150
	1    0    0    -1  
$EndComp
Wire Wire Line
	4525 3150 4725 3150
$Comp
L CONN_01X01 P13
U 1 1 5912518E
P 5250 3725
F 0 "P13" H 5350 3725 50  0000 L CNN
F 1 "Testpad" H 5175 3600 50  0000 L CNN
F 2 "Measurement_Points:Measurement_Point_Square-SMD-Pad_Small" H 5250 3725 50  0001 C CNN
F 3 "" H 5250 3725 50  0000 C CNN
	1    5250 3725
	1    0    0    -1  
$EndComp
$Comp
L CONN_01X01 P19
U 1 1 59125238
P 5250 3950
F 0 "P19" H 5350 3950 50  0000 L CNN
F 1 "Testpad" H 5175 3825 50  0000 L CNN
F 2 "Measurement_Points:Measurement_Point_Square-SMD-Pad_Small" H 5250 3950 50  0001 C CNN
F 3 "" H 5250 3950 50  0000 C CNN
	1    5250 3950
	1    0    0    -1  
$EndComp
$Comp
L CONN_01X01 P45
U 1 1 591252FB
P 5250 4175
F 0 "P45" H 5350 4175 50  0000 L CNN
F 1 "Testpad" H 5175 4050 50  0000 L CNN
F 2 "Measurement_Points:Measurement_Point_Square-SMD-Pad_Small" H 5250 4175 50  0001 C CNN
F 3 "" H 5250 4175 50  0000 C CNN
	1    5250 4175
	1    0    0    -1  
$EndComp
$Comp
L CONN_01X01 P46
U 1 1 59125365
P 5250 4425
F 0 "P46" H 5350 4425 50  0000 L CNN
F 1 "Testpad" H 5175 4300 50  0000 L CNN
F 2 "Measurement_Points:Measurement_Point_Square-SMD-Pad_Small" H 5250 4425 50  0001 C CNN
F 3 "" H 5250 4425 50  0000 C CNN
	1    5250 4425
	1    0    0    -1  
$EndComp
Wire Wire Line
	4525 3700 5050 3700
Wire Wire Line
	5050 3700 5050 3725
Wire Wire Line
	4525 3800 5050 3800
Wire Wire Line
	5050 3800 5050 3950
Wire Wire Line
	4525 3900 4950 3900
Wire Wire Line
	4950 3900 4950 4175
Wire Wire Line
	4950 4175 5050 4175
Wire Wire Line
	4525 4000 4825 4000
Wire Wire Line
	4825 4000 4825 4425
Wire Wire Line
	4825 4425 5050 4425
NoConn ~ 4550 2950
NoConn ~ 4550 3050
Wire Wire Line
	4550 2950 4525 2950
Wire Wire Line
	4550 3050 4525 3050
$EndSCHEMATC
