EESchema Schematic File Version 2
LIBS:Raspberry_Shield-rescue
LIBS:PCF8575
LIBS:ac-dc
LIBS:adc-dac
LIBS:Altera
LIBS:analog_devices
LIBS:analog_switches
LIBS:atmel
LIBS:audio
LIBS:brooktre
LIBS:contrib
LIBS:cypress
LIBS:dc-dc
LIBS:device
LIBS:digital-audio
LIBS:dsp
LIBS:elec-unifil
LIBS:ESD_Protection
LIBS:ftdi
LIBS:gennum
LIBS:hc11
LIBS:intel
LIBS:interface
LIBS:ir
LIBS:Lattice
LIBS:linear
LIBS:maxim
LIBS:memory
LIBS:microchip
LIBS:microcontrollers
LIBS:motor_drivers
LIBS:motorola
LIBS:nordicsemi
LIBS:onsemi
LIBS:opto
LIBS:Oscillators
LIBS:philips
LIBS:power
LIBS:powerint
LIBS:Power_Management
LIBS:pspice
LIBS:references
LIBS:regul
LIBS:rfcom
LIBS:sensors
LIBS:silabs
LIBS:siliconi
LIBS:supertex
LIBS:texas
LIBS:video
LIBS:Worldsemi
LIBS:Xicor
LIBS:xilinx
LIBS:Zilog
LIBS:Symbols_DCDC-ACDC-Converter_RevC_20Jul2012
LIBS:Symbols_EN60617_13Mar2013
LIBS:Symbols_EN60617-10_HF-Radio_DRAFT_12Sep2013
LIBS:Symbols_ICs-Diskrete_RevD10
LIBS:Symbols_ICs-Opto_RevB_16Sep2013
LIBS:Symbols_Microcontroller_Philips-NXP_RevA_06Oct2013
LIBS:SymbolsSimilarEN60617+oldDIN617-RevE8
LIBS:Symbols_Socket-DIN41612_RevA
LIBS:Symbols_Transformer-Diskrete_RevA
LIBS:Atmega8
LIBS:74lvc1g32
LIBS:Raspberry_Shield-cache
EELAYER 26 0
EELAYER END
$Descr A4 11693 8268
encoding utf-8
Sheet 2 5
Title "Laser4DIY Raspberry Pi Shield"
Date "2017-12-22"
Rev "01"
Comp ""
Comment1 ""
Comment2 ""
Comment3 ""
Comment4 ""
$EndDescr
Text Notes 1260 670  0    60   ~ 0
Barrel Plug must be 2.5mm ID x 5.5mm OD
$Comp
L LED-RESCUE-Raspberry_Shield D1
U 1 1 57A08DD7
P 5790 1250
AR Path="/57A08DD7" Ref="D1"  Part="1" 
AR Path="/579F3726/57A08DD7" Ref="D1"  Part="1" 
F 0 "D1" H 5790 1350 50  0000 C CNN
F 1 "LED" H 5790 1150 50  0000 C CNN
F 2 "LEDs:LED_0805" H 5790 1075 60  0001 C CNN
F 3 "http://www.osram-os.com/Graphics/XPic9/00078860_0.pdf" H 5790 1250 60  0001 C CNN
F 4 "LG R971-KN-1" H 5790 1250 60  0001 C CNN "manf#"
F 5 "LED CHIPLED 570NM GREEN" H 5790 1250 60  0001 C CNN "Characteristics"
F 6 "Power On Green LED" H 5790 1250 60  0001 C CNN "Description"
F 7 "OSRAM Opto" H 5790 1250 60  0001 C CNN "MFN"
F 8 "LG R971-KN-1" H 5790 1250 60  0001 C CNN "MFP"
F 9 "SMD_0805" H 5790 1250 60  0001 C CNN "Package ID"
F 10 "ANY" H 5790 1250 60  0001 C CNN "Source"
F 11 "N" H 5790 1250 60  0001 C CNN "Critical"
F 12 "Voltage_Reg" H 5790 1250 60  0001 C CNN "Subsystem"
F 13 "~" H 5790 1250 60  0001 C CNN "Notes"
	1    5790 1250
	-1   0    0    1   
$EndComp
Wire Notes Line
	1240 675  2190 675 
Wire Notes Line
	1250 675  1250 2000
Wire Wire Line
	4990 1250 5190 1250
Wire Wire Line
	6315 1250 5990 1250
Wire Wire Line
	5390 1250 5590 1250
$Comp
L GND-RESCUE-Raspberry_Shield-RESCUE-Raspberry_Shield #PWR064
U 1 1 57A08DE0
P 6315 1250
F 0 "#PWR064" H 6315 1000 50  0001 C CNN
F 1 "GND" H 6315 1100 50  0001 C CNN
F 2 "" H 6315 1250 60  0000 C CNN
F 3 "" H 6315 1250 60  0000 C CNN
F 4 "ANY" H 6315 1250 60  0001 C CNN "Source"
F 5 "N" H 6315 1250 60  0001 C CNN "Critical"
F 6 "~" H 6315 1250 60  0001 C CNN "Notes"
	1    6315 1250
	0    -1   -1   0   
$EndComp
$Comp
L GND-RESCUE-Raspberry_Shield-RESCUE-Raspberry_Shield #PWR065
U 1 1 57A08DE1
P 1900 3100
F 0 "#PWR065" H 1900 2850 50  0001 C CNN
F 1 "GND" H 1900 2950 50  0001 C CNN
F 2 "" H 1900 3100 60  0000 C CNN
F 3 "" H 1900 3100 60  0000 C CNN
F 4 "ANY" H 1900 3100 60  0001 C CNN "Source"
F 5 "N" H 1900 3100 60  0001 C CNN "Critical"
F 6 "~" H 1900 3100 60  0001 C CNN "Notes"
	1    1900 3100
	1    0    0    -1  
$EndComp
$Comp
L Vin #PWR066
U 1 1 579FC472
P 1750 940
F 0 "#PWR066" H 1750 1030 20  0001 C CNN
F 1 "Vin" H 1746 1078 30  0000 C CNN
F 2 "" H 1750 940 60  0000 C CNN
F 3 "" H 1750 940 60  0000 C CNN
	1    1750 940 
	1    0    0    -1  
$EndComp
$Comp
L C_Small C16
U 1 1 579FCB1E
P 3825 2525
F 0 "C16" H 3917 2571 50  0000 L CNN
F 1 "10µF 35V" H 3917 2480 50  0000 L CNN
F 2 "IPC7351-Nominal:RESC2012X60" H 3825 2525 50  0001 C CNN
F 3 "" H 3825 2525 50  0000 C CNN
F 4 "GRM21BR6YA106KE43L" H 3825 2525 60  0001 C CNN "manf#"
	1    3825 2525
	1    0    0    -1  
$EndComp
NoConn ~ 4175 2375
Wire Wire Line
	3275 2075 4175 2075
Wire Wire Line
	3825 1775 3825 2425
Connection ~ 3825 2075
Wire Wire Line
	3275 3025 7340 3025
Wire Wire Line
	3825 3025 3825 2625
$Comp
L Vin #PWR067
U 1 1 579FCE22
P 3825 1775
F 0 "#PWR067" H 3825 1865 20  0001 C CNN
F 1 "Vin" H 3821 1913 30  0000 C CNN
F 2 "" H 3825 1775 60  0000 C CNN
F 3 "" H 3825 1775 60  0000 C CNN
	1    3825 1775
	1    0    0    -1  
$EndComp
$Comp
L C_Small C17
U 1 1 579FD168
P 5125 2225
F 0 "C17" H 5217 2271 50  0000 L CNN
F 1 "0.1µF 50V" H 5217 2180 50  0000 L CNN
F 2 "IPC7351-Nominal:CAPC1005X60" H 5125 2225 50  0001 C CNN
F 3 "" H 5125 2225 50  0000 C CNN
F 4 "GRM155R61H104ME14D" H 5125 2225 60  0001 C CNN "manf#"
	1    5125 2225
	1    0    0    -1  
$EndComp
Wire Wire Line
	4975 2075 5125 2075
Wire Wire Line
	5125 2075 5125 2125
Wire Wire Line
	4975 2375 5475 2375
Wire Wire Line
	5125 2375 5125 2325
Connection ~ 5125 2375
Wire Wire Line
	4975 2700 6175 2700
$Comp
L R_Small R32
U 1 1 579FDF94
P 6175 2550
F 0 "R32" H 6234 2596 50  0000 L CNN
F 1 "100k" H 6234 2505 50  0000 L CNN
F 2 "IPC7351-Nominal:RESC1005X40" H 6175 2550 50  0001 C CNN
F 3 "" H 6175 2550 50  0000 C CNN
F 4 "RC1005F104CS" H 6175 2550 60  0001 C CNN "manf#"
	1    6175 2550
	1    0    0    -1  
$EndComp
Wire Wire Line
	6175 2375 6175 2450
Wire Wire Line
	6175 2650 6175 2775
$Comp
L R_Small R33
U 1 1 579FE16F
P 6175 2875
F 0 "R33" H 6234 2921 50  0000 L CNN
F 1 "13K" H 6234 2830 50  0000 L CNN
F 2 "IPC7351-Nominal:RESC1005X40" H 6175 2875 50  0001 C CNN
F 3 "" H 6175 2875 50  0000 C CNN
F 4 "RC1005F133CS" H 6175 2875 60  0001 C CNN "manf#"
F 5 "1276-4125-1-ND" H 6175 2875 60  0001 C CNN "#digikey"
	1    6175 2875
	1    0    0    -1  
$EndComp
Connection ~ 6175 2700
Wire Wire Line
	6175 3025 6175 2975
Connection ~ 3825 3025
Wire Wire Line
	5175 3025 5175 3100
Connection ~ 5175 3025
$Comp
L GND-RESCUE-Raspberry_Shield-RESCUE-Raspberry_Shield #PWR068
U 1 1 579FE4B9
P 5175 3100
F 0 "#PWR068" H 5175 2850 50  0001 C CNN
F 1 "GND" H 5180 2927 50  0000 C CNN
F 2 "" H 5175 3100 50  0000 C CNN
F 3 "" H 5175 3100 50  0000 C CNN
	1    5175 3100
	1    0    0    -1  
$EndComp
Wire Wire Line
	6575 3025 6575 2800
Connection ~ 6175 3025
Wire Wire Line
	6575 1775 6575 2600
$Comp
L LED-RESCUE-Raspberry_Shield D4
U 1 1 57A3C149
P 7690 5415
AR Path="/57A3C149" Ref="D4"  Part="1" 
AR Path="/579F3726/57A3C149" Ref="D4"  Part="1" 
F 0 "D4" H 7690 5515 50  0000 C CNN
F 1 "LED" H 7690 5315 50  0000 C CNN
F 2 "LEDs:LED_0805" H 7690 5190 60  0001 C CNN
F 3 "http://www.osram-os.com/Graphics/XPic9/00078860_0.pdf" H 7690 5415 60  0001 C CNN
F 4 "LG R971-KN-1" H 7690 5415 60  0001 C CNN "manf#"
F 5 "LED CHIPLED 570NM GREEN" H 7690 5415 60  0001 C CNN "Characteristics"
F 6 "Power On Green LED" H 7690 5415 60  0001 C CNN "Description"
F 7 "OSRAM Opto" H 7690 5415 60  0001 C CNN "MFN"
F 8 "LG R971-KN-1" H 7690 5415 60  0001 C CNN "MFP"
F 9 "SMD_0805" H 7690 5415 60  0001 C CNN "Package ID"
F 10 "ANY" H 7690 5415 60  0001 C CNN "Source"
F 11 "N" H 7690 5415 60  0001 C CNN "Critical"
F 12 "Voltage_Reg" H 7690 5415 60  0001 C CNN "Subsystem"
F 13 "~" H 7690 5415 60  0001 C CNN "Notes"
	1    7690 5415
	0    -1   -1   0   
$EndComp
Wire Wire Line
	7690 4615 7690 4815
Wire Wire Line
	7690 5940 7690 5615
Wire Wire Line
	7690 5015 7690 5215
$Comp
L GND-RESCUE-Raspberry_Shield-RESCUE-Raspberry_Shield #PWR069
U 1 1 57A3C15B
P 7690 5940
F 0 "#PWR069" H 7690 5690 50  0001 C CNN
F 1 "GND" H 7690 5790 50  0001 C CNN
F 2 "" H 7690 5940 60  0000 C CNN
F 3 "" H 7690 5940 60  0000 C CNN
F 4 "ANY" H 7690 5940 60  0001 C CNN "Source"
F 5 "N" H 7690 5940 60  0001 C CNN "Critical"
F 6 "~" H 7690 5940 60  0001 C CNN "Notes"
	1    7690 5940
	1    0    0    -1  
$EndComp
$Comp
L +12V #PWR070
U 1 1 57A3C1FA
P 7690 4615
F 0 "#PWR070" H 7690 4465 50  0001 C CNN
F 1 "+12V" H 7705 4788 50  0000 C CNN
F 2 "" H 7690 4615 50  0000 C CNN
F 3 "" H 7690 4615 50  0000 C CNN
	1    7690 4615
	1    0    0    -1  
$EndComp
$Comp
L Q_PMOS_GSD Q5
U 1 1 57A912B1
P 9175 3575
F 0 "Q5" V 9503 3575 50  0000 C CNN
F 1 "PMV250EPEAR" V 9412 3575 50  0000 C CNN
F 2 "TO_SOT_Packages_SMD:SOT-23" H 9375 3675 50  0001 C CNN
F 3 "" H 9175 3575 50  0000 C CNN
F 4 "PMV250EPEAR" H 9175 3575 60  0001 C CNN "manf#"
	1    9175 3575
	0    -1   -1   0   
$EndComp
Wire Wire Line
	8975 3475 8375 3475
Wire Wire Line
	8375 3475 8375 3675
Wire Wire Line
	8000 3675 8825 3675
Wire Wire Line
	8825 3675 8825 3725
Connection ~ 8375 3675
Wire Wire Line
	9375 3475 9900 3475
Wire Wire Line
	9900 3475 9900 3675
Wire Wire Line
	9525 3675 10500 3675
Wire Wire Line
	9525 3675 9525 3725
Connection ~ 9900 3675
Wire Wire Line
	9175 3775 9175 4150
Wire Wire Line
	9175 4150 9525 4150
Wire Wire Line
	9525 4025 9525 4225
Wire Wire Line
	9025 3875 9075 3875
Wire Wire Line
	9075 3875 9075 4100
Wire Wire Line
	8825 4100 9275 4100
Wire Wire Line
	9275 4100 9275 3875
Wire Wire Line
	9275 3875 9325 3875
Wire Wire Line
	8825 4025 8825 4225
Connection ~ 9075 4100
Connection ~ 8825 4100
Connection ~ 9525 4150
Wire Wire Line
	8825 4425 8825 4525
Wire Wire Line
	8825 4525 9525 4525
Wire Wire Line
	9525 4525 9525 4425
Wire Wire Line
	9175 4525 9175 4625
Connection ~ 9175 4525
$Comp
L GND-RESCUE-Raspberry_Shield-RESCUE-Raspberry_Shield #PWR071
U 1 1 57A9299B
P 9175 4625
F 0 "#PWR071" H 9175 4375 50  0001 C CNN
F 1 "GND" H 9180 4452 50  0000 C CNN
F 2 "" H 9175 4625 50  0000 C CNN
F 3 "" H 9175 4625 50  0000 C CNN
	1    9175 4625
	1    0    0    -1  
$EndComp
$Comp
L DMMT5401-7-F Q4
U 1 1 57A93ADB
P 8875 3875
F 0 "Q4" H 9001 3921 50  0000 L CNN
F 1 "DMMT5401-7-F" H 9001 3830 50  0000 L CNN
F 2 "smd-semi:SOT-23-6" H 8875 3675 50  0001 C CNN
F 3 "" H 8875 3875 60  0000 C CNN
F 4 "DMMT5401-7-F" H 8875 3875 60  0001 C CNN "manf#"
	1    8875 3875
	-1   0    0    -1  
$EndComp
$Comp
L DMMT5401-7-F Q4
U 2 1 57A93B60
P 9475 3875
F 0 "Q4" H 9602 3921 50  0000 L CNN
F 1 "DMMT5401-7-F" H 9602 3830 50  0000 L CNN
F 2 "smd-semi:SOT-23-6" H 9475 3675 50  0001 C CNN
F 3 "" H 9475 3875 60  0000 C CNN
F 4 "DMMT5401-7-F" H 9475 3875 60  0001 C CNN "manf#"
	2    9475 3875
	1    0    0    -1  
$EndComp
Wire Wire Line
	8000 3275 8000 3675
Wire Wire Line
	10350 3675 10350 3275
$Comp
L +5VA #PWR072
U 1 1 57A99CE4
P 10350 3275
F 0 "#PWR072" H 10350 3125 50  0001 C CNN
F 1 "+5VA" H 10365 3448 50  0000 C CNN
F 2 "" H 10350 3275 50  0000 C CNN
F 3 "" H 10350 3275 50  0000 C CNN
	1    10350 3275
	1    0    0    -1  
$EndComp
$Comp
L TPS54302 U7
U 1 1 57A9CC64
P 4575 2375
F 0 "U7" H 4575 2962 60  0000 C CNN
F 1 "TPS54302" H 4575 2856 60  0000 C CNN
F 2 "smd-semi:SOT-23-6" H 4575 2375 60  0001 C CNN
F 3 "" H 4575 2375 60  0001 C CNN
F 4 "TPS54302DDCT" H 4575 2375 60  0001 C CNN "manf#"
F 5 "296-44542-1-ND" H 4575 2375 60  0001 C CNN "digikey#"
	1    4575 2375
	1    0    0    -1  
$EndComp
$Comp
L R_Small R46
U 1 1 57ACB76A
P 5290 1250
F 0 "R46" H 5349 1296 50  0000 L CNN
F 1 "499" H 5349 1205 50  0000 L CNN
F 2 "IPC7351-Nominal:RESC1005X40" H 5290 1250 50  0001 C CNN
F 3 "" H 5290 1250 50  0000 C CNN
F 4 "RC1005F4990CS" H 5290 1250 60  0001 C CNN "manf#"
	1    5290 1250
	0    -1   -1   0   
$EndComp
$Comp
L R_Small R47
U 1 1 57ACBE11
P 7690 4915
F 0 "R47" H 7749 4961 50  0000 L CNN
F 1 "1.2k" H 7749 4870 50  0000 L CNN
F 2 "IPC7351-Nominal:RESC1005X40" H 7690 4915 50  0001 C CNN
F 3 "" H 7690 4915 50  0000 C CNN
F 4 "RC1005J122CS" H 7690 4915 60  0001 C CNN "manf#"
	1    7690 4915
	1    0    0    -1  
$EndComp
$Comp
L R_Small R31
U 1 1 57ACCA24
P 9525 4325
F 0 "R31" H 9584 4371 50  0000 L CNN
F 1 "47k" H 9600 4275 50  0000 L CNN
F 2 "IPC7351-Nominal:RESC1005X40" H 9525 4325 50  0001 C CNN
F 3 "" H 9525 4325 50  0000 C CNN
F 4 "ERJ-2RKF4702X" H 9525 4325 60  0001 C CNN "manf#"
	1    9525 4325
	1    0    0    -1  
$EndComp
$Comp
L R_Small R3
U 1 1 57ACCD51
P 8825 4325
F 0 "R3" H 8884 4371 50  0000 L CNN
F 1 "10k" H 8884 4280 50  0000 L CNN
F 2 "IPC7351-Nominal:RESC1005X40" H 8825 4325 50  0001 C CNN
F 3 "" H 8825 4325 50  0000 C CNN
F 4 "RC1005F103CS" H 8825 4325 60  0001 C CNN "manf#"
	1    8825 4325
	1    0    0    -1  
$EndComp
Wire Wire Line
	1750 2250 1400 2250
Text Notes 8900 3150 0    60   ~ 0
----->\nIdeal Diode
$Comp
L C_Small C5
U 1 1 57C4565E
P 3275 2520
F 0 "C5" H 3367 2566 50  0000 L CNN
F 1 "0.1µF 50V" H 3367 2475 50  0000 L CNN
F 2 "IPC7351-Nominal:CAPC1005X60" H 3275 2520 50  0001 C CNN
F 3 "" H 3275 2520 50  0000 C CNN
F 4 "GRM155R61H104ME14D" H 3275 2520 60  0001 C CNN "manf#"
	1    3275 2520
	-1   0    0    -1  
$EndComp
Wire Wire Line
	3275 2075 3275 2420
Wire Wire Line
	3275 3025 3275 2620
$Comp
L C_Small C6
U 1 1 57C45DE8
P 5975 2550
F 0 "C6" H 6067 2596 50  0000 L CNN
F 1 "75pF 50V" H 6067 2505 50  0000 L CNN
F 2 "IPC7351-Nominal:CAPC1005X60" H 5975 2550 50  0001 C CNN
F 3 "" H 5975 2550 50  0000 C CNN
F 4 "GRM1555C1H750JA01D" H 5975 2550 60  0001 C CNN "manf#"
	1    5975 2550
	-1   0    0    1   
$EndComp
Wire Wire Line
	5975 2375 5975 2450
Wire Wire Line
	5975 2650 5975 2700
Connection ~ 5975 2700
Wire Wire Line
	5675 2375 7340 2375
Connection ~ 6575 2375
Connection ~ 5975 2375
Connection ~ 6175 2375
$Comp
L RT8292B U3
U 1 1 57D6C904
P 4900 5075
F 0 "U3" H 4900 5712 60  0000 C CNN
F 1 "RT8292B" H 4900 5606 60  0000 C CNN
F 2 "Housings_SOIC:SOIC-8-1EP_3.9x4.9mm_Pitch1.27mm" H 4900 5125 60  0001 C CNN
F 3 "" H 4900 5125 60  0001 C CNN
F 4 "RT8292BHGSP" H 4900 5075 60  0001 C CNN "manf#"
F 5 "1028-1049-1-ND" H 4900 5075 60  0001 C CNN "digikey#"
	1    4900 5075
	1    0    0    -1  
$EndComp
$Comp
L C_Small C23
U 1 1 57D6CB8D
P 5475 4850
F 0 "C23" H 5567 4896 50  0000 L CNN
F 1 "0.1µF 50V" H 5567 4805 50  0000 L CNN
F 2 "IPC7351-Nominal:CAPC1005X60" H 5475 4850 50  0001 C CNN
F 3 "" H 5475 4850 50  0000 C CNN
F 4 "GRM155R61H104ME14D" H 5475 4850 60  0001 C CNN "manf#"
	1    5475 4850
	1    0    0    -1  
$EndComp
$Comp
L C_Small C18
U 1 1 57D6CC4C
P 3600 5050
F 0 "C18" H 3692 5096 50  0000 L CNN
F 1 "10µF 35V" H 3692 5005 50  0000 L CNN
F 2 "IPC7351-Nominal:RESC2012X60" H 3600 5050 50  0001 C CNN
F 3 "" H 3600 5050 50  0000 C CNN
F 4 "GRM21BR6YA106KE43L" H 3600 5050 60  0001 C CNN "manf#"
	1    3600 5050
	1    0    0    -1  
$EndComp
$Comp
L C_Small C22
U 1 1 57D6CD50
P 4250 5325
F 0 "C22" H 4342 5371 50  0000 L CNN
F 1 "0.1µF 50V" H 4342 5280 50  0000 L CNN
F 2 "IPC7351-Nominal:CAPC1005X60" H 4250 5325 50  0001 C CNN
F 3 "" H 4250 5325 50  0000 C CNN
F 4 "GRM155R61H104ME14D" H 4250 5325 60  0001 C CNN "manf#"
	1    4250 5325
	-1   0    0    -1  
$EndComp
$Comp
L C_Small C35
U 1 1 57D6CE9B
P 6500 5225
F 0 "C35" H 6592 5271 50  0000 L CNN
F 1 "22µF 25V" H 6592 5180 50  0000 L CNN
F 2 "Capacitors_SMD:C_1210" H 6500 5225 50  0001 C CNN
F 3 "" H 6500 5225 50  0000 C CNN
F 4 "1276-3392-1-ND" H 6500 5225 60  0001 C CNN "digikey#"
F 5 "CL32B226KAJNNNE" H 6500 5225 60  0001 C CNN "manf#"
	1    6500 5225
	1    0    0    -1  
$EndComp
$Comp
L GND-RESCUE-Raspberry_Shield-RESCUE-Raspberry_Shield #PWR073
U 1 1 57D6CF7A
P 5150 5850
F 0 "#PWR073" H 5150 5600 50  0001 C CNN
F 1 "GND" H 5155 5677 50  0000 C CNN
F 2 "" H 5150 5850 50  0000 C CNN
F 3 "" H 5150 5850 50  0000 C CNN
	1    5150 5850
	1    0    0    -1  
$EndComp
$Comp
L Vin #PWR074
U 1 1 57D6D99F
P 3600 4325
F 0 "#PWR074" H 3600 4415 20  0001 C CNN
F 1 "Vin" H 3596 4463 30  0000 C CNN
F 2 "" H 3600 4325 60  0000 C CNN
F 3 "" H 3600 4325 60  0000 C CNN
	1    3600 4325
	1    0    0    -1  
$EndComp
Wire Wire Line
	3600 4325 3600 4950
Connection ~ 3600 4725
Wire Wire Line
	4500 5175 4250 5175
Wire Wire Line
	4250 5175 4250 5225
Wire Wire Line
	4500 5325 4400 5325
Wire Wire Line
	4400 5325 4400 5775
Wire Wire Line
	4500 5475 4450 5475
Wire Wire Line
	4450 5475 4450 5775
Wire Wire Line
	4250 5775 4250 5425
Wire Wire Line
	3600 5775 3600 5150
Wire Wire Line
	5300 4725 5475 4725
Wire Wire Line
	5475 4725 5475 4750
Wire Wire Line
	5300 4975 5850 4975
Wire Wire Line
	5475 4975 5475 4950
Connection ~ 5475 4975
$Comp
L L_Small L2
U 1 1 57D6F076
P 5950 4975
F 0 "L2" V 6135 4975 50  0000 C CNN
F 1 "10µH" V 6044 4975 50  0000 C CNN
F 2 "inductors_[JS]:SRN1060" H 5950 4975 50  0001 C CNN
F 3 "" H 5950 4975 50  0000 C CNN
F 4 "SRU1048A-100YCT-ND" V 5950 4975 60  0001 C CNN "digikey#"
F 5 "SRU1048A-100Y" H 5950 4975 60  0001 C CNN "manf#"
	1    5950 4975
	0    -1   -1   0   
$EndComp
Wire Wire Line
	6050 4975 7240 4975
Wire Wire Line
	6650 4325 6650 4975
$Comp
L +12V #PWR075
U 1 1 57D6F604
P 6650 4325
F 0 "#PWR075" H 6650 4175 50  0001 C CNN
F 1 "+12V" H 6665 4498 50  0000 C CNN
F 2 "" H 6650 4325 50  0000 C CNN
F 3 "" H 6650 4325 50  0000 C CNN
	1    6650 4325
	1    0    0    -1  
$EndComp
Wire Wire Line
	6500 5125 6500 4975
Connection ~ 6500 4975
Wire Wire Line
	5300 5175 5950 5175
Wire Wire Line
	5950 5175 5950 5275
Wire Wire Line
	5950 5275 6150 5275
Wire Wire Line
	5300 5475 5450 5475
$Comp
L C_Small C34
U 1 1 57D6FAF4
P 5550 5475
F 0 "C34" V 5321 5475 50  0000 C CNN
F 1 "0.82nF 50V" V 5412 5475 50  0000 C CNN
F 2 "IPC7351-Nominal:CAPC1005X60" H 5550 5475 50  0001 C CNN
F 3 "" H 5550 5475 50  0000 C CNN
F 4 "GRM155R71H821KA01D" H 5550 5475 60  0001 C CNN "manf#"
	1    5550 5475
	0    1    1    0   
$EndComp
Wire Wire Line
	5650 5475 5750 5475
Wire Wire Line
	5750 5475 5750 5525
Wire Wire Line
	5750 5775 5750 5725
Wire Wire Line
	3600 5775 7240 5775
Wire Wire Line
	5150 5775 5150 5850
Connection ~ 5150 5775
Connection ~ 4250 5775
Connection ~ 4400 5775
Connection ~ 4450 5775
$Comp
L R_Small R67
U 1 1 57D703FE
P 6150 5425
AR Path="/579F3726/57D703FE" Ref="R67"  Part="1" 
AR Path="/5806772C/57D703FE" Ref="R67"  Part="1" 
F 0 "R67" H 6091 5379 50  0000 R CNN
F 1 "6k2" H 6091 5470 50  0000 R CNN
F 2 "IPC7351-Nominal:RESC1005X40" H 6150 5425 50  0001 C CNN
F 3 "" H 6150 5425 50  0000 C CNN
F 4 "RC0402FR-076K2L" H 6150 5425 60  0001 C CNN "manf#"
	1    6150 5425
	-1   0    0    1   
$EndComp
Wire Wire Line
	6150 5775 6150 5525
Connection ~ 5750 5775
Wire Wire Line
	6150 5225 6150 5325
Connection ~ 6150 5275
Wire Wire Line
	6150 5025 6150 4975
Connection ~ 6150 4975
$Comp
L R_Small R65
U 1 1 57D72ACF
P 6150 5125
F 0 "R65" H 6209 5171 50  0000 L CNN
F 1 "100k" H 6209 5080 50  0000 L CNN
F 2 "IPC7351-Nominal:RESC1005X40" H 6150 5125 50  0001 C CNN
F 3 "" H 6150 5125 50  0000 C CNN
F 4 "RC1005F104CS" H 6150 5125 60  0001 C CNN "manf#"
	1    6150 5125
	1    0    0    -1  
$EndComp
Wire Wire Line
	6500 5775 6500 5325
Connection ~ 6150 5775
$Comp
L R_Small R4
U 1 1 57D72EE0
P 4250 4850
F 0 "R4" H 4309 4896 50  0000 L CNN
F 1 "100k" H 4309 4805 50  0000 L CNN
F 2 "IPC7351-Nominal:RESC1005X40" H 4250 4850 50  0001 C CNN
F 3 "" H 4250 4850 50  0000 C CNN
F 4 "RC1005F104CS" H 4250 4850 60  0001 C CNN "manf#"
	1    4250 4850
	-1   0    0    1   
$EndComp
Wire Wire Line
	4250 4750 4250 4725
Connection ~ 4250 4725
Wire Wire Line
	4500 4975 4250 4975
Wire Wire Line
	4250 4975 4250 4950
$Comp
L R_Small R66
U 1 1 57D73A98
P 5750 5625
F 0 "R66" H 5809 5671 50  0000 L CNN
F 1 "100k" H 5809 5580 50  0000 L CNN
F 2 "IPC7351-Nominal:RESC1005X40" H 5750 5625 50  0001 C CNN
F 3 "" H 5750 5625 50  0000 C CNN
F 4 "RC1005F104CS" H 5750 5625 60  0001 C CNN "manf#"
	1    5750 5625
	1    0    0    -1  
$EndComp
Wire Wire Line
	4175 2700 4050 2700
Wire Wire Line
	4050 2700 4050 3025
Connection ~ 4050 3025
$Comp
L BSZ120P03NS3 Q16
U 1 1 5813D90D
P 1850 1850
F 0 "Q16" H 2166 1928 70  0000 L CNN
F 1 "BSZ120P03NS3" H 2166 1814 60  0000 L CNN
F 2 "Mosfet-[JS]:PG-TSDSON-8-FL" H 1850 1850 60  0001 C CNN
F 3 "" H 1850 1850 60  0000 C CNN
F 4 "BSZ120P03NS3" H 1850 1850 60  0001 C CNN "manf#"
	1    1850 1850
	-1   0    0    -1  
$EndComp
Wire Wire Line
	1650 2250 1650 2000
Wire Wire Line
	1750 2000 1750 2350
Connection ~ 1650 2250
Wire Wire Line
	1700 2000 1700 2250
Connection ~ 1700 2250
Wire Wire Line
	1600 1650 1600 1550
Wire Wire Line
	1600 1550 1750 1550
Wire Wire Line
	1750 940  1750 1650
Wire Wire Line
	1650 1650 1650 1550
Connection ~ 1650 1550
Wire Wire Line
	1700 1650 1700 1550
Connection ~ 1700 1550
Connection ~ 1750 1550
$Comp
L CONN_01X02 P11
U 1 1 5813E431
P 2450 2650
F 0 "P11" H 2528 2691 50  0000 L CNN
F 1 "CONN_01X02" H 2200 2450 50  0000 L CNN
F 2 "LHE-PH-NAB_[JS]:PH-2AB" H 2450 2650 50  0001 C CNN
F 3 "" H 2450 2650 50  0000 C CNN
	1    2450 2650
	1    0    0    -1  
$EndComp
Wire Wire Line
	2175 2600 2250 2600
Wire Wire Line
	2250 2700 2125 2700
Wire Wire Line
	2125 2700 2125 3000
Wire Wire Line
	2125 3000 1900 3000
Connection ~ 1900 3000
$Comp
L R_Small R77
U 1 1 5813F59D
P 1950 2100
F 0 "R77" H 2009 2146 50  0000 L CNN
F 1 "10k" H 2009 2055 50  0000 L CNN
F 2 "IPC7351-Nominal:RESC1005X40" H 1950 2100 50  0001 C CNN
F 3 "" H 1950 2100 50  0000 C CNN
F 4 "RC1005F103CS" H 1950 2100 60  0001 C CNN "manf#"
	1    1950 2100
	0    1    1    0   
$EndComp
Wire Wire Line
	2175 1850 2175 2600
Wire Wire Line
	2050 2100 2175 2100
Connection ~ 2175 2100
Wire Wire Line
	1850 2100 1750 2100
Connection ~ 1750 2100
Text Label 1650 2250 1    60   ~ 0
Source
$Comp
L CONN_01X01 P30
U 1 1 5835A488
P 2475 1850
F 0 "P30" H 2552 1891 50  0000 L CNN
F 1 "Testpad" H 2552 1800 50  0000 L CNN
F 2 "w_details:testpoint_2mm" H 2475 1850 50  0001 C CNN
F 3 "" H 2475 1850 50  0000 C CNN
	1    2475 1850
	1    0    0    -1  
$EndComp
$Comp
L CONN_01X01 P31
U 1 1 5835A8EA
P 6275 1950
F 0 "P31" H 6353 1991 50  0000 L CNN
F 1 "Testpad" H 6353 1900 50  0000 L CNN
F 2 "w_details:testpoint_2mm" H 6275 1950 50  0001 C CNN
F 3 "" H 6275 1950 50  0000 C CNN
	1    6275 1950
	-1   0    0    -1  
$EndComp
$Comp
L CONN_01X01 P32
U 1 1 5835ABB5
P 6325 4450
F 0 "P32" H 6403 4491 50  0000 L CNN
F 1 "Testpad" H 6403 4400 50  0000 L CNN
F 2 "w_details:testpoint_2mm" H 6325 4450 50  0001 C CNN
F 3 "" H 6325 4450 50  0000 C CNN
	1    6325 4450
	-1   0    0    -1  
$EndComp
$Comp
L CONN_01X01 P33
U 1 1 5835B0BD
P 10700 3675
F 0 "P33" H 10777 3716 50  0000 L CNN
F 1 "Testpad" H 10777 3625 50  0000 L CNN
F 2 "w_details:testpoint_2mm" H 10700 3675 50  0001 C CNN
F 3 "" H 10700 3675 50  0000 C CNN
	1    10700 3675
	1    0    0    -1  
$EndComp
Connection ~ 10350 3675
Wire Wire Line
	6525 4450 6650 4450
Connection ~ 6650 4450
Wire Wire Line
	6475 1950 6575 1950
Connection ~ 6575 1950
Connection ~ 2175 1850
Wire Wire Line
	1950 1850 2275 1850
$Comp
L CONN_01X01 P29
U 1 1 5835C57D
P 2050 1475
F 0 "P29" H 2127 1516 50  0000 L CNN
F 1 "Testpad" H 2127 1425 50  0000 L CNN
F 2 "w_details:testpoint_2mm" H 2050 1475 50  0001 C CNN
F 3 "" H 2050 1475 50  0000 C CNN
	1    2050 1475
	1    0    0    -1  
$EndComp
Wire Wire Line
	1850 1475 1750 1475
Connection ~ 1750 1475
$Comp
L CONN_01X04 P12
U 1 1 584AF772
P 1200 2300
F 0 "P12" H 1278 2341 50  0000 L CNN
F 1 "V_Supply" H 1278 2250 50  0000 L CNN
F 2 "LHE-PH-NAB_[JS]:PH-4AB" H 1200 2300 50  0001 C CNN
F 3 "" H 1200 2300 50  0000 C CNN
	1    1200 2300
	-1   0    0    -1  
$EndComp
Wire Wire Line
	1900 2450 1900 3100
Wire Wire Line
	1400 2450 1900 2450
Wire Wire Line
	1400 2150 1500 2150
Wire Wire Line
	1500 2150 1500 2450
Connection ~ 1500 2450
Wire Wire Line
	1750 2350 1400 2350
Connection ~ 1750 2250
$Comp
L +5V #PWR076
U 1 1 5873EDE3
P 4990 1250
F 0 "#PWR076" H 4990 1100 50  0001 C CNN
F 1 "+5V" H 5005 1423 50  0000 C CNN
F 2 "" H 4990 1250 50  0000 C CNN
F 3 "" H 4990 1250 50  0000 C CNN
	1    4990 1250
	0    -1   -1   0   
$EndComp
$Comp
L +5V #PWR077
U 1 1 5873EE8E
P 6575 1775
F 0 "#PWR077" H 6575 1625 50  0001 C CNN
F 1 "+5V" H 6590 1948 50  0000 C CNN
F 2 "" H 6575 1775 50  0000 C CNN
F 3 "" H 6575 1775 50  0000 C CNN
	1    6575 1775
	1    0    0    -1  
$EndComp
$Comp
L +5V #PWR078
U 1 1 5873F596
P 8000 3275
F 0 "#PWR078" H 8000 3125 50  0001 C CNN
F 1 "+5V" H 8015 3448 50  0000 C CNN
F 2 "" H 8000 3275 50  0000 C CNN
F 3 "" H 8000 3275 50  0000 C CNN
	1    8000 3275
	1    0    0    -1  
$EndComp
$Comp
L C_Small C46
U 1 1 58D81F6C
P 3650 2525
F 0 "C46" H 3742 2571 50  0000 L CNN
F 1 "10µF 35V" H 3742 2480 50  0000 L CNN
F 2 "IPC7351-Nominal:RESC2012X60" H 3650 2525 50  0001 C CNN
F 3 "" H 3650 2525 50  0000 C CNN
F 4 "GRM21BR6YA106KE43L" H 3650 2525 60  0001 C CNN "manf#"
	1    3650 2525
	-1   0    0    -1  
$EndComp
Wire Wire Line
	3650 2425 3650 2075
Connection ~ 3650 2075
Wire Wire Line
	3650 2625 3650 3025
Connection ~ 3650 3025
Wire Wire Line
	5350 2375 5350 3175
Connection ~ 5350 2375
$Comp
L R_Small R42
U 1 1 58D9E1BB
P 5350 3600
F 0 "R42" H 5409 3646 50  0000 L CNN
F 1 "5" H 5409 3555 50  0000 L CNN
F 2 "IPC7351-Nominal:RESC1005X40" H 5350 3600 50  0001 C CNN
F 3 "" H 5350 3600 50  0000 C CNN
F 4 "RC1005F5000CS" H 5350 3600 60  0001 C CNN "manf#"
	1    5350 3600
	1    0    0    -1  
$EndComp
$Comp
L C_Small C71
U 1 1 58D9F14A
P 5350 3275
F 0 "C71" H 5442 3321 50  0000 L CNN
F 1 "470pF 50V" H 5442 3230 50  0000 L CNN
F 2 "IPC7351-Nominal:CAPC1005X60" H 5350 3275 50  0001 C CNN
F 3 "" H 5350 3275 50  0000 C CNN
F 4 "CL05B471KB5NNNC" H 5350 3275 60  0001 C CNN "manf#"
	1    5350 3275
	1    0    0    -1  
$EndComp
Wire Wire Line
	5350 3500 5350 3375
Wire Wire Line
	5350 3700 5350 3875
Wire Wire Line
	5350 3875 4850 3875
Wire Wire Line
	4850 3875 4850 3025
Connection ~ 4850 3025
Wire Wire Line
	5675 4975 5675 5825
$Comp
L R_Small R43
U 1 1 58D9FD3D
P 5675 6200
F 0 "R43" H 5734 6246 50  0000 L CNN
F 1 "5" H 5734 6155 50  0000 L CNN
F 2 "IPC7351-Nominal:RESC1005X40" H 5675 6200 50  0001 C CNN
F 3 "" H 5675 6200 50  0000 C CNN
F 4 "RC1005F5000CS" H 5675 6200 60  0001 C CNN "manf#"
	1    5675 6200
	1    0    0    -1  
$EndComp
$Comp
L C_Small C72
U 1 1 58D9FD44
P 5675 5925
F 0 "C72" H 5767 5971 50  0000 L CNN
F 1 "470pF 50V" H 5767 5880 50  0000 L CNN
F 2 "IPC7351-Nominal:CAPC1005X60" H 5675 5925 50  0001 C CNN
F 3 "" H 5675 5925 50  0000 C CNN
F 4 "CL05B471KB5NNNC" H 5675 5925 60  0001 C CNN "manf#"
	1    5675 5925
	1    0    0    -1  
$EndComp
Wire Wire Line
	5675 6100 5675 6025
Wire Wire Line
	5675 6475 5675 6300
Wire Wire Line
	5000 6475 5675 6475
Connection ~ 5675 4975
Wire Wire Line
	5000 6475 5000 5775
Connection ~ 5000 5775
Connection ~ 3600 5775
$Comp
L CP1_Small C98
U 1 1 5908D6FE
P 1930 1100
F 0 "C98" H 2080 1150 50  0000 C CNN
F 1 "100µF" H 2130 1050 50  0000 C CNN
F 2 "Capacitors_SMD:CP_Elec_6.3x7.7" H 1930 1100 50  0001 C CNN
F 3 "" H 1930 1100 50  0000 C CNN
F 4 "1189-2119-1-ND" V 1930 1100 60  0001 C CNN "digikey#"
F 5 "35TZV100M6.3X8" H 1930 1100 60  0001 C CNN "manf#"
	1    1930 1100
	1    0    0    -1  
$EndComp
$Comp
L CP1_Small C99
U 1 1 59090E36
P 2355 1100
F 0 "C99" H 2505 1150 50  0000 C CNN
F 1 "100µF" H 2555 1050 50  0000 C CNN
F 2 "Capacitors_SMD:CP_Elec_6.3x7.7" H 2355 1100 50  0001 C CNN
F 3 "" H 2355 1100 50  0000 C CNN
F 4 "1189-2119-1-ND" V 2355 1100 60  0001 C CNN "digikey#"
F 5 "35TZV100M6.3X8" H 2355 1100 60  0001 C CNN "manf#"
	1    2355 1100
	1    0    0    -1  
$EndComp
Wire Wire Line
	1750 1000 2355 1000
Connection ~ 1930 1000
Connection ~ 1750 1000
$Comp
L GND-RESCUE-Raspberry_Shield-RESCUE-Raspberry_Shield #PWR079
U 1 1 5909284B
P 1930 1240
F 0 "#PWR079" H 1930 990 50  0001 C CNN
F 1 "GND" H 1930 1090 50  0001 C CNN
F 2 "" H 1930 1240 60  0000 C CNN
F 3 "" H 1930 1240 60  0000 C CNN
F 4 "ANY" H 1930 1240 60  0001 C CNN "Source"
F 5 "N" H 1930 1240 60  0001 C CNN "Critical"
F 6 "~" H 1930 1240 60  0001 C CNN "Notes"
	1    1930 1240
	1    0    0    -1  
$EndComp
$Comp
L GND-RESCUE-Raspberry_Shield-RESCUE-Raspberry_Shield #PWR080
U 1 1 59093291
P 2355 1240
F 0 "#PWR080" H 2355 990 50  0001 C CNN
F 1 "GND" H 2355 1090 50  0001 C CNN
F 2 "" H 2355 1240 60  0000 C CNN
F 3 "" H 2355 1240 60  0000 C CNN
F 4 "ANY" H 2355 1240 60  0001 C CNN "Source"
F 5 "N" H 2355 1240 60  0001 C CNN "Critical"
F 6 "~" H 2355 1240 60  0001 C CNN "Notes"
	1    2355 1240
	1    0    0    -1  
$EndComp
Wire Wire Line
	2355 1240 2355 1200
Wire Wire Line
	1930 1240 1930 1200
Wire Wire Line
	3600 4725 4500 4725
$Comp
L C_Small C69
U 1 1 5909B1B4
P 6865 5225
F 0 "C69" H 6957 5271 50  0000 L CNN
F 1 "22µF 25V" H 6957 5180 50  0000 L CNN
F 2 "Capacitors_SMD:C_1210" H 6865 5225 50  0001 C CNN
F 3 "" H 6865 5225 50  0000 C CNN
F 4 "1276-3392-1-ND" H 6865 5225 60  0001 C CNN "digikey#"
F 5 "CL32B226KAJNNNE" H 6865 5225 60  0001 C CNN "manf#"
	1    6865 5225
	1    0    0    -1  
$EndComp
Wire Wire Line
	6865 4975 6865 5125
Connection ~ 6650 4975
Wire Wire Line
	6865 5775 6865 5325
Connection ~ 6500 5775
$Comp
L C_Small C19
U 1 1 5909E6F7
P 6575 2700
F 0 "C19" H 6667 2746 50  0000 L CNN
F 1 "22µF 25V" H 6667 2655 50  0000 L CNN
F 2 "Capacitors_SMD:C_1210" H 6575 2700 50  0001 C CNN
F 3 "" H 6575 2700 50  0000 C CNN
F 4 "1276-3392-1-ND" H 6575 2700 60  0001 C CNN "digikey#"
F 5 "CL32B226KAJNNNE" H 6575 2700 60  0001 C CNN "manf#"
	1    6575 2700
	1    0    0    -1  
$EndComp
$Comp
L C_Small C70
U 1 1 5909E7E5
P 6945 2700
F 0 "C70" H 7037 2746 50  0000 L CNN
F 1 "22µF 25V" H 7037 2655 50  0000 L CNN
F 2 "Capacitors_SMD:C_1210" H 6945 2700 50  0001 C CNN
F 3 "" H 6945 2700 50  0000 C CNN
F 4 "1276-3392-1-ND" H 6945 2700 60  0001 C CNN "digikey#"
F 5 "CL32B226KAJNNNE" H 6945 2700 60  0001 C CNN "manf#"
	1    6945 2700
	1    0    0    -1  
$EndComp
Wire Wire Line
	6945 2375 6945 2600
Wire Wire Line
	6945 3025 6945 2800
Connection ~ 6575 3025
$Comp
L L_Small L1
U 1 1 590A45D5
P 5575 2375
F 0 "L1" V 5760 2375 50  0000 C CNN
F 1 "10µH" V 5669 2375 50  0000 C CNN
F 2 "inductors_[JS]:SRN1060" H 5575 2375 50  0001 C CNN
F 3 "" H 5575 2375 50  0000 C CNN
F 4 "SRU1048A-100YCT-ND" V 5575 2375 60  0001 C CNN "digikey#"
F 5 "SRU1048A-100Y" H 5575 2375 60  0001 C CNN "manf#"
	1    5575 2375
	0    -1   -1   0   
$EndComp
$Comp
L C_Small C101
U 1 1 590A6369
P 7340 2700
F 0 "C101" H 7432 2746 50  0000 L CNN
F 1 "0.1µF 25V" H 7432 2655 50  0000 L CNN
F 2 "Capacitors_SMD:C_0603" H 7340 2700 50  0001 C CNN
F 3 "" H 7340 2700 50  0000 C CNN
F 4 "1276-1006-1-ND" H 7340 2700 60  0001 C CNN "digikey#"
F 5 "CL10B104KA8NNNC" H 7340 2700 60  0001 C CNN "manf#"
	1    7340 2700
	1    0    0    1   
$EndComp
Wire Wire Line
	7340 2375 7340 2600
Connection ~ 6945 2375
Wire Wire Line
	7340 3025 7340 2800
Connection ~ 6945 3025
$Comp
L C_Small C100
U 1 1 590A76FB
P 7240 5225
F 0 "C100" H 7332 5271 50  0000 L CNN
F 1 "0.1µF 25V" H 7332 5180 50  0000 L CNN
F 2 "Capacitors_SMD:C_0603" H 7240 5225 50  0001 C CNN
F 3 "" H 7240 5225 50  0000 C CNN
F 4 "1276-1006-1-ND" H 7240 5225 60  0001 C CNN "digikey#"
F 5 "CL10B104KA8NNNC" H 7240 5225 60  0001 C CNN "manf#"
	1    7240 5225
	1    0    0    1   
$EndComp
Wire Wire Line
	7240 4975 7240 5125
Connection ~ 6865 4975
Wire Wire Line
	7240 5775 7240 5325
Connection ~ 6865 5775
$EndSCHEMATC
