EESchema Schematic File Version 2
LIBS:Raspberry_Shield-rescue
LIBS:PCF8575
LIBS:ac-dc
LIBS:adc-dac
LIBS:Altera
LIBS:analog_devices
LIBS:analog_switches
LIBS:atmel
LIBS:audio
LIBS:brooktre
LIBS:contrib
LIBS:cypress
LIBS:dc-dc
LIBS:device
LIBS:digital-audio
LIBS:dsp
LIBS:elec-unifil
LIBS:ESD_Protection
LIBS:ftdi
LIBS:gennum
LIBS:hc11
LIBS:intel
LIBS:interface
LIBS:ir
LIBS:Lattice
LIBS:linear
LIBS:maxim
LIBS:memory
LIBS:microchip
LIBS:microcontrollers
LIBS:motor_drivers
LIBS:motorola
LIBS:nordicsemi
LIBS:onsemi
LIBS:opto
LIBS:Oscillators
LIBS:philips
LIBS:power
LIBS:powerint
LIBS:Power_Management
LIBS:pspice
LIBS:references
LIBS:regul
LIBS:rfcom
LIBS:sensors
LIBS:silabs
LIBS:siliconi
LIBS:supertex
LIBS:texas
LIBS:video
LIBS:Worldsemi
LIBS:Xicor
LIBS:xilinx
LIBS:Zilog
LIBS:Symbols_DCDC-ACDC-Converter_RevC_20Jul2012
LIBS:Symbols_EN60617_13Mar2013
LIBS:Symbols_EN60617-10_HF-Radio_DRAFT_12Sep2013
LIBS:Symbols_ICs-Diskrete_RevD10
LIBS:Symbols_ICs-Opto_RevB_16Sep2013
LIBS:Symbols_Microcontroller_Philips-NXP_RevA_06Oct2013
LIBS:SymbolsSimilarEN60617+oldDIN617-RevE8
LIBS:Symbols_Socket-DIN41612_RevA
LIBS:Symbols_Transformer-Diskrete_RevA
LIBS:Atmega8
LIBS:74lvc1g32
LIBS:Raspberry_Shield-cache
EELAYER 26 0
EELAYER END
$Descr A4 11693 8268
encoding utf-8
Sheet 4 5
Title "Laser4DIY Raspberry Pi Shield"
Date "2017-12-22"
Rev "01"
Comp ""
Comment1 ""
Comment2 ""
Comment3 ""
Comment4 ""
$EndDescr
$Comp
L RasPI_IO_Header_B+ J2
U 1 1 57A0DC56
P 5650 3625
AR Path="/57A1A8FF/57A0DC56" Ref="J2"  Part="1" 
AR Path="/57A1A8FF/57A1A8FF/57A0DC56" Ref="J2"  Part="1" 
F 0 "J2" H 5650 4812 60  0000 C CNN
F 1 "RasPI_IO_Header_B+" H 5650 4706 60  0000 C CNN
F 2 "RPi_Hat.pretty-master:Pin_Header_Straight_2x20" H 5650 3975 60  0001 C CNN
F 3 "" H 5650 3975 60  0000 C CNN
F 4 "CES-120-01-T-D" H 5650 3625 60  0001 C CNN "manf#"
F 5 "SAM1086-20-ND" H 5650 3625 60  0001 C CNN "digikey#"
	1    5650 3625
	1    0    0    -1  
$EndComp
Text Label 4450 2775 2    60   ~ 0
SDA_rasp
Text Label 4450 2875 2    60   ~ 0
SCL
Wire Wire Line
	6750 2675 7425 2675
Wire Wire Line
	7425 2425 7425 2775
Wire Wire Line
	7425 2775 6750 2775
Connection ~ 7425 2675
$Comp
L GND-RESCUE-Raspberry_Shield-RESCUE-Raspberry_Shield #PWR0135
U 1 1 57A979D9
P 3425 4725
AR Path="/57A1A8FF/57A979D9" Ref="#PWR0135"  Part="1" 
AR Path="/57A1A8FF/57A1A8FF/57A979D9" Ref="#PWR0117"  Part="1" 
F 0 "#PWR0135" H 3425 4475 50  0001 C CNN
F 1 "GND" H 3430 4552 50  0000 C CNN
F 2 "" H 3425 4725 50  0000 C CNN
F 3 "" H 3425 4725 50  0000 C CNN
	1    3425 4725
	1    0    0    -1  
$EndComp
$Comp
L GND-RESCUE-Raspberry_Shield-RESCUE-Raspberry_Shield #PWR0136
U 1 1 57A979DF
P 7725 4725
AR Path="/57A1A8FF/57A979DF" Ref="#PWR0136"  Part="1" 
AR Path="/57A1A8FF/57A1A8FF/57A979DF" Ref="#PWR0118"  Part="1" 
F 0 "#PWR0136" H 7725 4475 50  0001 C CNN
F 1 "GND" H 7730 4552 50  0000 C CNN
F 2 "" H 7725 4725 50  0000 C CNN
F 3 "" H 7725 4725 50  0000 C CNN
	1    7725 4725
	1    0    0    -1  
$EndComp
Wire Wire Line
	4550 3075 3425 3075
Wire Wire Line
	3425 3075 3425 4725
Wire Wire Line
	4550 3875 3425 3875
Connection ~ 3425 3875
Wire Wire Line
	4550 4575 3425 4575
Connection ~ 3425 4575
Wire Wire Line
	6750 2875 7725 2875
Wire Wire Line
	7725 2875 7725 4725
Wire Wire Line
	6750 3275 7725 3275
Connection ~ 7725 3275
Wire Wire Line
	6750 3575 7725 3575
Connection ~ 7725 3575
Wire Wire Line
	6750 4075 7725 4075
Connection ~ 7725 4075
Wire Wire Line
	6750 4275 7725 4275
Connection ~ 7725 4275
$Comp
L 3V3_Raspberry #PWR0137
U 1 1 57A979F7
P 3650 3300
AR Path="/57A1A8FF/57A979F7" Ref="#PWR0137"  Part="1" 
AR Path="/57A1A8FF/57A1A8FF/57A979F7" Ref="#PWR0119"  Part="1" 
F 0 "#PWR0137" H 3650 3260 30  0001 C CNN
F 1 "3V3_Raspberry" H 3650 3425 30  0000 C CNN
F 2 "" H 3650 3300 60  0000 C CNN
F 3 "" H 3650 3300 60  0000 C CNN
	1    3650 3300
	1    0    0    -1  
$EndComp
Text GLabel 8080 2975 2    60   Input ~ 0
TX_Rasp
Text GLabel 8080 3075 2    60   Input ~ 0
RX_Rasp
Text GLabel 6750 3175 2    60   Input ~ 0
LED_PWM_Rasp
Text GLabel 3645 2775 0    60   Input ~ 0
SDA
Text GLabel 2545 2875 0    60   Input ~ 0
SCL
$Comp
L +5VA #PWR0138
U 1 1 57A99F68
P 7425 2425
AR Path="/57A1A8FF/57A99F68" Ref="#PWR0138"  Part="1" 
AR Path="/57A1A8FF/57A1A8FF/57A99F68" Ref="#PWR0120"  Part="1" 
F 0 "#PWR0138" H 7425 2275 50  0001 C CNN
F 1 "+5VA" H 7440 2598 50  0000 C CNN
F 2 "" H 7425 2425 50  0000 C CNN
F 3 "" H 7425 2425 50  0000 C CNN
	1    7425 2425
	1    0    0    -1  
$EndComp
NoConn ~ 4550 3375
NoConn ~ 4550 3675
NoConn ~ 4550 3775
NoConn ~ 4550 4075
NoConn ~ 4550 4175
NoConn ~ 4550 4275
NoConn ~ 4550 4375
NoConn ~ 4550 4475
NoConn ~ 6750 4575
NoConn ~ 6750 4475
NoConn ~ 6750 4375
NoConn ~ 6750 4175
NoConn ~ 6750 3875
NoConn ~ 6750 3775
NoConn ~ 6750 3675
NoConn ~ 6750 3475
NoConn ~ 6750 3375
Wire Wire Line
	3645 2775 4550 2775
Wire Wire Line
	2545 2875 4550 2875
NoConn ~ 4550 3975
NoConn ~ 6750 3975
Text GLabel 4375 3175 0    60   Input ~ 0
PCF_INT
Wire Wire Line
	4375 3175 4550 3175
Wire Wire Line
	3650 3475 3650 3300
$Comp
L 3V3_Raspberry #PWR0139
U 1 1 5835013A
P 4425 2500
AR Path="/57A1A8FF/5835013A" Ref="#PWR0139"  Part="1" 
AR Path="/57A1A8FF/57A1A8FF/5835013A" Ref="#PWR0121"  Part="1" 
F 0 "#PWR0139" H 4425 2460 30  0001 C CNN
F 1 "3V3_Raspberry" H 4425 2625 30  0000 C CNN
F 2 "" H 4425 2500 60  0000 C CNN
F 3 "" H 4425 2500 60  0000 C CNN
	1    4425 2500
	1    0    0    -1  
$EndComp
Wire Wire Line
	4425 2500 4425 2675
NoConn ~ 4550 2975
NoConn ~ 4550 3275
Wire Wire Line
	3650 3475 4550 3475
Wire Wire Line
	4425 2675 4550 2675
$Comp
L C-RESCUE-Raspberry_Shield C87
U 1 1 590C8A6F
P 3810 2525
AR Path="/57A1A8FF/590C8A6F" Ref="C87"  Part="1" 
AR Path="/57A1A8FF/57A1A8FF/590C8A6F" Ref="C87"  Part="1" 
AR Path="/590C8A6F" Ref="C87"  Part="1" 
F 0 "C87" H 3925 2571 50  0000 L CNN
F 1 "75pF 50V" H 3925 2480 50  0000 L CNN
F 2 "Capacitors_SMD:C_0402" H 3848 2375 50  0001 C CNN
F 3 "" H 3810 2525 50  0001 C CNN
F 4 "GRM1555C1H750JA01D" H 3810 2525 60  0001 C CNN "manf#"
	1    3810 2525
	1    0    0    -1  
$EndComp
$Comp
L C-RESCUE-Raspberry_Shield C86
U 1 1 590C8BE0
P 2920 2670
AR Path="/57A1A8FF/590C8BE0" Ref="C86"  Part="1" 
AR Path="/57A1A8FF/57A1A8FF/590C8BE0" Ref="C86"  Part="1" 
AR Path="/590C8BE0" Ref="C86"  Part="1" 
F 0 "C86" H 3035 2716 50  0000 L CNN
F 1 "75pF 50V" H 3035 2625 50  0000 L CNN
F 2 "Capacitors_SMD:C_0402" H 2958 2520 50  0001 C CNN
F 3 "" H 2920 2670 50  0001 C CNN
F 4 "GRM1555C1H750JA01D" H 2920 2670 60  0001 C CNN "manf#"
	1    2920 2670
	1    0    0    -1  
$EndComp
Wire Wire Line
	3810 2675 3810 2775
Connection ~ 3810 2775
Wire Wire Line
	2920 2820 2920 2875
Connection ~ 2920 2875
$Comp
L GND-RESCUE-Raspberry_Shield-RESCUE-Raspberry_Shield #PWR0140
U 1 1 590C8DD5
P 2920 2475
AR Path="/57A1A8FF/590C8DD5" Ref="#PWR0140"  Part="1" 
AR Path="/57A1A8FF/57A1A8FF/590C8DD5" Ref="#PWR0129"  Part="1" 
F 0 "#PWR0140" H 2920 2225 50  0001 C CNN
F 1 "GND" H 2925 2302 50  0000 C CNN
F 2 "" H 2920 2475 50  0001 C CNN
F 3 "" H 2920 2475 50  0001 C CNN
	1    2920 2475
	-1   0    0    1   
$EndComp
$Comp
L GND-RESCUE-Raspberry_Shield-RESCUE-Raspberry_Shield #PWR0141
U 1 1 590C8E4A
P 3810 2305
AR Path="/57A1A8FF/590C8E4A" Ref="#PWR0141"  Part="1" 
AR Path="/57A1A8FF/57A1A8FF/590C8E4A" Ref="#PWR0130"  Part="1" 
F 0 "#PWR0141" H 3810 2055 50  0001 C CNN
F 1 "GND" H 3815 2132 50  0000 C CNN
F 2 "" H 3810 2305 50  0001 C CNN
F 3 "" H 3810 2305 50  0001 C CNN
	1    3810 2305
	-1   0    0    1   
$EndComp
Wire Wire Line
	3810 2375 3810 2305
Wire Wire Line
	2920 2520 2920 2475
Wire Wire Line
	6750 2975 8080 2975
Wire Wire Line
	6750 3075 8080 3075
$Comp
L C-RESCUE-Raspberry_Shield C88
U 1 1 590C9E67
P 7930 2730
AR Path="/57A1A8FF/590C9E67" Ref="C88"  Part="1" 
AR Path="/57A1A8FF/57A1A8FF/590C9E67" Ref="C88"  Part="1" 
AR Path="/590C9E67" Ref="C88"  Part="1" 
F 0 "C88" H 8045 2776 50  0000 L CNN
F 1 "330pF 25V" H 8045 2685 50  0000 L CNN
F 2 "Capacitors_SMD:C_0402" H 7968 2580 50  0001 C CNN
F 3 "" H 7930 2730 50  0001 C CNN
F 4 "732-7536-1-ND" H 7930 2730 60  0001 C CNN "digikey#"
F 5 "885012205041" H 7930 2730 60  0001 C CNN "manf#"
	1    7930 2730
	1    0    0    -1  
$EndComp
Wire Wire Line
	7930 2880 7930 2975
Connection ~ 7930 2975
$Comp
L GND-RESCUE-Raspberry_Shield-RESCUE-Raspberry_Shield #PWR0142
U 1 1 590CA248
P 7930 2480
AR Path="/57A1A8FF/590CA248" Ref="#PWR0142"  Part="1" 
AR Path="/57A1A8FF/57A1A8FF/590CA248" Ref="#PWR0131"  Part="1" 
F 0 "#PWR0142" H 7930 2230 50  0001 C CNN
F 1 "GND" H 7935 2307 50  0000 C CNN
F 2 "" H 7930 2480 50  0000 C CNN
F 3 "" H 7930 2480 50  0000 C CNN
	1    7930 2480
	-1   0    0    1   
$EndComp
Wire Wire Line
	7930 2580 7930 2480
Text GLabel 4350 3575 0    60   Output ~ 0
LED_SPI_Rasp
Wire Wire Line
	4350 3575 4550 3575
$EndSCHEMATC
